(deftemplate Part
	(slot id)
	(slot index)
	(slot part_index)
	(multislot measure)
)

(deftemplate Attributes
	(slot divisions)
	(slot clef_index)
	(slot index)
	(slot part_index)
	(slot time_index)
	(slot key_index)
)

(deftemplate Measure
	(slot barline_index)
	(slot width)
	(slot direction_index)
	(slot index)
	(slot number)
	(slot part_index)
	(slot attributes_index)
	(multislot note)
)

(deftemplate Note
	(slot tie_index)
	(slot dynamics)
	(slot index)
	(slot default_y)
	(slot duration)
	(slot stem)
	(slot accidental)
	(slot voice)
	(slot type)
	(slot notations_index)
	(slot beam_index)
	(slot pitch_index)
	(slot default_x)
	(slot part_index)
	(multislot lyric)
	(multislot beam)
)

(deftemplate Pitch
	(slot index)
	(slot part_index)
	(slot octave)
	(slot alter)
	(slot step)
)

(deftemplate Beam
	(slot number)
	(slot index)
	(slot data)
	(slot part_index)
)

(deftemplate Key
	(slot fifths)
	(slot index)
	(slot part_index)
)

(deftemplate Time
	(slot beat_type)
	(slot index)
	(slot beats)
	(slot part_index)
)

(deftemplate Transpose
)

(deftemplate Direction
	(slot index)
	(slot placement)
	(slot part_index)
	(slot direction_type_index)
	(slot sound_index)
)

(deftemplate Direction_Type
	(slot metronome_index)
	(slot index)
	(slot part_index)
)

(deftemplate Metronome
	(slot per_minute)
	(slot index)
	(slot default_x)
	(slot part_index)
	(slot parentheses)
	(slot relative_y)
	(slot beat_unit)
)

(deftemplate Sound
	(slot tempo)
	(slot index)
	(slot part_index)
)

(deftemplate Clef
	(slot sign)
	(slot line)
	(slot index)
	(slot part_index)
)

(deftemplate Barline
	(slot bar_style)
	(slot location)
	(slot index)
	(slot part_index)
)

(deftemplate Tie
	(slot type)
	(slot index)
	(slot part_index)
)

(deftemplate Instrument
)

(deftemplate Print
)

(deftemplate Notations
	(slot tied_index)
	(slot index)
	(slot part_index)
)

(deftemplate Backup
)

(deftemplate Unpitched
	(slot display_step)
	(slot index)
	(slot part_index)
)

(deftemplate Articulations
)

(deftemplate Repeat
)

(deftemplate Staff_layout
)

(deftemplate Tied
	(slot type)
	(slot index)
	(slot part_index)
)

(deftemplate System_layout
)

(deftemplate System_margins
)

(deffacts parts
	(Part (index 0)(id P1)(measure 0 1 2 3 4 5 6 7 8 9 10)(part_index 1))
	(Part (index 1)(id P2)(measure 11 12 13 14 15 16 17 18 19 20 21)(part_index 2))
)

(deffacts attributess
	(Attributes (index 0)(divisions 4)(key_index 0)(time_index 0)(clef_index 0)(part_index 1))
	(Attributes (index 1)(divisions 4)(key_index 1)(time_index 1)(clef_index 1)(part_index 2))
)

(deffacts measures
	(Measure (index 0)(number 1)(width 337.27)(attributes_index 0)(direction_index 0)(note 0 1 2 3 4 5)(part_index 1))
	(Measure (index 1)(number 2)(width 209.96)(note 6 7 8 9 10 11 12 13 14)(part_index 1))
	(Measure (index 2)(number 3)(width 202.69)(note 15 16 17 18 19 20 21 22)(part_index 1))
	(Measure (index 3)(number 4)(width 196.37)(note 23 24 25 26 27 28 29)(part_index 1))
	(Measure (index 4)(number 5)(width 306.44)(note 30 31 32 33 34 35 36)(part_index 1))
	(Measure (index 5)(number 6)(width 215.05)(note 37 38 39 40 41 42 43 44)(part_index 1))
	(Measure (index 6)(number 7)(width 252.35)(note 45 46 47 48 49 50 51 52)(part_index 1))
	(Measure (index 7)(number 8)(width 252.05)(note 53 54 55 56 57 58 59 60)(part_index 1))
	(Measure (index 8)(number 9)(width 425.48)(note 61 62 63 64 65 66 67 68)(part_index 1))
	(Measure (index 9)(number 10)(width 319.60)(note 69 70 71 72 73 74)(part_index 1))
	(Measure (index 10)(number 11)(width 280.81)(note 75 76 77 78)(barline_index 0)(part_index 1))
	(Measure (index 11)(number 1)(width 337.27)(attributes_index 1)(note 79 80 81 82 83 84 85 86)(part_index 2))
	(Measure (index 12)(number 2)(width 209.96)(note 87 88 89 90 91 92 93 94)(part_index 2))
	(Measure (index 13)(number 3)(width 202.69)(note 95 96 97 98 99 100)(part_index 2))
	(Measure (index 14)(number 4)(width 196.37)(note 101 102 103 104 105 106)(part_index 2))
	(Measure (index 15)(number 5)(width 306.44)(note 107 108 109 110 111 112 113 114)(part_index 2))
	(Measure (index 16)(number 6)(width 215.05)(note 115 116 117 118 119)(part_index 2))
	(Measure (index 17)(number 7)(width 252.35)(note 120 121 122 123 124 125 126 127)(part_index 2))
	(Measure (index 18)(number 8)(width 252.05)(note 128 129 130 131 132 133)(part_index 2))
	(Measure (index 19)(number 9)(width 425.48)(note 134 135 136 137 138 139)(part_index 2))
	(Measure (index 20)(number 10)(width 319.60)(note 140 141 142 143 144 145 146)(part_index 2))
	(Measure (index 21)(number 11)(width 280.81)(note 147 148 149 150)(barline_index 1)(part_index 2))
)

(deffacts notes
	(Note (index 0)(default_x 107.28)(default_y -20.00)(dynamics 141.11)(pitch_index 0)(duration 2)(voice 1)(type eighth)(stem down)(lyric 208 209)(part_index 1))
	(Note (index 1)(default_x 134.50)(default_y -30.00)(dynamics 141.11)(pitch_index 1)(duration 4)(voice 1)(type quarter)(stem up)(part_index 1))
	(Note (index 2)(default_x 192.79)(default_y -25.00)(dynamics 141.11)(pitch_index 2)(duration 2)(voice 1)(type eighth)(stem up)(part_index 1))
	(Note (index 3)(default_x 220.01)(default_y -20.00)(dynamics 141.11)(pitch_index 3)(duration 1)(voice 1)(type 16th)(stem down)(beam 0 1)(part_index 1))
	(Note (index 4)(default_x 237.02)(default_y -15.00)(dynamics 141.11)(pitch_index 4)(duration 1)(voice 1)(type 16th)(stem down)(beam 2 3)(part_index 1))
	(Note (index 5)(default_x 254.03)(default_y -20.00)(dynamics 141.11)(pitch_index 5)(duration 6)(voice 1)(type quarter)(stem down)(part_index 1))
	(Note (index 6)(default_x 10.00)(default_y -25.00)(dynamics 141.11)(pitch_index 6)(duration 2)(voice 1)(type eighth)(stem up)(beam_index 4)(part_index 1))
	(Note (index 7)(default_x 33.86)(default_y -30.00)(dynamics 141.11)(pitch_index 7)(duration 2)(voice 1)(type eighth)(stem up)(beam_index 5)(part_index 1))
	(Note (index 8)(default_x 57.72)(default_y -35.00)(dynamics 141.11)(pitch_index 8)(duration 2)(voice 1)(type eighth)(stem up)(beam_index 6)(part_index 1))
	(Note (index 9)(default_x 81.58)(default_y -35.00)(dynamics 141.11)(pitch_index 9)(duration 2)(voice 1)(type eighth)(stem up)(beam_index 7)(part_index 1))
	(Note (index 10)(default_x 105.45)(default_y -30.00)(dynamics 141.11)(pitch_index 10)(duration 1)(voice 1)(type 16th)(stem up)(beam 8 9)(part_index 1))
	(Note (index 11)(default_x 121.11)(default_y -25.00)(dynamics 141.11)(pitch_index 11)(duration 1)(voice 1)(type 16th)(stem up)(beam 10 11)(part_index 1))
	(Note (index 12)(default_x 136.78)(default_y -30.00)(dynamics 141.11)(pitch_index 12)(duration 2)(voice 1)(type eighth)(stem up)(beam_index 12)(part_index 1))
	(Note (index 13)(default_x 160.64)(default_y -35.00)(dynamics 141.11)(pitch_index 13)(duration 2)(voice 1)(type eighth)(stem up)(beam_index 13)(part_index 1))
	(Note (index 14)(default_x 184.50)(default_y -40.00)(dynamics 141.11)(pitch_index 14)(duration 2)(tie_index 0)(voice 1)(type eighth)(stem up)(beam_index 14)(notations_index 0)(part_index 1))
	(Note (index 15)(default_x 10.00)(default_y -40.00)(dynamics 141.11)(pitch_index 15)(duration 2)(tie_index 1)(voice 1)(type eighth)(stem up)(beam_index 15)(notations_index 1)(part_index 1))
	(Note (index 16)(default_x 33.69)(default_y -15.00)(dynamics 141.11)(pitch_index 16)(duration 2)(voice 1)(type eighth)(stem up)(beam_index 16)(part_index 1))
	(Note (index 17)(default_x 57.38)(default_y -20.00)(dynamics 141.11)(pitch_index 17)(duration 2)(voice 1)(type eighth)(stem up)(beam_index 17)(part_index 1))
	(Note (index 18)(default_x 81.07)(default_y -20.00)(dynamics 141.11)(pitch_index 18)(duration 2)(tie_index 2)(voice 1)(type eighth)(stem up)(beam_index 18)(notations_index 2)(part_index 1))
	(Note (index 19)(default_x 106.34)(default_y -20.00)(dynamics 141.11)(pitch_index 19)(duration 2)(tie_index 3)(voice 1)(type eighth)(stem down)(beam_index 19)(notations_index 3)(part_index 1))
	(Note (index 20)(default_x 130.02)(default_y -5.00)(dynamics 141.11)(pitch_index 20)(duration 2)(voice 1)(type eighth)(stem down)(beam_index 20)(part_index 1))
	(Note (index 21)(default_x 153.71)(default_y -10.00)(dynamics 141.11)(pitch_index 21)(duration 2)(voice 1)(type eighth)(stem down)(beam_index 21)(part_index 1))
	(Note (index 22)(default_x 177.40)(default_y -10.00)(dynamics 141.11)(pitch_index 22)(duration 2)(tie_index 4)(voice 1)(type eighth)(stem down)(beam_index 22)(notations_index 4)(part_index 1))
	(Note (index 23)(default_x 10.00)(default_y -10.00)(dynamics 141.11)(pitch_index 23)(duration 2)(tie_index 5)(voice 1)(type eighth)(stem up)(beam_index 23)(notations_index 5)(part_index 1))
	(Note (index 24)(default_x 32.63)(default_y -35.00)(dynamics 141.11)(pitch_index 24)(duration 2)(voice 1)(type eighth)(stem up)(beam_index 24)(part_index 1))
	(Note (index 25)(default_x 55.26)(default_y -15.00)(dynamics 141.11)(pitch_index 25)(duration 2)(voice 1)(type eighth)(stem up)(beam_index 25)(part_index 1))
	(Note (index 26)(default_x 77.88)(default_y -20.00)(dynamics 141.11)(pitch_index 26)(duration 2)(voice 1)(type eighth)(stem up)(beam_index 26)(part_index 1))
	(Note (index 27)(default_x 100.51)(default_y -25.00)(dynamics 141.11)(pitch_index 27)(duration 2)(voice 1)(type eighth)(stem up)(part_index 1))
	(Note (index 28)(default_x 125.79)(default_y -25.00)(dynamics 141.11)(pitch_index 28)(duration 4)(voice 1)(type quarter)(stem up)(part_index 1))
	(Note (index 29)(default_x 161.99)(default_y -30.00)(dynamics 141.11)(pitch_index 29)(duration 2)(voice 1)(type eighth)(stem up)(part_index 1))
	(Note (index 30)(duration 2)(voice 1)(type eighth)(part_index 1))
	(Note (index 31)(default_x 109.53)(default_y -20.00)(dynamics 141.11)(pitch_index 30)(duration 2)(voice 1)(type eighth)(stem down)(part_index 1))
	(Note (index 32)(default_x 136.47)(default_y -25.00)(dynamics 141.11)(pitch_index 31)(duration 4)(voice 1)(type quarter)(stem up)(part_index 1))
	(Note (index 33)(default_x 190.35)(default_y -20.00)(dynamics 141.11)(pitch_index 32)(duration 2)(voice 1)(type eighth)(stem up)(beam_index 27)(part_index 1))
	(Note (index 34)(default_x 217.29)(default_y -25.00)(dynamics 141.11)(pitch_index 33)(duration 1)(voice 1)(type 16th)(stem up)(beam 28 29)(part_index 1))
	(Note (index 35)(default_x 234.12)(default_y -30.00)(dynamics 141.11)(pitch_index 34)(duration 1)(voice 1)(type 16th)(stem up)(beam 30 31)(part_index 1))
	(Note (index 36)(default_x 250.96)(default_y -25.00)(dynamics 141.11)(pitch_index 35)(duration 4)(voice 1)(type quarter)(stem up)(part_index 1))
	(Note (index 37)(default_x 10.00)(default_y -20.00)(dynamics 141.11)(pitch_index 36)(duration 2)(voice 1)(type eighth)(stem down)(beam_index 32)(part_index 1))
	(Note (index 38)(default_x 35.43)(default_y -15.00)(dynamics 141.11)(pitch_index 37)(duration 2)(voice 1)(type eighth)(stem down)(beam_index 33)(part_index 1))
	(Note (index 39)(default_x 60.86)(default_y -10.00)(dynamics 141.11)(pitch_index 38)(duration 2)(voice 1)(type eighth)(stem down)(beam_index 34)(part_index 1))
	(Note (index 40)(default_x 86.29)(default_y -15.00)(dynamics 141.11)(pitch_index 39)(duration 2)(voice 1)(type eighth)(stem down)(beam_index 35)(part_index 1))
	(Note (index 41)(default_x 111.73)(default_y -15.00)(dynamics 141.11)(pitch_index 40)(duration 2)(voice 1)(type eighth)(stem down)(beam_index 36)(part_index 1))
	(Note (index 42)(default_x 137.16)(default_y -20.00)(dynamics 141.11)(pitch_index 41)(duration 2)(voice 1)(type eighth)(stem down)(beam_index 37)(part_index 1))
	(Note (index 43)(default_x 162.59)(default_y -15.00)(dynamics 141.11)(pitch_index 42)(duration 2)(voice 1)(type eighth)(stem down)(beam_index 38)(part_index 1))
	(Note (index 44)(default_x 188.02)(default_y -20.00)(dynamics 141.11)(pitch_index 43)(duration 2)(voice 1)(type eighth)(stem down)(beam_index 39)(part_index 1))
	(Note (index 45)(default_x 10.00)(default_y -25.00)(dynamics 141.11)(pitch_index 44)(duration 2)(voice 1)(type eighth)(stem down)(beam_index 40)(part_index 1))
	(Note (index 46)(default_x 38.92)(default_y -15.00)(dynamics 141.11)(pitch_index 45)(duration 2)(voice 1)(type eighth)(stem down)(beam_index 41)(part_index 1))
	(Note (index 47)(default_x 67.84)(default_y -35.00)(dynamics 141.11)(pitch_index 46)(duration 4)(voice 1)(type quarter)(stem up)(part_index 1))
	(Note (index 48)(default_x 125.68)(default_y -5.00)(dynamics 141.11)(pitch_index 47)(duration 2)(voice 1)(type eighth)(stem down)(beam_index 42)(part_index 1))
	(Note (index 49)(default_x 156.76)(default_y -10.00)(dynamics 141.11)(pitch_index 48)(duration 2)(voice 1)(type eighth)(accidental sharp)(stem down)(beam_index 43)(part_index 1))
	(Note (index 50)(default_x 185.68)(default_y -5.00)(dynamics 141.11)(pitch_index 49)(duration 1)(voice 1)(type 16th)(stem down)(beam 44 45)(part_index 1))
	(Note (index 51)(default_x 203.76)(default_y 0.00)(dynamics 141.11)(pitch_index 50)(duration 1)(voice 1)(type 16th)(stem down)(beam 46 47)(part_index 1))
	(Note (index 52)(default_x 221.83)(default_y 5.00)(dynamics 141.11)(pitch_index 51)(duration 2)(voice 1)(type eighth)(stem down)(beam_index 48)(part_index 1))
	(Note (index 53)(default_x 10.00)(default_y -15.00)(dynamics 141.11)(pitch_index 52)(duration 2)(voice 1)(type eighth)(stem down)(beam_index 49)(part_index 1))
	(Note (index 54)(default_x 39.71)(default_y -20.00)(dynamics 141.11)(pitch_index 53)(duration 2)(voice 1)(type eighth)(stem down)(beam_index 50)(part_index 1))
	(Note (index 55)(default_x 69.43)(default_y -25.00)(dynamics 141.11)(pitch_index 54)(duration 2)(voice 1)(type eighth)(stem down)(beam_index 51)(part_index 1))
	(Note (index 56)(default_x 99.14)(default_y 5.00)(dynamics 141.11)(pitch_index 55)(duration 2)(voice 1)(type eighth)(stem down)(beam_index 52)(part_index 1))
	(Note (index 57)(default_x 128.86)(default_y 0.00)(dynamics 141.11)(pitch_index 56)(duration 2)(voice 1)(type eighth)(stem down)(beam_index 53)(part_index 1))
	(Note (index 58)(default_x 158.57)(default_y -5.00)(dynamics 141.11)(pitch_index 57)(duration 2)(voice 1)(type eighth)(stem down)(beam_index 54)(part_index 1))
	(Note (index 59)(default_x 189.65)(default_y -10.00)(dynamics 141.11)(pitch_index 58)(duration 2)(voice 1)(type eighth)(accidental sharp)(stem down)(beam_index 55)(part_index 1))
	(Note (index 60)(default_x 220.74)(default_y -15.00)(dynamics 141.11)(pitch_index 59)(duration 2)(voice 1)(type eighth)(accidental sharp)(stem down)(beam_index 56)(part_index 1))
	(Note (index 61)(default_x 82.39)(default_y -20.00)(dynamics 141.11)(pitch_index 60)(duration 2)(voice 1)(type eighth)(stem down)(beam_index 57)(part_index 1))
	(Note (index 62)(default_x 125.07)(default_y -5.00)(dynamics 141.11)(pitch_index 61)(duration 2)(voice 1)(type eighth)(stem down)(beam_index 58)(part_index 1))
	(Note (index 63)(default_x 167.76)(default_y -10.00)(dynamics 141.11)(pitch_index 62)(duration 2)(voice 1)(type eighth)(stem down)(beam_index 59)(part_index 1))
	(Note (index 64)(default_x 210.45)(default_y -15.00)(dynamics 141.11)(pitch_index 63)(duration 2)(voice 1)(type eighth)(stem down)(beam_index 60)(part_index 1))
	(Note (index 65)(default_x 253.14)(default_y -20.00)(dynamics 141.11)(pitch_index 64)(duration 2)(voice 1)(type eighth)(stem up)(beam_index 61)(part_index 1))
	(Note (index 66)(default_x 295.82)(default_y -25.00)(dynamics 141.11)(pitch_index 65)(duration 2)(voice 1)(type eighth)(stem up)(beam_index 62)(part_index 1))
	(Note (index 67)(default_x 338.51)(default_y -20.00)(dynamics 141.11)(pitch_index 66)(duration 2)(voice 1)(type eighth)(stem up)(beam_index 63)(part_index 1))
	(Note (index 68)(default_x 381.20)(default_y -45.00)(dynamics 141.11)(pitch_index 67)(duration 2)(voice 1)(type eighth)(accidental sharp)(stem up)(beam_index 64)(part_index 1))
	(Note (index 69)(default_x 13.80)(default_y -40.00)(dynamics 141.11)(pitch_index 68)(duration 2)(voice 1)(type eighth)(stem up)(beam_index 65)(part_index 1))
	(Note (index 70)(default_x 53.83)(default_y -25.00)(dynamics 141.11)(pitch_index 69)(duration 2)(voice 1)(type eighth)(stem up)(beam_index 66)(part_index 1))
	(Note (index 71)(default_x 93.85)(default_y -30.00)(dynamics 141.11)(pitch_index 70)(duration 4)(voice 1)(type quarter)(stem up)(part_index 1))
	(Note (index 72)(default_x 173.90)(default_y -35.00)(dynamics 141.11)(pitch_index 71)(duration 2)(voice 1)(type eighth)(stem up)(beam_index 67)(part_index 1))
	(Note (index 73)(default_x 213.93)(default_y -40.00)(dynamics 141.11)(pitch_index 72)(duration 2)(voice 1)(type eighth)(stem up)(beam_index 68)(part_index 1))
	(Note (index 74)(default_x 253.96)(default_y -40.00)(dynamics 141.11)(pitch_index 73)(duration 4)(tie_index 6)(voice 1)(type quarter)(stem up)(notations_index 6)(part_index 1))
	(Note (index 75)(default_x 10.00)(default_y -40.00)(dynamics 141.11)(pitch_index 74)(duration 2)(tie_index 7)(voice 1)(type eighth)(stem up)(notations_index 7)(part_index 1))
	(Note (index 76)(duration 2)(voice 1)(type eighth)(part_index 1))
	(Note (index 77)(duration 4)(voice 1)(type quarter)(part_index 1))
	(Note (index 78)(duration 8)(voice 1)(type half)(part_index 1))
	(Note (index 79)(default_x 107.28)(default_y -171.43)(dynamics 141.11)(pitch_index 75)(duration 2)(voice 1)(type eighth)(stem up)(beam_index 69)(part_index 2))
	(Note (index 80)(default_x 134.50)(default_y -136.43)(dynamics 141.11)(pitch_index 76)(duration 2)(voice 1)(type eighth)(stem up)(beam_index 70)(part_index 2))
	(Note (index 81)(default_x 165.58)(default_y -141.43)(dynamics 141.11)(pitch_index 77)(duration 2)(voice 1)(type eighth)(accidental sharp)(stem up)(beam_index 71)(part_index 2))
	(Note (index 82)(default_x 192.79)(default_y -136.43)(dynamics 141.11)(pitch_index 78)(duration 2)(voice 1)(type eighth)(stem up)(beam_index 72)(part_index 2))
	(Note (index 83)(default_x 220.01)(default_y -131.43)(dynamics 141.11)(pitch_index 79)(duration 2)(voice 1)(type eighth)(stem down)(beam_index 73)(part_index 2))
	(Note (index 84)(default_x 254.03)(default_y -126.43)(dynamics 141.11)(pitch_index 80)(duration 2)(voice 1)(type eighth)(stem down)(beam_index 74)(part_index 2))
	(Note (index 85)(default_x 281.24)(default_y -131.43)(dynamics 141.11)(pitch_index 81)(duration 2)(voice 1)(type eighth)(stem down)(beam_index 75)(part_index 2))
	(Note (index 86)(default_x 308.46)(default_y -126.43)(dynamics 141.11)(pitch_index 82)(duration 2)(voice 1)(type eighth)(stem down)(beam_index 76)(part_index 2))
	(Note (index 87)(default_x 10.00)(default_y -121.43)(dynamics 141.11)(pitch_index 83)(duration 2)(voice 1)(type eighth)(stem down)(beam_index 77)(part_index 2))
	(Note (index 88)(default_x 33.86)(default_y -116.43)(dynamics 141.11)(pitch_index 84)(duration 2)(voice 1)(type eighth)(stem down)(beam_index 78)(part_index 2))
	(Note (index 89)(default_x 57.72)(default_y -121.43)(dynamics 141.11)(pitch_index 85)(duration 2)(voice 1)(type eighth)(stem down)(beam_index 79)(part_index 2))
	(Note (index 90)(default_x 81.58)(default_y -116.43)(dynamics 141.11)(pitch_index 86)(duration 2)(voice 1)(type eighth)(stem down)(beam_index 80)(part_index 2))
	(Note (index 91)(default_x 105.45)(default_y -151.43)(dynamics 141.11)(pitch_index 87)(duration 2)(voice 1)(type eighth)(stem up)(beam_index 81)(part_index 2))
	(Note (index 92)(default_x 136.78)(default_y -136.43)(dynamics 141.11)(pitch_index 88)(duration 2)(voice 1)(type eighth)(stem up)(beam_index 82)(part_index 2))
	(Note (index 93)(default_x 160.64)(default_y -151.43)(dynamics 141.11)(pitch_index 89)(duration 2)(voice 1)(type eighth)(stem up)(beam_index 83)(part_index 2))
	(Note (index 94)(default_x 184.50)(default_y -161.43)(dynamics 141.11)(pitch_index 90)(duration 2)(voice 1)(type eighth)(stem up)(beam_index 84)(part_index 2))
	(Note (index 95)(default_x 10.00)(default_y -151.43)(dynamics 141.11)(pitch_index 91)(duration 2)(voice 1)(type eighth)(stem up)(beam_index 85)(part_index 2))
	(Note (index 96)(default_x 33.69)(default_y -171.43)(dynamics 141.11)(pitch_index 92)(duration 2)(voice 1)(type eighth)(stem up)(beam_index 86)(part_index 2))
	(Note (index 97)(default_x 57.38)(default_y -136.43)(dynamics 141.11)(pitch_index 93)(duration 4)(voice 1)(type quarter)(stem down)(part_index 2))
	(Note (index 98)(default_x 106.34)(default_y -141.43)(dynamics 141.11)(pitch_index 94)(duration 2)(voice 1)(type eighth)(stem up)(beam_index 87)(part_index 2))
	(Note (index 99)(default_x 130.02)(default_y -146.43)(dynamics 141.11)(pitch_index 95)(duration 2)(voice 1)(type eighth)(stem up)(beam_index 88)(part_index 2))
	(Note (index 100)(default_x 153.71)(default_y -111.43)(dynamics 141.11)(pitch_index 96)(duration 4)(voice 1)(type quarter)(stem down)(part_index 2))
	(Note (index 101)(default_x 10.00)(default_y -116.43)(dynamics 141.11)(pitch_index 97)(duration 2)(voice 1)(type eighth)(stem down)(part_index 2))
	(Note (index 102)(default_x 32.63)(default_y -121.43)(dynamics 141.11)(pitch_index 98)(duration 4)(voice 1)(type quarter)(stem down)(part_index 2))
	(Note (index 103)(default_x 77.88)(default_y -126.43)(dynamics 141.11)(pitch_index 99)(duration 2)(tie_index 8)(voice 1)(type eighth)(stem down)(notations_index 8)(part_index 2))
	(Note (index 104)(default_x 100.51)(default_y -126.43)(dynamics 141.11)(pitch_index 100)(duration 2)(tie_index 9)(voice 1)(type eighth)(stem down)(notations_index 9)(part_index 2))
	(Note (index 105)(default_x 125.79)(default_y -141.43)(dynamics 141.11)(pitch_index 101)(duration 4)(voice 1)(type quarter)(stem down)(part_index 2))
	(Note (index 106)(default_x 161.99)(default_y -161.43)(dynamics 141.11)(pitch_index 102)(duration 2)(voice 1)(type eighth)(stem up)(part_index 2))
	(Note (index 107)(duration 2)(voice 1)(type eighth)(part_index 2))
	(Note (index 108)(default_x 109.53)(default_y -110.00)(dynamics 141.11)(pitch_index 103)(duration 2)(voice 1)(type eighth)(stem down)(beam_index 89)(part_index 2))
	(Note (index 109)(default_x 136.47)(default_y -115.00)(dynamics 141.11)(pitch_index 104)(duration 2)(voice 1)(type eighth)(stem down)(beam_index 90)(part_index 2))
	(Note (index 110)(default_x 163.41)(default_y -125.00)(dynamics 141.11)(pitch_index 105)(duration 2)(voice 1)(type eighth)(stem down)(beam_index 91)(part_index 2))
	(Note (index 111)(default_x 190.35)(default_y -110.00)(dynamics 141.11)(pitch_index 106)(duration 2)(voice 1)(type eighth)(stem up)(beam_index 92)(part_index 2))
	(Note (index 112)(default_x 217.29)(default_y -145.00)(dynamics 141.11)(pitch_index 107)(duration 2)(voice 1)(type eighth)(stem up)(beam_index 93)(part_index 2))
	(Note (index 113)(default_x 250.96)(default_y -125.00)(dynamics 141.11)(pitch_index 108)(duration 2)(voice 1)(type eighth)(stem up)(beam_index 94)(part_index 2))
	(Note (index 114)(default_x 277.90)(default_y -120.00)(dynamics 141.11)(pitch_index 109)(duration 2)(voice 1)(type eighth)(stem up)(beam_index 95)(part_index 2))
	(Note (index 115)(default_x 10.00)(default_y -125.00)(dynamics 141.11)(pitch_index 110)(duration 2)(voice 1)(type eighth)(stem up)(beam_index 96)(part_index 2))
	(Note (index 116)(default_x 35.43)(default_y -130.00)(dynamics 141.11)(pitch_index 111)(duration 2)(voice 1)(type eighth)(stem up)(beam_index 97)(part_index 2))
	(Note (index 117)(default_x 60.86)(default_y -135.00)(dynamics 141.11)(pitch_index 112)(duration 4)(voice 1)(type quarter)(stem up)(part_index 2))
	(Note (index 118)(default_x 111.73)(default_y -120.00)(dynamics 141.11)(pitch_index 113)(duration 4)(voice 1)(type quarter)(stem down)(part_index 2))
	(Note (index 119)(default_x 162.59)(default_y -140.00)(dynamics 141.11)(pitch_index 114)(duration 4)(tie_index 10)(voice 1)(type quarter)(stem up)(notations_index 10)(part_index 2))
	(Note (index 120)(default_x 10.00)(default_y -140.00)(dynamics 141.11)(pitch_index 115)(duration 2)(tie_index 11)(voice 1)(type eighth)(stem down)(beam_index 98)(notations_index 11)(part_index 2))
	(Note (index 121)(default_x 38.92)(default_y -105.00)(dynamics 141.11)(pitch_index 116)(duration 2)(voice 1)(type eighth)(stem down)(beam_index 99)(part_index 2))
	(Note (index 122)(default_x 67.84)(default_y -100.00)(dynamics 141.11)(pitch_index 117)(duration 2)(voice 1)(type eighth)(stem down)(beam_index 100)(part_index 2))
	(Note (index 123)(default_x 96.76)(default_y -105.00)(dynamics 141.11)(pitch_index 118)(duration 2)(voice 1)(type eighth)(stem down)(beam_index 101)(part_index 2))
	(Note (index 124)(default_x 125.68)(default_y -110.00)(dynamics 141.11)(pitch_index 119)(duration 2)(voice 1)(type eighth)(stem down)(beam_index 102)(part_index 2))
	(Note (index 125)(default_x 156.76)(default_y -115.00)(dynamics 141.11)(pitch_index 120)(duration 2)(voice 1)(type eighth)(stem down)(beam_index 103)(part_index 2))
	(Note (index 126)(default_x 185.68)(default_y -110.00)(dynamics 141.11)(pitch_index 121)(duration 2)(voice 1)(type eighth)(stem down)(beam_index 104)(part_index 2))
	(Note (index 127)(default_x 221.83)(default_y -115.00)(dynamics 141.11)(pitch_index 122)(duration 2)(voice 1)(type eighth)(stem down)(beam_index 105)(part_index 2))
	(Note (index 128)(default_x 10.00)(default_y -120.00)(dynamics 141.11)(pitch_index 123)(duration 2)(voice 1)(type eighth)(stem up)(beam_index 106)(part_index 2))
	(Note (index 129)(default_x 39.71)(default_y -125.00)(dynamics 141.11)(pitch_index 124)(duration 2)(voice 1)(type eighth)(stem up)(beam_index 107)(part_index 2))
	(Note (index 130)(default_x 69.43)(default_y -130.00)(dynamics 141.11)(pitch_index 125)(duration 2)(voice 1)(type eighth)(stem up)(beam_index 108)(part_index 2))
	(Note (index 131)(default_x 99.14)(default_y -135.00)(dynamics 141.11)(pitch_index 126)(duration 2)(voice 1)(type eighth)(stem up)(beam_index 109)(part_index 2))
	(Note (index 132)(default_x 128.86)(default_y -140.00)(dynamics 141.11)(pitch_index 127)(duration 4)(voice 1)(type quarter)(stem up)(part_index 2))
	(Note (index 133)(default_x 189.65)(default_y -135.00)(dynamics 141.11)(pitch_index 128)(duration 4)(tie_index 12)(voice 1)(type quarter)(stem up)(notations_index 12)(part_index 2))
	(Note (index 134)(default_x 82.39)(default_y -135.00)(dynamics 141.11)(pitch_index 129)(duration 2)(tie_index 13)(voice 1)(type eighth)(stem down)(beam_index 110)(notations_index 13)(part_index 2))
	(Note (index 135)(default_x 125.07)(default_y -110.00)(dynamics 141.11)(pitch_index 130)(duration 2)(voice 1)(type eighth)(stem down)(beam_index 111)(part_index 2))
	(Note (index 136)(default_x 167.76)(default_y -105.00)(dynamics 141.11)(pitch_index 131)(duration 4)(voice 1)(type quarter)(stem down)(part_index 2))
	(Note (index 137)(default_x 253.14)(default_y -115.00)(dynamics 141.11)(pitch_index 132)(duration 4)(voice 1)(type quarter)(stem down)(part_index 2))
	(Note (index 138)(default_x 338.51)(default_y -110.00)(dynamics 141.11)(pitch_index 133)(duration 2)(voice 1)(type eighth)(stem down)(beam_index 112)(part_index 2))
	(Note (index 139)(default_x 381.20)(default_y -100.00)(dynamics 141.11)(pitch_index 134)(duration 2)(voice 1)(type eighth)(stem down)(beam_index 113)(part_index 2))
	(Note (index 140)(default_x 13.80)(default_y -95.00)(dynamics 141.11)(pitch_index 135)(duration 2)(voice 1)(type eighth)(stem down)(beam_index 114)(part_index 2))
	(Note (index 141)(default_x 53.83)(default_y -105.00)(dynamics 141.11)(pitch_index 136)(duration 2)(voice 1)(type eighth)(stem down)(beam_index 115)(part_index 2))
	(Note (index 142)(default_x 93.85)(default_y -100.00)(dynamics 141.11)(pitch_index 137)(duration 2)(voice 1)(type eighth)(stem down)(beam_index 116)(part_index 2))
	(Note (index 143)(default_x 133.88)(default_y -105.00)(dynamics 141.11)(pitch_index 138)(duration 2)(voice 1)(type eighth)(stem down)(beam_index 117)(part_index 2))
	(Note (index 144)(default_x 173.90)(default_y -100.00)(dynamics 141.11)(pitch_index 139)(duration 2)(voice 1)(type eighth)(stem down)(beam_index 118)(part_index 2))
	(Note (index 145)(default_x 213.93)(default_y -135.00)(dynamics 141.11)(pitch_index 140)(duration 2)(voice 1)(type eighth)(stem down)(beam_index 119)(part_index 2))
	(Note (index 146)(default_x 253.96)(default_y -120.00)(dynamics 141.11)(pitch_index 141)(duration 4)(tie_index 14)(voice 1)(type quarter)(stem down)(notations_index 14)(part_index 2))
	(Note (index 147)(default_x 10.00)(default_y -120.00)(dynamics 141.11)(pitch_index 142)(duration 2)(tie_index 15)(voice 1)(type eighth)(stem down)(notations_index 15)(part_index 2))
	(Note (index 148)(duration 2)(voice 1)(type eighth)(part_index 2))
	(Note (index 149)(duration 4)(voice 1)(type quarter)(part_index 2))
	(Note (index 150)(duration 8)(voice 1)(type half)(part_index 2))
)

(deffacts pitchs
	(Pitch (index 0)(step B)(octave 4)(part_index 1))
	(Pitch (index 1)(step G)(octave 4)(part_index 1))
	(Pitch (index 2)(step A)(octave 4)(part_index 1))
	(Pitch (index 3)(step B)(octave 4)(part_index 1))
	(Pitch (index 4)(step C)(octave 5)(part_index 1))
	(Pitch (index 5)(step B)(octave 4)(part_index 1))
	(Pitch (index 6)(step A)(octave 4)(part_index 1))
	(Pitch (index 7)(step G)(octave 4)(part_index 1))
	(Pitch (index 8)(step F)(alter 1)(octave 4)(part_index 1))
	(Pitch (index 9)(step F)(alter 1)(octave 4)(part_index 1))
	(Pitch (index 10)(step G)(octave 4)(part_index 1))
	(Pitch (index 11)(step A)(octave 4)(part_index 1))
	(Pitch (index 12)(step G)(octave 4)(part_index 1))
	(Pitch (index 13)(step F)(alter 1)(octave 4)(part_index 1))
	(Pitch (index 14)(step E)(octave 4)(part_index 1))
	(Pitch (index 15)(step E)(octave 4)(part_index 1))
	(Pitch (index 16)(step C)(octave 5)(part_index 1))
	(Pitch (index 17)(step B)(octave 4)(part_index 1))
	(Pitch (index 18)(step B)(octave 4)(part_index 1))
	(Pitch (index 19)(step B)(octave 4)(part_index 1))
	(Pitch (index 20)(step E)(octave 5)(part_index 1))
	(Pitch (index 21)(step D)(octave 5)(part_index 1))
	(Pitch (index 22)(step D)(octave 5)(part_index 1))
	(Pitch (index 23)(step D)(octave 5)(part_index 1))
	(Pitch (index 24)(step F)(alter 1)(octave 4)(part_index 1))
	(Pitch (index 25)(step C)(octave 5)(part_index 1))
	(Pitch (index 26)(step B)(octave 4)(part_index 1))
	(Pitch (index 27)(step A)(octave 4)(part_index 1))
	(Pitch (index 28)(step A)(octave 4)(part_index 1))
	(Pitch (index 29)(step G)(octave 4)(part_index 1))
	(Pitch (index 30)(step B)(octave 4)(part_index 1))
	(Pitch (index 31)(step A)(octave 4)(part_index 1))
	(Pitch (index 32)(step B)(octave 4)(part_index 1))
	(Pitch (index 33)(step A)(octave 4)(part_index 1))
	(Pitch (index 34)(step G)(octave 4)(part_index 1))
	(Pitch (index 35)(step A)(octave 4)(part_index 1))
	(Pitch (index 36)(step B)(octave 4)(part_index 1))
	(Pitch (index 37)(step C)(octave 5)(part_index 1))
	(Pitch (index 38)(step D)(octave 5)(part_index 1))
	(Pitch (index 39)(step C)(octave 5)(part_index 1))
	(Pitch (index 40)(step C)(octave 5)(part_index 1))
	(Pitch (index 41)(step B)(octave 4)(part_index 1))
	(Pitch (index 42)(step C)(octave 5)(part_index 1))
	(Pitch (index 43)(step B)(octave 4)(part_index 1))
	(Pitch (index 44)(step A)(octave 4)(part_index 1))
	(Pitch (index 45)(step C)(octave 5)(part_index 1))
	(Pitch (index 46)(step F)(alter 1)(octave 4)(part_index 1))
	(Pitch (index 47)(step E)(octave 5)(part_index 1))
	(Pitch (index 48)(step D)(alter 1)(octave 5)(part_index 1))
	(Pitch (index 49)(step E)(octave 5)(part_index 1))
	(Pitch (index 50)(step F)(alter 1)(octave 5)(part_index 1))
	(Pitch (index 51)(step G)(octave 5)(part_index 1))
	(Pitch (index 52)(step C)(octave 5)(part_index 1))
	(Pitch (index 53)(step B)(octave 4)(part_index 1))
	(Pitch (index 54)(step A)(octave 4)(part_index 1))
	(Pitch (index 55)(step G)(octave 5)(part_index 1))
	(Pitch (index 56)(step F)(alter 1)(octave 5)(part_index 1))
	(Pitch (index 57)(step E)(octave 5)(part_index 1))
	(Pitch (index 58)(step D)(alter 1)(octave 5)(part_index 1))
	(Pitch (index 59)(step C)(alter 1)(octave 5)(part_index 1))
	(Pitch (index 60)(step B)(octave 4)(part_index 1))
	(Pitch (index 61)(step E)(octave 5)(part_index 1))
	(Pitch (index 62)(step D)(octave 5)(part_index 1))
	(Pitch (index 63)(step C)(octave 5)(part_index 1))
	(Pitch (index 64)(step B)(octave 4)(part_index 1))
	(Pitch (index 65)(step A)(octave 4)(part_index 1))
	(Pitch (index 66)(step B)(octave 4)(part_index 1))
	(Pitch (index 67)(step D)(alter 1)(octave 4)(part_index 1))
	(Pitch (index 68)(step E)(octave 4)(part_index 1))
	(Pitch (index 69)(step A)(octave 4)(part_index 1))
	(Pitch (index 70)(step G)(octave 4)(part_index 1))
	(Pitch (index 71)(step F)(alter 1)(octave 4)(part_index 1))
	(Pitch (index 72)(step E)(octave 4)(part_index 1))
	(Pitch (index 73)(step E)(octave 4)(part_index 1))
	(Pitch (index 74)(step E)(octave 4)(part_index 1))
	(Pitch (index 75)(step E)(octave 2)(part_index 2))
	(Pitch (index 76)(step E)(octave 3)(part_index 2))
	(Pitch (index 77)(step D)(alter 1)(octave 3)(part_index 2))
	(Pitch (index 78)(step E)(octave 3)(part_index 2))
	(Pitch (index 79)(step F)(alter 1)(octave 3)(part_index 2))
	(Pitch (index 80)(step G)(octave 3)(part_index 2))
	(Pitch (index 81)(step F)(alter 1)(octave 3)(part_index 2))
	(Pitch (index 82)(step G)(octave 3)(part_index 2))
	(Pitch (index 83)(step A)(octave 3)(part_index 2))
	(Pitch (index 84)(step B)(octave 3)(part_index 2))
	(Pitch (index 85)(step A)(octave 3)(part_index 2))
	(Pitch (index 86)(step B)(octave 3)(part_index 2))
	(Pitch (index 87)(step B)(octave 2)(part_index 2))
	(Pitch (index 88)(step E)(octave 3)(part_index 2))
	(Pitch (index 89)(step B)(octave 2)(part_index 2))
	(Pitch (index 90)(step G)(octave 2)(part_index 2))
	(Pitch (index 91)(step B)(octave 2)(part_index 2))
	(Pitch (index 92)(step E)(octave 2)(part_index 2))
	(Pitch (index 93)(step E)(octave 3)(part_index 2))
	(Pitch (index 94)(step D)(octave 3)(part_index 2))
	(Pitch (index 95)(step C)(octave 3)(part_index 2))
	(Pitch (index 96)(step C)(octave 4)(part_index 2))
	(Pitch (index 97)(step B)(octave 3)(part_index 2))
	(Pitch (index 98)(step A)(octave 3)(part_index 2))
	(Pitch (index 99)(step G)(octave 3)(part_index 2))
	(Pitch (index 100)(step G)(octave 3)(part_index 2))
	(Pitch (index 101)(step D)(octave 3)(part_index 2))
	(Pitch (index 102)(step G)(octave 2)(part_index 2))
	(Pitch (index 103)(step G)(octave 3)(part_index 2))
	(Pitch (index 104)(step F)(alter 1)(octave 3)(part_index 2))
	(Pitch (index 105)(step D)(octave 3)(part_index 2))
	(Pitch (index 106)(step G)(octave 3)(part_index 2))
	(Pitch (index 107)(step G)(octave 2)(part_index 2))
	(Pitch (index 108)(step D)(octave 3)(part_index 2))
	(Pitch (index 109)(step E)(octave 3)(part_index 2))
	(Pitch (index 110)(step D)(octave 3)(part_index 2))
	(Pitch (index 111)(step C)(octave 3)(part_index 2))
	(Pitch (index 112)(step B)(octave 2)(part_index 2))
	(Pitch (index 113)(step E)(octave 3)(part_index 2))
	(Pitch (index 114)(step A)(octave 2)(part_index 2))
	(Pitch (index 115)(step A)(octave 2)(part_index 2))
	(Pitch (index 116)(step A)(octave 3)(part_index 2))
	(Pitch (index 117)(step B)(octave 3)(part_index 2))
	(Pitch (index 118)(step A)(octave 3)(part_index 2))
	(Pitch (index 119)(step G)(octave 3)(part_index 2))
	(Pitch (index 120)(step F)(alter 1)(octave 3)(part_index 2))
	(Pitch (index 121)(step G)(octave 3)(part_index 2))
	(Pitch (index 122)(step F)(alter 1)(octave 3)(part_index 2))
	(Pitch (index 123)(step E)(octave 3)(part_index 2))
	(Pitch (index 124)(step D)(octave 3)(part_index 2))
	(Pitch (index 125)(step C)(octave 3)(part_index 2))
	(Pitch (index 126)(step B)(octave 2)(part_index 2))
	(Pitch (index 127)(step A)(octave 2)(part_index 2))
	(Pitch (index 128)(step B)(octave 2)(part_index 2))
	(Pitch (index 129)(step B)(octave 2)(part_index 2))
	(Pitch (index 130)(step G)(octave 3)(part_index 2))
	(Pitch (index 131)(step A)(octave 3)(part_index 2))
	(Pitch (index 132)(step F)(alter 1)(octave 3)(part_index 2))
	(Pitch (index 133)(step G)(octave 3)(part_index 2))
	(Pitch (index 134)(step B)(octave 3)(part_index 2))
	(Pitch (index 135)(step C)(octave 4)(part_index 2))
	(Pitch (index 136)(step A)(octave 3)(part_index 2))
	(Pitch (index 137)(step B)(octave 3)(part_index 2))
	(Pitch (index 138)(step A)(octave 3)(part_index 2))
	(Pitch (index 139)(step B)(octave 3)(part_index 2))
	(Pitch (index 140)(step B)(octave 2)(part_index 2))
	(Pitch (index 141)(step E)(octave 3)(part_index 2))
	(Pitch (index 142)(step E)(octave 3)(part_index 2))
)

(deffacts beams
	(Beam (index 0)(data begin)(number 1)(part_index 1))
	(Beam (index 1)(data begin)(number 2)(part_index 1))
	(Beam (index 2)(data end)(number 1)(part_index 1))
	(Beam (index 3)(data end)(number 2)(part_index 1))
	(Beam (index 4)(data begin)(number 1)(part_index 1))
	(Beam (index 5)(data continue)(number 1)(part_index 1))
	(Beam (index 6)(data continue)(number 1)(part_index 1))
	(Beam (index 7)(data end)(number 1)(part_index 1))
	(Beam (index 8)(data begin)(number 1)(part_index 1))
	(Beam (index 9)(data begin)(number 2)(part_index 1))
	(Beam (index 10)(data continue)(number 1)(part_index 1))
	(Beam (index 11)(data end)(number 2)(part_index 1))
	(Beam (index 12)(data end)(number 1)(part_index 1))
	(Beam (index 13)(data begin)(number 1)(part_index 1))
	(Beam (index 14)(data end)(number 1)(part_index 1))
	(Beam (index 15)(data begin)(number 1)(part_index 1))
	(Beam (index 16)(data continue)(number 1)(part_index 1))
	(Beam (index 17)(data continue)(number 1)(part_index 1))
	(Beam (index 18)(data end)(number 1)(part_index 1))
	(Beam (index 19)(data begin)(number 1)(part_index 1))
	(Beam (index 20)(data continue)(number 1)(part_index 1))
	(Beam (index 21)(data continue)(number 1)(part_index 1))
	(Beam (index 22)(data end)(number 1)(part_index 1))
	(Beam (index 23)(data begin)(number 1)(part_index 1))
	(Beam (index 24)(data continue)(number 1)(part_index 1))
	(Beam (index 25)(data continue)(number 1)(part_index 1))
	(Beam (index 26)(data end)(number 1)(part_index 1))
	(Beam (index 27)(data begin)(number 1)(part_index 1))
	(Beam (index 28)(data continue)(number 1)(part_index 1))
	(Beam (index 29)(data begin)(number 2)(part_index 1))
	(Beam (index 30)(data end)(number 1)(part_index 1))
	(Beam (index 31)(data end)(number 2)(part_index 1))
	(Beam (index 32)(data begin)(number 1)(part_index 1))
	(Beam (index 33)(data continue)(number 1)(part_index 1))
	(Beam (index 34)(data continue)(number 1)(part_index 1))
	(Beam (index 35)(data end)(number 1)(part_index 1))
	(Beam (index 36)(data begin)(number 1)(part_index 1))
	(Beam (index 37)(data continue)(number 1)(part_index 1))
	(Beam (index 38)(data continue)(number 1)(part_index 1))
	(Beam (index 39)(data end)(number 1)(part_index 1))
	(Beam (index 40)(data begin)(number 1)(part_index 1))
	(Beam (index 41)(data end)(number 1)(part_index 1))
	(Beam (index 42)(data begin)(number 1)(part_index 1))
	(Beam (index 43)(data end)(number 1)(part_index 1))
	(Beam (index 44)(data begin)(number 1)(part_index 1))
	(Beam (index 45)(data begin)(number 2)(part_index 1))
	(Beam (index 46)(data continue)(number 1)(part_index 1))
	(Beam (index 47)(data end)(number 2)(part_index 1))
	(Beam (index 48)(data end)(number 1)(part_index 1))
	(Beam (index 49)(data begin)(number 1)(part_index 1))
	(Beam (index 50)(data continue)(number 1)(part_index 1))
	(Beam (index 51)(data continue)(number 1)(part_index 1))
	(Beam (index 52)(data end)(number 1)(part_index 1))
	(Beam (index 53)(data begin)(number 1)(part_index 1))
	(Beam (index 54)(data continue)(number 1)(part_index 1))
	(Beam (index 55)(data continue)(number 1)(part_index 1))
	(Beam (index 56)(data end)(number 1)(part_index 1))
	(Beam (index 57)(data begin)(number 1)(part_index 1))
	(Beam (index 58)(data continue)(number 1)(part_index 1))
	(Beam (index 59)(data continue)(number 1)(part_index 1))
	(Beam (index 60)(data end)(number 1)(part_index 1))
	(Beam (index 61)(data begin)(number 1)(part_index 1))
	(Beam (index 62)(data continue)(number 1)(part_index 1))
	(Beam (index 63)(data continue)(number 1)(part_index 1))
	(Beam (index 64)(data end)(number 1)(part_index 1))
	(Beam (index 65)(data begin)(number 1)(part_index 1))
	(Beam (index 66)(data end)(number 1)(part_index 1))
	(Beam (index 67)(data begin)(number 1)(part_index 1))
	(Beam (index 68)(data end)(number 1)(part_index 1))
	(Beam (index 69)(data begin)(number 1)(part_index 2))
	(Beam (index 70)(data continue)(number 1)(part_index 2))
	(Beam (index 71)(data continue)(number 1)(part_index 2))
	(Beam (index 72)(data end)(number 1)(part_index 2))
	(Beam (index 73)(data begin)(number 1)(part_index 2))
	(Beam (index 74)(data continue)(number 1)(part_index 2))
	(Beam (index 75)(data continue)(number 1)(part_index 2))
	(Beam (index 76)(data end)(number 1)(part_index 2))
	(Beam (index 77)(data begin)(number 1)(part_index 2))
	(Beam (index 78)(data continue)(number 1)(part_index 2))
	(Beam (index 79)(data continue)(number 1)(part_index 2))
	(Beam (index 80)(data end)(number 1)(part_index 2))
	(Beam (index 81)(data begin)(number 1)(part_index 2))
	(Beam (index 82)(data continue)(number 1)(part_index 2))
	(Beam (index 83)(data continue)(number 1)(part_index 2))
	(Beam (index 84)(data end)(number 1)(part_index 2))
	(Beam (index 85)(data begin)(number 1)(part_index 2))
	(Beam (index 86)(data end)(number 1)(part_index 2))
	(Beam (index 87)(data begin)(number 1)(part_index 2))
	(Beam (index 88)(data end)(number 1)(part_index 2))
	(Beam (index 89)(data begin)(number 1)(part_index 2))
	(Beam (index 90)(data continue)(number 1)(part_index 2))
	(Beam (index 91)(data end)(number 1)(part_index 2))
	(Beam (index 92)(data begin)(number 1)(part_index 2))
	(Beam (index 93)(data continue)(number 1)(part_index 2))
	(Beam (index 94)(data continue)(number 1)(part_index 2))
	(Beam (index 95)(data end)(number 1)(part_index 2))
	(Beam (index 96)(data begin)(number 1)(part_index 2))
	(Beam (index 97)(data end)(number 1)(part_index 2))
	(Beam (index 98)(data begin)(number 1)(part_index 2))
	(Beam (index 99)(data continue)(number 1)(part_index 2))
	(Beam (index 100)(data continue)(number 1)(part_index 2))
	(Beam (index 101)(data end)(number 1)(part_index 2))
	(Beam (index 102)(data begin)(number 1)(part_index 2))
	(Beam (index 103)(data continue)(number 1)(part_index 2))
	(Beam (index 104)(data continue)(number 1)(part_index 2))
	(Beam (index 105)(data end)(number 1)(part_index 2))
	(Beam (index 106)(data begin)(number 1)(part_index 2))
	(Beam (index 107)(data continue)(number 1)(part_index 2))
	(Beam (index 108)(data continue)(number 1)(part_index 2))
	(Beam (index 109)(data end)(number 1)(part_index 2))
	(Beam (index 110)(data begin)(number 1)(part_index 2))
	(Beam (index 111)(data end)(number 1)(part_index 2))
	(Beam (index 112)(data begin)(number 1)(part_index 2))
	(Beam (index 113)(data end)(number 1)(part_index 2))
	(Beam (index 114)(data begin)(number 1)(part_index 2))
	(Beam (index 115)(data continue)(number 1)(part_index 2))
	(Beam (index 116)(data continue)(number 1)(part_index 2))
	(Beam (index 117)(data end)(number 1)(part_index 2))
	(Beam (index 118)(data begin)(number 1)(part_index 2))
	(Beam (index 119)(data end)(number 1)(part_index 2))
)

(deffacts keys
	(Key (index 0)(fifths 1)(part_index 1))
	(Key (index 1)(fifths 1)(part_index 2))
)

(deffacts times
	(Time (index 0)(beats 4)(beat_type 4)(part_index 1))
	(Time (index 1)(beats 4)(beat_type 4)(part_index 2))
)

(deffacts transposes
)

(deffacts directions
	(Direction (index 0)(placement above)(direction_type_index 0)(sound_index 0)(part_index 1))
)

(deffacts direction_types
	(Direction_Type (index 0)(metronome_index 0)(part_index 1))
)

(deffacts metronomes
	(Metronome (index 0)(parentheses no)(default_x -39.76)(relative_y 20.00)(beat_unit quarter)(per_minute 60)(part_index 1))
)

(deffacts sounds
	(Sound (index 0)(tempo 60)(part_index 1))
)

(deffacts clefs
	(Clef (index 0)(sign G)(line 2)(part_index 1))
	(Clef (index 1)(sign F)(line 4)(part_index 2))
)

(deffacts barlines
	(Barline (index 0)(location right)(bar_style light-heavy)(part_index 1))
	(Barline (index 1)(location right)(bar_style light-heavy)(part_index 2))
)

(deffacts ties
	(Tie (index 0)(type start)(part_index 1))
	(Tie (index 1)(type stop)(part_index 1))
	(Tie (index 2)(type start)(part_index 1))
	(Tie (index 3)(type stop)(part_index 1))
	(Tie (index 4)(type start)(part_index 1))
	(Tie (index 5)(type stop)(part_index 1))
	(Tie (index 6)(type start)(part_index 1))
	(Tie (index 7)(type stop)(part_index 1))
	(Tie (index 8)(type start)(part_index 2))
	(Tie (index 9)(type stop)(part_index 2))
	(Tie (index 10)(type start)(part_index 2))
	(Tie (index 11)(type stop)(part_index 2))
	(Tie (index 12)(type start)(part_index 2))
	(Tie (index 13)(type stop)(part_index 2))
	(Tie (index 14)(type start)(part_index 2))
	(Tie (index 15)(type stop)(part_index 2))
)

(deffacts instruments
)

(deffacts prints
)

(deffacts notationss
	(Notations (index 0)(tied_index 0)(part_index 1))
	(Notations (index 1)(tied_index 1)(part_index 1))
	(Notations (index 2)(tied_index 2)(part_index 1))
	(Notations (index 3)(tied_index 3)(part_index 1))
	(Notations (index 4)(tied_index 4)(part_index 1))
	(Notations (index 5)(tied_index 5)(part_index 1))
	(Notations (index 6)(tied_index 6)(part_index 1))
	(Notations (index 7)(tied_index 7)(part_index 1))
	(Notations (index 8)(tied_index 8)(part_index 2))
	(Notations (index 9)(tied_index 9)(part_index 2))
	(Notations (index 10)(tied_index 10)(part_index 2))
	(Notations (index 11)(tied_index 11)(part_index 2))
	(Notations (index 12)(tied_index 12)(part_index 2))
	(Notations (index 13)(tied_index 13)(part_index 2))
	(Notations (index 14)(tied_index 14)(part_index 2))
	(Notations (index 15)(tied_index 15)(part_index 2))
)

(deffacts backups
)

(deffacts unpitcheds
	(Unpitched (index 0)(part_index -1)(display_step A))
)

(deffacts articulationss
)

(deffacts repeats
)

(deffacts staff_layouts
)

(deffacts tieds
	(Tied (index 0)(type start)(part_index 1))
	(Tied (index 1)(type stop)(part_index 1))
	(Tied (index 2)(type start)(part_index 1))
	(Tied (index 3)(type stop)(part_index 1))
	(Tied (index 4)(type start)(part_index 1))
	(Tied (index 5)(type stop)(part_index 1))
	(Tied (index 6)(type start)(part_index 1))
	(Tied (index 7)(type stop)(part_index 1))
	(Tied (index 8)(type start)(part_index 2))
	(Tied (index 9)(type stop)(part_index 2))
	(Tied (index 10)(type start)(part_index 2))
	(Tied (index 11)(type stop)(part_index 2))
	(Tied (index 12)(type start)(part_index 2))
	(Tied (index 13)(type stop)(part_index 2))
	(Tied (index 14)(type start)(part_index 2))
	(Tied (index 15)(type stop)(part_index 2))
)

(deffacts system_layouts
)

(deffacts system_marginss
)

