(deftemplate Part
	(slot id)
	(slot index)
	(slot part_index)
	(multislot measure)
)

(deftemplate Attributes
	(slot divisions)
	(slot clef_index)
	(slot index)
	(slot part_index)
	(slot time_index)
	(slot key_index)
)

(deftemplate Measure
	(slot barline_index)
	(slot width)
	(slot direction_index)
	(slot index)
	(slot number)
	(slot part_index)
	(slot attributes_index)
	(multislot note)
	(multislot backup)
)

(deftemplate Note
	(slot tie_index)
	(slot dynamics)
	(slot index)
	(slot default_y)
	(slot duration)
	(slot lyric_index)
	(slot stem)
	(slot accidental)
	(slot voice)
	(slot type)
	(slot notations_index)
	(slot pitch_index)
	(slot default_x)
	(slot part_index)
	(multislot tie)
)

(deftemplate Pitch
	(slot index)
	(slot part_index)
	(slot octave)
	(slot alter)
	(slot step)
)

(deftemplate Beam
)

(deftemplate Key
	(slot fifths)
	(slot index)
	(slot part_index)
)

(deftemplate Time
	(slot beat_type)
	(slot index)
	(slot beats)
	(slot part_index)
)

(deftemplate Transpose
)

(deftemplate Direction
	(slot index)
	(slot placement)
	(slot part_index)
	(slot direction_type_index)
	(slot sound_index)
)

(deftemplate Direction_Type
	(slot metronome_index)
	(slot index)
	(slot part_index)
)

(deftemplate Metronome
	(slot per_minute)
	(slot index)
	(slot default_y)
	(slot parentheses)
	(slot default_x)
	(slot part_index)
	(slot beat_unit)
	(slot relative_y)
)

(deftemplate Sound
	(slot tempo)
	(slot index)
	(slot part_index)
)

(deftemplate Clef
	(slot index)
	(slot line)
	(slot part_index)
	(slot sign)
	(slot clef_octave_change)
)

(deftemplate Barline
	(slot bar_style)
	(slot location)
	(slot index)
	(slot part_index)
)

(deftemplate Tie
	(slot type)
	(slot index)
	(slot part_index)
)

(deftemplate Instrument
)

(deftemplate Print
)

(deftemplate Notations
	(slot tied_index)
	(slot articulations_index)
	(slot index)
	(slot part_index)
	(multislot tied)
)

(deftemplate Backup
)

(deftemplate Unpitched
	(slot display_step)
	(slot index)
	(slot part_index)
)

(deftemplate Articulations
	(slot index)
	(slot part_index)
)

(deftemplate Repeat
)

(deftemplate Staff_layout
)

(deftemplate Tied
	(slot type)
	(slot index)
	(slot part_index)
)

(deftemplate System_layout
)

(deftemplate System_margins
)

(deffacts parts
	(Part (index 0)(id P1)(measure 0 1 2 3 4 5 6 7 8 9 10 11 12 13 14 15 16 17 18 19 20 21 22 23)(part_index 1))
)

(deffacts attributess
	(Attributes (index 0)(divisions 1)(key_index 0)(time_index 0)(clef_index 0)(part_index 1))
)

(deffacts measures
	(Measure (index 0)(number 1)(width 195.05)(attributes_index 0)(direction_index 0)(note 0 1 2 3 4 5 6 7 8 9 10 11)(part_index 1))
	(Measure (index 1)(number 2)(width 81.71)(note 12 13 14 15 16 17 18 19)(part_index 1))
	(Measure (index 2)(number 3)(width 116.25)(note 20 21 22 23 24 25 26 27 28 29)(part_index 1))
	(Measure (index 3)(number 4)(width 195.07)(note 30 31 32 33 34 35 36 37 38 39)(part_index 1))
	(Measure (index 4)(number 5)(width 194.29)(note 40 41 42 43 44 45 46 47 48 49 50 51 52 53)(backup  )(part_index 1))
	(Measure (index 5)(number 6)(width 178.17)(note 54 55 56 57 58 59 60 61 62 63 64)(part_index 1))
	(Measure (index 6)(number 7)(width 116.96)(note 65 66 67 68 69 70 71 72 73 74)(backup  )(part_index 1))
	(Measure (index 7)(number 8)(width 145.45)(note 75 76 77 78)(part_index 1))
	(Measure (index 8)(number 9)(width 228.48)(note 79 80 81 82 83 84 85 86 87 88 89 90 91 92 93 94 95 96 97)(part_index 1))
	(Measure (index 9)(number 10)(width 187.44)(note 98 99 100 101 102 103 104 105 106 107 108 109)(part_index 1))
	(Measure (index 10)(number 11)(width 95.50)(note 110 111 112 113 114 115 116 117 118)(part_index 1))
	(Measure (index 11)(number 12)(width 213.55)(note 119 120 121 122 123 124 125 126)(part_index 1))
	(Measure (index 12)(number 13)(width 207.06)(note 127 128 129 130 131 132 133 134 135 136 137 138 139 140)(part_index 1))
	(Measure (index 13)(number 14)(width 344.53)(note 141 142 143 144 145 146 147 148 149 150 151 152 153 154 155 156 157 158 159 160)(part_index 1))
	(Measure (index 14)(number 15)(width 155.25)(note 161 162 163 164 165 166 167)(part_index 1))
	(Measure (index 15)(number 16)(width 94.74)(note 168 169)(part_index 1))
	(Measure (index 16)(number 17)(width 239.96)(note 170 171 172 173 174 175 176 177 178 179 180 181)(part_index 1))
	(Measure (index 17)(number 18)(width 243.01)(note 182 183 184 185 186 187 188 189 190 191)(part_index 1))
	(Measure (index 18)(number 19)(width 266.53)(note 192 193 194 195 196 197 198 199 200 201 202 203 204 205)(backup  )(part_index 1))
	(Measure (index 19)(number 20)(width 215.55)(note 206 207 208 209 210 211 212 213)(part_index 1))
	(Measure (index 20)(number 21)(width 213.73)(note 214 215 216 217 218 219 220 221 222 223 224 225)(part_index 1))
	(Measure (index 21)(number 22)(width 194.75)(note 226 227 228 229 230 231 232 233 234 235 236)(part_index 1))
	(Measure (index 22)(number 23)(width 109.68)(note 237 238 239 240 241 242 243 244 245 246)(backup  )(part_index 1))
	(Measure (index 23)(number 24)(width 77.26)(note 247 248 249 250)(barline_index 0)(part_index 1))
)

(deffacts notes
	(Note (index 0)(default_x 108.84)(default_y -45.00)(dynamics 100.00)(pitch_index 0)(duration 2)(voice 1)(type half)(stem up)(lyric_index 10558)(part_index 1))
	(Note (index 1)(default_x 108.84)(default_y -25.00)(dynamics 100.00)(pitch_index 1)(duration 2)(voice 1)(type half)(stem up)(part_index 1))
	(Note (index 2)(default_x 108.84)(default_y -10.00)(dynamics 100.00)(pitch_index 2)(duration 2)(voice 1)(type half)(stem up)(part_index 1))
	(Note (index 3)(default_x 108.84)(default_y 0.00)(dynamics 100.00)(pitch_index 3)(duration 2)(voice 1)(type half)(stem up)(part_index 1))
	(Note (index 4)(default_x 136.92)(default_y -45.00)(dynamics 100.00)(pitch_index 4)(duration 2)(voice 1)(type half)(stem up)(part_index 1))
	(Note (index 5)(default_x 136.92)(default_y -25.00)(dynamics 100.00)(pitch_index 5)(duration 2)(voice 1)(type half)(stem up)(part_index 1))
	(Note (index 6)(default_x 136.92)(default_y -10.00)(dynamics 100.00)(pitch_index 6)(duration 2)(voice 1)(type half)(stem up)(part_index 1))
	(Note (index 7)(default_x 136.92)(default_y 0.00)(dynamics 100.00)(pitch_index 7)(duration 2)(voice 1)(type half)(stem up)(part_index 1))
	(Note (index 8)(default_x 165.01)(default_y -65.00)(dynamics 100.00)(pitch_index 8)(duration 2)(voice 1)(type half)(stem up)(part_index 1))
	(Note (index 9)(default_x 165.01)(default_y -20.00)(dynamics 100.00)(pitch_index 9)(duration 2)(voice 1)(type half)(stem up)(part_index 1))
	(Note (index 10)(default_x 165.01)(default_y -10.00)(dynamics 100.00)(pitch_index 10)(duration 2)(voice 1)(type half)(stem up)(part_index 1))
	(Note (index 11)(default_x 165.01)(default_y 5.00)(dynamics 100.00)(pitch_index 11)(duration 2)(voice 1)(type half)(stem up)(part_index 1))
	(Note (index 12)(default_x 10.00)(default_y -45.00)(dynamics 100.00)(pitch_index 12)(duration 4)(voice 1)(type whole)(part_index 1))
	(Note (index 13)(default_x 10.00)(default_y -25.00)(dynamics 100.00)(pitch_index 13)(duration 4)(voice 1)(type whole)(part_index 1))
	(Note (index 14)(default_x 10.00)(default_y -10.00)(dynamics 100.00)(pitch_index 14)(duration 4)(voice 1)(type whole)(part_index 1))
	(Note (index 15)(default_x 10.00)(default_y 0.00)(dynamics 100.00)(pitch_index 15)(duration 4)(voice 1)(type whole)(part_index 1))
	(Note (index 16)(default_x 54.06)(default_y -65.00)(dynamics 100.00)(pitch_index 16)(duration 2)(voice 1)(type half)(stem up)(part_index 1))
	(Note (index 17)(default_x 54.06)(default_y -20.00)(dynamics 100.00)(pitch_index 17)(duration 2)(voice 1)(type half)(stem up)(part_index 1))
	(Note (index 18)(default_x 54.06)(default_y -10.00)(dynamics 100.00)(pitch_index 18)(duration 2)(voice 1)(type half)(stem up)(part_index 1))
	(Note (index 19)(default_x 54.06)(default_y 5.00)(dynamics 100.00)(pitch_index 19)(duration 2)(voice 1)(type half)(stem up)(part_index 1))
	(Note (index 20)(default_x 10.00)(default_y -45.00)(dynamics 100.00)(pitch_index 20)(duration 2)(voice 1)(type half)(stem up)(part_index 1))
	(Note (index 21)(default_x 10.00)(default_y -25.00)(dynamics 100.00)(pitch_index 21)(duration 2)(voice 1)(type half)(stem up)(part_index 1))
	(Note (index 22)(default_x 10.00)(default_y -10.00)(dynamics 100.00)(pitch_index 22)(duration 2)(voice 1)(type half)(stem up)(part_index 1))
	(Note (index 23)(default_x 10.00)(default_y 0.00)(dynamics 100.00)(pitch_index 23)(duration 2)(voice 1)(type half)(stem up)(part_index 1))
	(Note (index 24)(default_x 44.76)(default_y -50.00)(dynamics 100.00)(pitch_index 24)(duration 2)(voice 1)(type half)(stem up)(part_index 1))
	(Note (index 25)(default_x 44.76)(default_y -25.00)(dynamics 100.00)(pitch_index 25)(duration 2)(voice 1)(type half)(stem up)(part_index 1))
	(Note (index 26)(default_x 44.76)(default_y -5.00)(dynamics 100.00)(pitch_index 26)(duration 2)(voice 1)(type half)(stem up)(part_index 1))
	(Note (index 27)(default_x 79.52)(default_y -55.00)(dynamics 100.00)(pitch_index 27)(duration 2)(voice 1)(type half)(stem up)(part_index 1))
	(Note (index 28)(default_x 79.52)(default_y -30.00)(dynamics 100.00)(pitch_index 28)(duration 2)(voice 1)(type half)(accidental sharp)(stem up)(part_index 1))
	(Note (index 29)(default_x 79.52)(default_y -10.00)(dynamics 100.00)(pitch_index 29)(duration 2)(voice 1)(type half)(stem up)(part_index 1))
	(Note (index 30)(default_x 17.12)(default_y -15.00)(dynamics 100.00)(pitch_index 30)(duration 1)(voice 1)(type quarter)(stem up)(part_index 1))
	(Note (index 31)(default_x 45.92)(default_y -10.00)(dynamics 100.00)(pitch_index 31)(duration 1)(voice 1)(type quarter)(stem up)(part_index 1))
	(Note (index 32)(default_x 74.72)(default_y -15.00)(dynamics 100.00)(pitch_index 32)(duration 1)(voice 1)(type quarter)(stem up)(part_index 1))
	(Note (index 33)(default_x 103.52)(default_y -20.00)(dynamics 100.00)(pitch_index 33)(duration 1)(voice 1)(type quarter)(stem up)(part_index 1))
	(Note (index 34)(default_x 133.59)(default_y -25.00)(dynamics 100.00)(pitch_index 34)(duration 1)(voice 1)(type quarter)(stem up)(part_index 1))
	(Note (index 35)(default_x 164.67)(default_y -30.00)(dynamics 100.00)(pitch_index 35)(duration 1)(voice 1)(type quarter)(accidental sharp)(stem up)(part_index 1))
	(Note (index 36)(default_x 13.80)(default_y -60.00)(dynamics 100.00)(pitch_index 36)(duration 4)(tie_index 0)(voice 2)(type whole)(notations_index 0)(part_index 1))
	(Note (index 37)(default_x 13.80)(default_y -40.00)(dynamics 100.00)(pitch_index 37)(duration 4)(voice 2)(type whole)(part_index 1))
	(Note (index 38)(default_x 13.80)(default_y -25.00)(dynamics 100.00)(pitch_index 38)(duration 4)(voice 2)(type whole)(part_index 1))
	(Note (index 39)(default_x 133.23)(default_y -60.00)(dynamics 100.00)(pitch_index 39)(duration 2)(tie_index 1)(voice 2)(type half)(stem down)(notations_index 1)(part_index 1))
	(Note (index 40)(duration 2)(voice 1)(type half)(part_index 1))
	(Note (index 41)(default_x 75.20)(default_y -5.00)(dynamics 100.00)(pitch_index 40)(duration 2)(voice 1)(type half)(stem up)(part_index 1))
	(Note (index 42)(duration 2)(voice 1)(type half)(part_index 1))
	(Note (index 43)(default_x 10.00)(default_y -25.00)(dynamics 100.00)(pitch_index 41)(duration 1)(voice 2)(type quarter)(stem down)(part_index 1))
	(Note (index 44)(default_x 40.45)(default_y -10.00)(dynamics 100.00)(pitch_index 42)(duration 1)(voice 2)(type quarter)(stem down)(part_index 1))
	(Note (index 45)(default_x 70.90)(default_y -15.00)(dynamics 100.00)(pitch_index 43)(duration 1)(voice 2)(type quarter)(stem down)(part_index 1))
	(Note (index 46)(default_x 101.34)(default_y -20.00)(dynamics 100.00)(pitch_index 44)(duration 1)(voice 2)(type quarter)(stem down)(part_index 1))
	(Note (index 47)(default_x 131.79)(default_y -10.00)(dynamics 100.00)(pitch_index 45)(duration 1)(voice 2)(type quarter)(stem down)(part_index 1))
	(Note (index 48)(default_x 162.24)(default_y -15.00)(dynamics 100.00)(pitch_index 46)(duration 1)(voice 2)(type quarter)(stem down)(part_index 1))
	(Note (index 49)(default_x 14.30)(default_y -60.00)(dynamics 100.00)(pitch_index 47)(duration 2)(tie_index 2)(voice 3)(type half)(stem up)(notations_index 2)(part_index 1))
	(Note (index 50)(default_x 14.30)(default_y -5.00)(dynamics 100.00)(pitch_index 48)(duration 2)(voice 3)(type half)(stem up)(part_index 1))
	(Note (index 51)(default_x 75.20)(default_y -60.00)(dynamics 100.00)(pitch_index 49)(duration 2)(tie_index 3)(voice 3)(type half)(stem up)(notations_index 3)(part_index 1))
	(Note (index 52)(default_x 136.09)(default_y -45.00)(dynamics 100.00)(pitch_index 50)(duration 2)(voice 3)(type half)(stem up)(part_index 1))
	(Note (index 53)(default_x 136.09)(default_y -35.00)(dynamics 100.00)(pitch_index 51)(duration 2)(voice 3)(type half)(stem up)(part_index 1))
	(Note (index 54)(default_x 10.48)(default_y -45.00)(dynamics 100.00)(pitch_index 52)(duration 4)(voice 1)(type whole)(part_index 1))
	(Note (index 55)(default_x 10.48)(default_y -30.00)(dynamics 100.00)(pitch_index 53)(duration 4)(voice 1)(type whole)(part_index 1))
	(Note (index 56)(default_x 10.48)(default_y -20.00)(dynamics 100.00)(pitch_index 54)(duration 4)(voice 1)(type whole)(part_index 1))
	(Note (index 57)(duration 2)(voice 1)(type half)(part_index 1))
	(Note (index 58)(default_x 13.80)(default_y -65.00)(dynamics 100.00)(pitch_index 55)(duration 1)(voice 2)(type quarter)(stem down)(part_index 1))
	(Note (index 59)(default_x 42.45)(default_y -60.00)(dynamics 100.00)(pitch_index 56)(duration 1)(voice 2)(type quarter)(stem down)(part_index 1))
	(Note (index 60)(default_x 71.10)(default_y -55.00)(dynamics 100.00)(pitch_index 57)(duration 1)(voice 2)(type quarter)(stem down)(part_index 1))
	(Note (index 61)(default_x 102.08)(default_y -50.00)(dynamics 100.00)(pitch_index 58)(duration 1)(voice 2)(type quarter)(accidental natural)(stem down)(part_index 1))
	(Note (index 62)(default_x 130.37)(default_y -45.00)(dynamics 100.00)(pitch_index 59)(duration 2)(voice 2)(type half)(stem down)(part_index 1))
	(Note (index 63)(default_x 130.37)(default_y -35.00)(dynamics 100.00)(pitch_index 60)(duration 2)(voice 2)(type half)(stem down)(part_index 1))
	(Note (index 64)(default_x 130.37)(default_y -25.00)(dynamics 100.00)(pitch_index 61)(duration 2)(voice 2)(type half)(stem down)(part_index 1))
	(Note (index 65)(default_x 10.84)(default_y -10.00)(dynamics 100.00)(pitch_index 62)(duration 4)(voice 1)(type whole)(part_index 1))
	(Note (index 66)(duration 2)(voice 1)(type half)(part_index 1))
	(Note (index 67)(default_x 13.80)(default_y -55.00)(dynamics 100.00)(pitch_index 63)(duration 2)(voice 2)(type half)(stem down)(part_index 1))
	(Note (index 68)(default_x 13.80)(default_y -30.00)(dynamics 100.00)(pitch_index 64)(duration 2)(voice 2)(type half)(stem down)(part_index 1))
	(Note (index 69)(duration 2)(voice 2)(type half)(part_index 1))
	(Note (index 70)(default_x 81.27)(default_y -15.00)(dynamics 100.00)(pitch_index 65)(duration 2)(voice 2)(type half)(stem down)(part_index 1))
	(Note (index 71)(duration 2)(voice 3)(type half)(part_index 1))
	(Note (index 72)(default_x 44.57)(default_y -60.00)(dynamics 100.00)(pitch_index 66)(duration 4)(voice 3)(type whole)(part_index 1))
	(Note (index 73)(default_x 44.57)(default_y -40.00)(dynamics 100.00)(pitch_index 67)(duration 4)(voice 3)(type whole)(part_index 1))
	(Note (index 74)(default_x 44.57)(default_y -25.00)(dynamics 100.00)(pitch_index 68)(duration 4)(voice 3)(type whole)(part_index 1))
	(Note (index 75)(default_x 89.19)(default_y -45.00)(dynamics 100.00)(pitch_index 69)(duration 6)(voice 1)(type whole)(part_index 1))
	(Note (index 76)(default_x 89.19)(default_y -35.00)(dynamics 100.00)(pitch_index 70)(duration 6)(voice 1)(type whole)(part_index 1))
	(Note (index 77)(default_x 89.19)(default_y -25.00)(dynamics 100.00)(pitch_index 71)(duration 6)(voice 1)(type whole)(part_index 1))
	(Note (index 78)(default_x 89.19)(default_y -10.00)(dynamics 100.00)(pitch_index 72)(duration 6)(voice 1)(type whole)(part_index 1))
	(Note (index 79)(default_x 10.00)(default_y 0.00)(dynamics 100.00)(pitch_index 73)(duration 2)(voice 1)(type half)(stem up)(notations_index 4)(part_index 1))
	(Note (index 80)(duration 2)(voice 1)(type half)(part_index 1))
	(Note (index 81)(default_x 156.78)(default_y -20.00)(dynamics 100.00)(pitch_index 74)(duration 2)(voice 1)(type half)(stem up)(notations_index 5)(part_index 1))
	(Note (index 82)(default_x 10.36)(default_y -45.00)(dynamics 100.00)(pitch_index 75)(duration 1)(tie_index 4)(voice 2)(type quarter)(stem down)(notations_index 6)(part_index 1))
	(Note (index 83)(default_x 10.36)(default_y -10.00)(dynamics 100.00)(pitch_index 76)(duration 1)(tie_index 5)(voice 2)(type quarter)(stem down)(notations_index 7)(part_index 1))
	(Note (index 84)(default_x 45.89)(default_y -45.00)(dynamics 100.00)(pitch_index 77)(duration 1)(tie 6 7)(voice 2)(type quarter)(stem down)(notations_index 8)(part_index 1))
	(Note (index 85)(default_x 45.89)(default_y -10.00)(dynamics 100.00)(pitch_index 78)(duration 1)(tie 8 9)(voice 2)(type quarter)(stem down)(notations_index 9)(part_index 1))
	(Note (index 86)(default_x 45.89)(default_y 5.00)(dynamics 100.00)(pitch_index 79)(duration 1)(voice 2)(type quarter)(stem down)(part_index 1))
	(Note (index 87)(default_x 81.42)(default_y -45.00)(dynamics 100.00)(pitch_index 80)(duration 1)(tie 10 11)(voice 2)(type quarter)(stem down)(notations_index 10)(part_index 1))
	(Note (index 88)(default_x 81.42)(default_y -10.00)(dynamics 100.00)(pitch_index 81)(duration 1)(tie 12 13)(voice 2)(type quarter)(stem down)(notations_index 11)(part_index 1))
	(Note (index 89)(default_x 81.42)(default_y 10.00)(dynamics 100.00)(pitch_index 82)(duration 1)(voice 2)(type quarter)(stem down)(part_index 1))
	(Note (index 90)(default_x 116.95)(default_y -45.00)(dynamics 100.00)(pitch_index 83)(duration 1)(tie_index 14)(voice 2)(type quarter)(stem down)(notations_index 12)(part_index 1))
	(Note (index 91)(default_x 116.95)(default_y -10.00)(dynamics 100.00)(pitch_index 84)(duration 1)(tie_index 15)(voice 2)(type quarter)(stem down)(notations_index 13)(part_index 1))
	(Note (index 92)(default_x 116.95)(default_y 0.00)(dynamics 100.00)(pitch_index 85)(duration 1)(voice 2)(type quarter)(stem down)(part_index 1))
	(Note (index 93)(default_x 152.48)(default_y -40.00)(dynamics 100.00)(pitch_index 86)(duration 1)(tie_index 16)(voice 2)(type quarter)(stem down)(notations_index 14)(part_index 1))
	(Note (index 94)(default_x 152.48)(default_y 5.00)(dynamics 100.00)(pitch_index 87)(duration 1)(tie_index 17)(voice 2)(type quarter)(stem down)(notations_index 15)(part_index 1))
	(Note (index 95)(default_x 191.35)(default_y -40.00)(dynamics 100.00)(pitch_index 88)(duration 1)(tie_index 18)(voice 2)(type quarter)(stem down)(notations_index 16)(part_index 1))
	(Note (index 96)(default_x 191.35)(default_y -15.00)(dynamics 100.00)(pitch_index 89)(duration 1)(voice 2)(type quarter)(stem down)(part_index 1))
	(Note (index 97)(default_x 191.35)(default_y 5.00)(dynamics 100.00)(pitch_index 90)(duration 1)(tie_index 19)(voice 2)(type quarter)(stem down)(notations_index 17)(part_index 1))
	(Note (index 98)(default_x 16.64)(default_y 0.00)(dynamics 100.00)(pitch_index 91)(duration 1)(voice 1)(type quarter)(stem up)(part_index 1))
	(Note (index 99)(default_x 42.85)(default_y 5.00)(dynamics 100.00)(pitch_index 92)(duration 1)(voice 1)(type quarter)(stem up)(part_index 1))
	(Note (index 100)(default_x 69.06)(default_y 10.00)(dynamics 100.00)(pitch_index 93)(duration 1)(voice 1)(type quarter)(stem up)(part_index 1))
	(Note (index 101)(default_x 95.27)(default_y 0.00)(dynamics 100.00)(pitch_index 94)(duration 1)(voice 1)(type quarter)(stem up)(part_index 1))
	(Note (index 102)(default_x 126.14)(default_y -40.00)(dynamics 100.00)(pitch_index 95)(duration 1)(tie_index 20)(voice 1)(type quarter)(stem up)(notations_index 18)(part_index 1))
	(Note (index 103)(default_x 126.14)(default_y 5.00)(dynamics 100.00)(pitch_index 96)(duration 1)(tie_index 21)(voice 1)(type quarter)(stem up)(notations_index 19)(part_index 1))
	(Note (index 104)(default_x 159.63)(default_y -40.00)(dynamics 100.00)(pitch_index 97)(duration 1)(tie_index 22)(voice 1)(type quarter)(stem up)(notations_index 20)(part_index 1))
	(Note (index 105)(default_x 159.63)(default_y -15.00)(dynamics 100.00)(pitch_index 98)(duration 1)(voice 1)(type quarter)(stem up)(part_index 1))
	(Note (index 106)(default_x 159.63)(default_y 5.00)(dynamics 100.00)(pitch_index 99)(duration 1)(tie_index 23)(voice 1)(type quarter)(stem up)(notations_index 21)(part_index 1))
	(Note (index 107)(default_x 13.32)(default_y -45.00)(dynamics 100.00)(pitch_index 100)(duration 4)(voice 2)(type whole)(part_index 1))
	(Note (index 108)(default_x 13.32)(default_y -10.00)(dynamics 100.00)(pitch_index 101)(duration 4)(voice 2)(type whole)(part_index 1))
	(Note (index 109)(default_x 121.12)(default_y -20.00)(dynamics 100.00)(pitch_index 102)(duration 2)(voice 2)(type half)(stem down)(notations_index 22)(part_index 1))
	(Note (index 110)(default_x 16.28)(default_y -25.00)(dynamics 100.00)(pitch_index 103)(duration 2)(voice 1)(type half)(stem up)(part_index 1))
	(Note (index 111)(default_x 16.28)(default_y -10.00)(dynamics 100.00)(pitch_index 104)(duration 2)(voice 1)(type half)(stem up)(part_index 1))
	(Note (index 112)(default_x 16.28)(default_y 0.00)(dynamics 100.00)(pitch_index 105)(duration 2)(voice 1)(type half)(stem up)(part_index 1))
	(Note (index 113)(default_x 42.03)(default_y -30.00)(dynamics 100.00)(pitch_index 106)(duration 2)(voice 1)(type half)(stem up)(part_index 1))
	(Note (index 114)(default_x 42.03)(default_y -5.00)(dynamics 100.00)(pitch_index 107)(duration 2)(voice 1)(type half)(stem up)(part_index 1))
	(Note (index 115)(default_x 67.79)(default_y -35.00)(dynamics 100.00)(pitch_index 108)(duration 2)(voice 1)(type half)(stem up)(part_index 1))
	(Note (index 116)(default_x 67.79)(default_y -10.00)(dynamics 100.00)(pitch_index 109)(duration 2)(voice 1)(type half)(stem up)(part_index 1))
	(Note (index 117)(default_x 13.32)(default_y -45.00)(dynamics 100.00)(pitch_index 110)(duration 4)(voice 2)(type whole)(part_index 1))
	(Note (index 118)(duration 2)(voice 2)(type half)(part_index 1))
	(Note (index 119)(default_x 32.77)(default_y -25.00)(dynamics 100.00)(pitch_index 111)(duration 1)(voice 1)(type quarter)(stem up)(part_index 1))
	(Note (index 120)(default_x 64.09)(default_y -40.00)(dynamics 100.00)(pitch_index 112)(duration 1)(voice 1)(type quarter)(stem up)(part_index 1))
	(Note (index 121)(default_x 93.28)(default_y -35.00)(dynamics 100.00)(pitch_index 113)(duration 1)(voice 1)(type quarter)(stem up)(part_index 1))
	(Note (index 122)(default_x 124.37)(default_y -30.00)(dynamics 100.00)(pitch_index 114)(duration 1)(voice 1)(type quarter)(accidental sharp)(stem up)(part_index 1))
	(Note (index 123)(default_x 153.56)(default_y -25.00)(dynamics 100.00)(pitch_index 115)(duration 1)(voice 1)(type quarter)(stem up)(part_index 1))
	(Note (index 124)(default_x 182.76)(default_y -30.00)(dynamics 100.00)(pitch_index 116)(duration 1)(voice 1)(type quarter)(stem up)(part_index 1))
	(Note (index 125)(default_x 13.80)(default_y -60.00)(dynamics 100.00)(pitch_index 117)(duration 6)(voice 2)(type whole)(part_index 1))
	(Note (index 126)(default_x 13.80)(default_y -15.00)(dynamics 100.00)(pitch_index 118)(duration 6)(voice 2)(type whole)(part_index 1))
	(Note (index 127)(default_x 13.44)(default_y -25.00)(dynamics 100.00)(pitch_index 119)(duration 2)(voice 1)(type half)(stem up)(part_index 1))
	(Note (index 128)(default_x 13.44)(default_y -5.00)(dynamics 100.00)(pitch_index 120)(duration 2)(voice 1)(type half)(stem up)(part_index 1))
	(Note (index 129)(default_x 77.33)(default_y -25.00)(dynamics 100.00)(pitch_index 121)(duration 2)(voice 1)(type half)(stem up)(part_index 1))
	(Note (index 130)(default_x 77.33)(default_y -5.00)(dynamics 100.00)(pitch_index 122)(duration 2)(voice 1)(type half)(stem up)(part_index 1))
	(Note (index 131)(default_x 141.21)(default_y -10.00)(dynamics 100.00)(pitch_index 123)(duration 2)(voice 1)(type half)(stem up)(notations_index 23)(part_index 1))
	(Note (index 132)(default_x 13.80)(default_y -60.00)(dynamics 100.00)(pitch_index 124)(duration 1)(voice 2)(type quarter)(stem down)(part_index 1))
	(Note (index 133)(default_x 45.74)(default_y -55.00)(dynamics 100.00)(pitch_index 125)(duration 1)(voice 2)(type quarter)(stem down)(part_index 1))
	(Note (index 134)(default_x 77.69)(default_y -50.00)(dynamics 100.00)(pitch_index 126)(duration 1)(voice 2)(type quarter)(stem down)(part_index 1))
	(Note (index 135)(default_x 109.63)(default_y -60.00)(dynamics 100.00)(pitch_index 127)(duration 1)(voice 2)(type quarter)(stem down)(part_index 1))
	(Note (index 136)(default_x 141.57)(default_y -55.00)(dynamics 100.00)(pitch_index 128)(duration 1)(tie_index 24)(voice 2)(type quarter)(stem down)(notations_index 24)(part_index 1))
	(Note (index 137)(default_x 141.57)(default_y -35.00)(dynamics 100.00)(pitch_index 129)(duration 1)(tie_index 25)(voice 2)(type quarter)(stem down)(notations_index 25)(part_index 1))
	(Note (index 138)(default_x 173.52)(default_y -55.00)(dynamics 100.00)(pitch_index 130)(duration 1)(tie_index 26)(voice 2)(type quarter)(stem down)(notations_index 26)(part_index 1))
	(Note (index 139)(default_x 173.52)(default_y -35.00)(dynamics 100.00)(pitch_index 131)(duration 1)(tie_index 27)(voice 2)(type quarter)(stem down)(notations_index 27)(part_index 1))
	(Note (index 140)(default_x 173.52)(default_y -15.00)(dynamics 100.00)(pitch_index 132)(duration 1)(voice 2)(type quarter)(stem down)(part_index 1))
	(Note (index 141)(default_x 92.63)(default_y -30.00)(dynamics 100.00)(pitch_index 133)(duration 2)(voice 1)(type half)(stem up)(notations_index 28)(part_index 1))
	(Note (index 142)(default_x 92.63)(default_y -20.00)(dynamics 100.00)(pitch_index 134)(duration 2)(voice 1)(type half)(stem up)(part_index 1))
	(Note (index 143)(duration 2)(voice 1)(type half)(part_index 1))
	(Note (index 144)(default_x 263.92)(default_y -25.00)(dynamics 100.00)(pitch_index 135)(duration 2)(voice 1)(type half)(stem up)(notations_index 29)(part_index 1))
	(Note (index 145)(default_x 92.99)(default_y -65.00)(dynamics 100.00)(pitch_index 136)(duration 1)(tie_index 28)(voice 2)(type quarter)(stem down)(notations_index 30)(part_index 1))
	(Note (index 146)(default_x 92.99)(default_y -45.00)(dynamics 100.00)(pitch_index 137)(duration 1)(tie_index 29)(voice 2)(type quarter)(stem down)(notations_index 31)(part_index 1))
	(Note (index 147)(default_x 134.65)(default_y -65.00)(dynamics 100.00)(pitch_index 138)(duration 1)(tie 30 31)(voice 2)(type quarter)(stem down)(notations_index 32)(part_index 1))
	(Note (index 148)(default_x 134.65)(default_y -45.00)(dynamics 100.00)(pitch_index 139)(duration 1)(tie 32 33)(voice 2)(type quarter)(stem down)(notations_index 33)(part_index 1))
	(Note (index 149)(default_x 134.65)(default_y -25.00)(dynamics 100.00)(pitch_index 140)(duration 1)(voice 2)(type quarter)(stem down)(part_index 1))
	(Note (index 150)(default_x 176.30)(default_y -65.00)(dynamics 100.00)(pitch_index 141)(duration 1)(tie 34 35)(voice 2)(type quarter)(stem down)(notations_index 34)(part_index 1))
	(Note (index 151)(default_x 176.30)(default_y -45.00)(dynamics 100.00)(pitch_index 142)(duration 1)(tie 36 37)(voice 2)(type quarter)(stem down)(notations_index 35)(part_index 1))
	(Note (index 152)(default_x 176.30)(default_y -20.00)(dynamics 100.00)(pitch_index 143)(duration 1)(voice 2)(type quarter)(stem down)(part_index 1))
	(Note (index 153)(default_x 217.96)(default_y -65.00)(dynamics 100.00)(pitch_index 144)(duration 1)(tie_index 38)(voice 2)(type quarter)(stem down)(notations_index 36)(part_index 1))
	(Note (index 154)(default_x 217.96)(default_y -45.00)(dynamics 100.00)(pitch_index 145)(duration 1)(tie_index 39)(voice 2)(type quarter)(stem down)(notations_index 37)(part_index 1))
	(Note (index 155)(default_x 217.96)(default_y -15.00)(dynamics 100.00)(pitch_index 146)(duration 1)(voice 2)(type quarter)(stem down)(part_index 1))
	(Note (index 156)(default_x 259.62)(default_y -45.00)(dynamics 100.00)(pitch_index 147)(duration 1)(tie_index 40)(voice 2)(type quarter)(stem down)(notations_index 38)(part_index 1))
	(Note (index 157)(default_x 259.62)(default_y -10.00)(dynamics 100.00)(pitch_index 148)(duration 1)(tie_index 41)(voice 2)(type quarter)(stem down)(notations_index 39)(part_index 1))
	(Note (index 158)(default_x 301.27)(default_y -45.00)(dynamics 100.00)(pitch_index 149)(duration 1)(tie_index 42)(voice 2)(type quarter)(stem down)(notations_index 40)(part_index 1))
	(Note (index 159)(default_x 301.27)(default_y -30.00)(dynamics 100.00)(pitch_index 150)(duration 1)(voice 2)(type quarter)(stem down)(part_index 1))
	(Note (index 160)(default_x 301.27)(default_y -10.00)(dynamics 100.00)(pitch_index 151)(duration 1)(tie_index 43)(voice 2)(type quarter)(stem down)(notations_index 41)(part_index 1))
	(Note (index 161)(default_x 18.46)(default_y -10.00)(dynamics 100.00)(pitch_index 152)(duration 4)(voice 1)(type whole)(part_index 1))
	(Note (index 162)(default_x 106.80)(default_y -15.00)(dynamics 100.00)(pitch_index 153)(duration 2)(voice 1)(type half)(stem up)(part_index 1))
	(Note (index 163)(default_x 13.80)(default_y -35.00)(dynamics 100.00)(pitch_index 154)(duration 2)(voice 2)(type half)(stem down)(part_index 1))
	(Note (index 164)(default_x 13.80)(default_y 10.00)(dynamics 100.00)(pitch_index 155)(duration 2)(voice 2)(type half)(stem down)(part_index 1))
	(Note (index 165)(default_x 57.34)(default_y -60.00)(dynamics 100.00)(pitch_index 156)(duration 4)(voice 2)(type whole)(part_index 1))
	(Note (index 166)(default_x 57.34)(default_y -40.00)(dynamics 100.00)(pitch_index 157)(duration 4)(voice 2)(type whole)(part_index 1))
	(Note (index 167)(default_x 57.34)(default_y 10.00)(dynamics 100.00)(pitch_index 158)(duration 4)(voice 2)(type whole)(part_index 1))
	(Note (index 168)(default_x 10.00)(default_y -45.00)(dynamics 100.00)(pitch_index 159)(duration 6)(voice 1)(type whole)(part_index 1))
	(Note (index 169)(default_x 10.00)(default_y -10.00)(dynamics 100.00)(pitch_index 160)(duration 6)(voice 1)(type whole)(part_index 1))
	(Note (index 170)(default_x 14.30)(default_y -10.00)(dynamics 100.00)(pitch_index 161)(duration 2)(voice 1)(type half)(stem up)(notations_index 42)(part_index 1))
	(Note (index 171)(duration 2)(voice 1)(type half)(part_index 1))
	(Note (index 172)(default_x 162.20)(default_y 5.00)(dynamics 100.00)(pitch_index 162)(duration 2)(voice 1)(type half)(stem up)(part_index 1))
	(Note (index 173)(default_x 10.00)(default_y 0.00)(dynamics 100.00)(pitch_index 163)(duration 1)(tie_index 44)(voice 2)(type quarter)(stem down)(notations_index 43)(part_index 1))
	(Note (index 174)(default_x 48.87)(default_y -15.00)(dynamics 100.00)(pitch_index 164)(duration 1)(voice 2)(type quarter)(stem down)(part_index 1))
	(Note (index 175)(default_x 48.87)(default_y 0.00)(dynamics 100.00)(pitch_index 165)(duration 1)(tie 45 46)(voice 2)(type quarter)(stem down)(notations_index 44)(part_index 1))
	(Note (index 176)(default_x 86.77)(default_y -20.00)(dynamics 100.00)(pitch_index 166)(duration 1)(voice 2)(type quarter)(stem down)(part_index 1))
	(Note (index 177)(default_x 86.77)(default_y 0.00)(dynamics 100.00)(pitch_index 167)(duration 1)(tie 47 48)(voice 2)(type quarter)(stem down)(notations_index 45)(part_index 1))
	(Note (index 178)(default_x 124.67)(default_y -25.00)(dynamics 100.00)(pitch_index 168)(duration 1)(voice 2)(type quarter)(stem down)(part_index 1))
	(Note (index 179)(default_x 124.67)(default_y 0.00)(dynamics 100.00)(pitch_index 169)(duration 1)(tie_index 49)(voice 2)(type quarter)(stem down)(notations_index 46)(part_index 1))
	(Note (index 180)(default_x 162.56)(default_y -20.00)(dynamics 100.00)(pitch_index 170)(duration 1)(voice 2)(type quarter)(stem down)(part_index 1))
	(Note (index 181)(default_x 200.46)(default_y -15.00)(dynamics 100.00)(pitch_index 171)(duration 1)(voice 2)(type quarter)(stem down)(part_index 1))
	(Note (index 182)(default_x 10.00)(default_y -10.00)(dynamics 100.00)(pitch_index 172)(duration 4)(voice 1)(type whole)(part_index 1))
	(Note (index 183)(default_x 10.00)(default_y 0.00)(dynamics 100.00)(pitch_index 173)(duration 4)(voice 1)(type whole)(part_index 1))
	(Note (index 184)(default_x 165.02)(default_y -10.00)(dynamics 100.00)(pitch_index 174)(duration 2)(voice 1)(type half)(stem up)(part_index 1))
	(Note (index 185)(default_x 165.02)(default_y 5.00)(dynamics 100.00)(pitch_index 175)(duration 2)(voice 1)(type half)(stem up)(part_index 1))
	(Note (index 186)(default_x 13.32)(default_y -45.00)(dynamics 100.00)(pitch_index 176)(duration 1)(voice 2)(type quarter)(stem down)(part_index 1))
	(Note (index 187)(default_x 51.34)(default_y -50.00)(dynamics 100.00)(pitch_index 177)(duration 1)(voice 2)(type quarter)(accidental natural)(stem down)(part_index 1))
	(Note (index 188)(default_x 89.35)(default_y -55.00)(dynamics 100.00)(pitch_index 178)(duration 1)(voice 2)(type quarter)(stem down)(part_index 1))
	(Note (index 189)(default_x 127.36)(default_y -60.00)(dynamics 100.00)(pitch_index 179)(duration 1)(voice 2)(type quarter)(stem down)(part_index 1))
	(Note (index 190)(default_x 165.38)(default_y -55.00)(dynamics 100.00)(pitch_index 180)(duration 1)(voice 2)(type quarter)(stem down)(part_index 1))
	(Note (index 191)(default_x 203.39)(default_y -50.00)(dynamics 100.00)(pitch_index 181)(duration 1)(voice 2)(type quarter)(stem down)(part_index 1))
	(Note (index 192)(duration 1)(voice 1)(type quarter)(part_index 1))
	(Note (index 193)(default_x 118.73)(default_y -10.00)(dynamics 100.00)(pitch_index 182)(duration 1)(voice 1)(type quarter)(stem up)(part_index 1))
	(Note (index 194)(default_x 146.96)(default_y -15.00)(dynamics 100.00)(pitch_index 183)(duration 2)(voice 1)(type half)(stem up)(notations_index 47)(part_index 1))
	(Note (index 195)(duration 1)(voice 1)(type quarter)(part_index 1))
	(Note (index 196)(default_x 236.33)(default_y -30.00)(dynamics 100.00)(pitch_index 184)(duration 1)(voice 1)(type quarter)(accidental sharp)(stem up)(part_index 1))
	(Note (index 197)(duration 2)(voice 2)(type half)(part_index 1))
	(Note (index 198)(duration 1)(voice 2)(type quarter)(part_index 1))
	(Note (index 199)(default_x 175.56)(default_y -25.00)(dynamics 100.00)(pitch_index 185)(duration 3)(voice 2)(type half)(stem down)(notations_index 48)(part_index 1))
	(Note (index 200)(default_x 89.77)(default_y -45.00)(dynamics 100.00)(pitch_index 186)(duration 2)(voice 3)(type half)(stem up)(part_index 1))
	(Note (index 201)(default_x 89.77)(default_y 0.00)(dynamics 100.00)(pitch_index 187)(duration 2)(voice 3)(type half)(stem up)(part_index 1))
	(Note (index 202)(default_x 146.96)(default_y -60.00)(dynamics 100.00)(pitch_index 188)(duration 2)(voice 3)(type half)(stem up)(part_index 1))
	(Note (index 203)(default_x 146.96)(default_y -5.00)(dynamics 100.00)(pitch_index 189)(duration 2)(voice 3)(type half)(stem up)(part_index 1))
	(Note (index 204)(default_x 204.16)(default_y -55.00)(dynamics 100.00)(pitch_index 190)(duration 2)(voice 3)(type half)(stem up)(part_index 1))
	(Note (index 205)(default_x 204.16)(default_y -10.00)(dynamics 100.00)(pitch_index 191)(duration 2)(voice 3)(type half)(stem up)(part_index 1))
	(Note (index 206)(default_x 32.77)(default_y -25.00)(dynamics 100.00)(pitch_index 192)(duration 1)(voice 1)(type quarter)(stem up)(part_index 1))
	(Note (index 207)(default_x 79.50)(default_y -30.00)(dynamics 100.00)(pitch_index 193)(duration 1)(voice 1)(type quarter)(accidental sharp)(stem up)(part_index 1))
	(Note (index 208)(default_x 106.39)(default_y -35.00)(dynamics 100.00)(pitch_index 194)(duration 1)(voice 1)(type quarter)(stem up)(part_index 1))
	(Note (index 209)(default_x 133.28)(default_y -40.00)(dynamics 100.00)(pitch_index 195)(duration 1)(voice 1)(type quarter)(stem up)(part_index 1))
	(Note (index 210)(default_x 160.17)(default_y -35.00)(dynamics 100.00)(pitch_index 196)(duration 1)(voice 1)(type quarter)(stem up)(part_index 1))
	(Note (index 211)(default_x 187.06)(default_y -30.00)(dynamics 100.00)(pitch_index 197)(duration 1)(voice 1)(type quarter)(stem up)(part_index 1))
	(Note (index 212)(default_x 13.80)(default_y -60.00)(dynamics 100.00)(pitch_index 198)(duration 6)(voice 2)(type whole)(part_index 1))
	(Note (index 213)(default_x 13.80)(default_y -15.00)(dynamics 100.00)(pitch_index 199)(duration 6)(voice 2)(type whole)(part_index 1))
	(Note (index 214)(default_x 10.72)(default_y -5.00)(dynamics 100.00)(pitch_index 200)(duration 1)(tie_index 50)(voice 1)(type quarter)(stem up)(notations_index 49)(part_index 1))
	(Note (index 215)(default_x 43.37)(default_y -20.00)(dynamics 100.00)(pitch_index 201)(duration 1)(voice 1)(type quarter)(stem up)(part_index 1))
	(Note (index 216)(default_x 43.37)(default_y -5.00)(dynamics 100.00)(pitch_index 202)(duration 1)(tie_index 51)(voice 1)(type quarter)(stem up)(notations_index 50)(part_index 1))
	(Note (index 217)(default_x 76.03)(default_y -5.00)(dynamics 100.00)(pitch_index 203)(duration 1)(tie_index 52)(voice 1)(type quarter)(stem up)(notations_index 51)(part_index 1))
	(Note (index 218)(default_x 108.68)(default_y -25.00)(dynamics 100.00)(pitch_index 204)(duration 1)(voice 1)(type quarter)(stem up)(part_index 1))
	(Note (index 219)(default_x 108.68)(default_y -5.00)(dynamics 100.00)(pitch_index 205)(duration 1)(tie_index 53)(voice 1)(type quarter)(stem up)(notations_index 52)(part_index 1))
	(Note (index 220)(default_x 145.99)(default_y -35.00)(dynamics 100.00)(pitch_index 206)(duration 1)(tie_index 54)(voice 1)(type quarter)(stem up)(notations_index 53)(part_index 1))
	(Note (index 221)(default_x 179.48)(default_y -35.00)(dynamics 100.00)(pitch_index 207)(duration 1)(tie_index 55)(voice 1)(type quarter)(stem up)(notations_index 54)(part_index 1))
	(Note (index 222)(default_x 179.48)(default_y -15.00)(dynamics 100.00)(pitch_index 208)(duration 1)(voice 1)(type quarter)(stem up)(part_index 1))
	(Note (index 223)(default_x 10.36)(default_y -25.00)(dynamics 100.00)(pitch_index 209)(duration 2)(voice 2)(type half)(stem down)(notations_index 55)(part_index 1))
	(Note (index 224)(default_x 75.67)(default_y -15.00)(dynamics 100.00)(pitch_index 210)(duration 2)(voice 2)(type half)(stem down)(notations_index 56)(part_index 1))
	(Note (index 225)(default_x 140.97)(default_y -10.00)(dynamics 100.00)(pitch_index 211)(duration 2)(voice 2)(type half)(stem down)(notations_index 57)(part_index 1))
	(Note (index 226)(default_x 10.00)(default_y -20.00)(dynamics 100.00)(pitch_index 212)(duration 4)(voice 1)(type whole)(part_index 1))
	(Note (index 227)(default_x 130.39)(default_y -25.00)(dynamics 100.00)(pitch_index 213)(duration 2)(voice 1)(type half)(stem up)(notations_index 58)(part_index 1))
	(Note (index 228)(default_x 13.32)(default_y -30.00)(dynamics 100.00)(pitch_index 214)(duration 1)(voice 2)(type quarter)(stem down)(part_index 1))
	(Note (index 229)(default_x 41.51)(default_y -35.00)(dynamics 100.00)(pitch_index 215)(duration 1)(voice 2)(type quarter)(stem down)(part_index 1))
	(Note (index 230)(default_x 69.70)(default_y -40.00)(dynamics 100.00)(pitch_index 216)(duration 1)(voice 2)(type quarter)(stem down)(part_index 1))
	(Note (index 231)(default_x 97.90)(default_y -45.00)(dynamics 100.00)(pitch_index 217)(duration 1)(voice 2)(type quarter)(stem down)(part_index 1))
	(Note (index 232)(default_x 126.09)(default_y -50.00)(dynamics 100.00)(pitch_index 218)(duration 1)(tie_index 56)(voice 2)(type quarter)(stem down)(notations_index 59)(part_index 1))
	(Note (index 233)(default_x 126.09)(default_y -5.00)(dynamics 100.00)(pitch_index 219)(duration 1)(tie_index 57)(voice 2)(type quarter)(stem down)(notations_index 60)(part_index 1))
	(Note (index 234)(default_x 164.96)(default_y -50.00)(dynamics 100.00)(pitch_index 220)(duration 1)(tie_index 58)(voice 2)(type quarter)(stem down)(notations_index 61)(part_index 1))
	(Note (index 235)(default_x 164.96)(default_y -30.00)(dynamics 100.00)(pitch_index 221)(duration 1)(voice 2)(type quarter)(stem down)(part_index 1))
	(Note (index 236)(default_x 164.96)(default_y -5.00)(dynamics 100.00)(pitch_index 222)(duration 1)(tie_index 59)(voice 2)(type quarter)(stem down)(notations_index 62)(part_index 1))
	(Note (index 237)(default_x 10.00)(default_y -10.00)(dynamics 100.00)(pitch_index 223)(duration 4)(voice 1)(type whole)(part_index 1))
	(Note (index 238)(duration 2)(voice 1)(type half)(part_index 1))
	(Note (index 239)(default_x 12.96)(default_y -45.00)(dynamics 100.00)(pitch_index 224)(duration 2)(voice 2)(type half)(stem down)(part_index 1))
	(Note (index 240)(default_x 12.96)(default_y -35.00)(dynamics 100.00)(pitch_index 225)(duration 2)(voice 2)(type half)(stem down)(part_index 1))
	(Note (index 241)(duration 2)(voice 2)(type half)(part_index 1))
	(Note (index 242)(default_x 76.13)(default_y -15.00)(dynamics 100.00)(pitch_index 226)(duration 2)(voice 2)(type half)(stem down)(part_index 1))
	(Note (index 243)(duration 2)(voice 3)(type half)(part_index 1))
	(Note (index 244)(default_x 41.59)(default_y -60.00)(dynamics 100.00)(pitch_index 227)(duration 4)(voice 3)(type whole)(part_index 1))
	(Note (index 245)(default_x 41.59)(default_y -40.00)(dynamics 100.00)(pitch_index 228)(duration 4)(voice 3)(type whole)(part_index 1))
	(Note (index 246)(default_x 41.59)(default_y -25.00)(dynamics 100.00)(pitch_index 229)(duration 4)(voice 3)(type whole)(part_index 1))
	(Note (index 247)(default_x 10.00)(default_y -45.00)(dynamics 100.00)(pitch_index 230)(duration 6)(voice 1)(type whole)(part_index 1))
	(Note (index 248)(default_x 10.00)(default_y -35.00)(dynamics 100.00)(pitch_index 231)(duration 6)(voice 1)(type whole)(part_index 1))
	(Note (index 249)(default_x 10.00)(default_y -25.00)(dynamics 100.00)(pitch_index 232)(duration 6)(voice 1)(type whole)(part_index 1))
	(Note (index 250)(default_x 10.00)(default_y -10.00)(dynamics 100.00)(pitch_index 233)(duration 6)(voice 1)(type whole)(part_index 1))
)

(deffacts pitchs
	(Pitch (index 0)(step D)(octave 3)(part_index 1))
	(Pitch (index 1)(step A)(octave 3)(part_index 1))
	(Pitch (index 2)(step D)(octave 4)(part_index 1))
	(Pitch (index 3)(step F)(alter 1)(octave 4)(part_index 1))
	(Pitch (index 4)(step D)(octave 3)(part_index 1))
	(Pitch (index 5)(step A)(octave 3)(part_index 1))
	(Pitch (index 6)(step D)(octave 4)(part_index 1))
	(Pitch (index 7)(step F)(alter 1)(octave 4)(part_index 1))
	(Pitch (index 8)(step G)(octave 2)(part_index 1))
	(Pitch (index 9)(step B)(octave 3)(part_index 1))
	(Pitch (index 10)(step D)(octave 4)(part_index 1))
	(Pitch (index 11)(step G)(octave 4)(part_index 1))
	(Pitch (index 12)(step D)(octave 3)(part_index 1))
	(Pitch (index 13)(step A)(octave 3)(part_index 1))
	(Pitch (index 14)(step D)(octave 4)(part_index 1))
	(Pitch (index 15)(step F)(alter 1)(octave 4)(part_index 1))
	(Pitch (index 16)(step G)(octave 2)(part_index 1))
	(Pitch (index 17)(step B)(octave 3)(part_index 1))
	(Pitch (index 18)(step D)(octave 4)(part_index 1))
	(Pitch (index 19)(step G)(octave 4)(part_index 1))
	(Pitch (index 20)(step D)(octave 3)(part_index 1))
	(Pitch (index 21)(step A)(octave 3)(part_index 1))
	(Pitch (index 22)(step D)(octave 4)(part_index 1))
	(Pitch (index 23)(step F)(alter 1)(octave 4)(part_index 1))
	(Pitch (index 24)(step C)(alter 1)(octave 3)(part_index 1))
	(Pitch (index 25)(step A)(octave 3)(part_index 1))
	(Pitch (index 26)(step E)(octave 4)(part_index 1))
	(Pitch (index 27)(step B)(octave 2)(part_index 1))
	(Pitch (index 28)(step G)(alter 1)(octave 3)(part_index 1))
	(Pitch (index 29)(step D)(octave 4)(part_index 1))
	(Pitch (index 30)(step C)(alter 1)(octave 4)(part_index 1))
	(Pitch (index 31)(step D)(octave 4)(part_index 1))
	(Pitch (index 32)(step C)(alter 1)(octave 4)(part_index 1))
	(Pitch (index 33)(step B)(octave 3)(part_index 1))
	(Pitch (index 34)(step A)(octave 3)(part_index 1))
	(Pitch (index 35)(step G)(alter 1)(octave 3)(part_index 1))
	(Pitch (index 36)(step A)(octave 2)(part_index 1))
	(Pitch (index 37)(step E)(octave 3)(part_index 1))
	(Pitch (index 38)(step A)(octave 3)(part_index 1))
	(Pitch (index 39)(step A)(octave 2)(part_index 1))
	(Pitch (index 40)(step E)(octave 4)(part_index 1))
	(Pitch (index 41)(step A)(octave 3)(part_index 1))
	(Pitch (index 42)(step D)(octave 4)(part_index 1))
	(Pitch (index 43)(step C)(alter 1)(octave 4)(part_index 1))
	(Pitch (index 44)(step B)(octave 3)(part_index 1))
	(Pitch (index 45)(step D)(octave 4)(part_index 1))
	(Pitch (index 46)(step C)(alter 1)(octave 4)(part_index 1))
	(Pitch (index 47)(step A)(octave 2)(part_index 1))
	(Pitch (index 48)(step E)(octave 4)(part_index 1))
	(Pitch (index 49)(step A)(octave 2)(part_index 1))
	(Pitch (index 50)(step D)(octave 3)(part_index 1))
	(Pitch (index 51)(step F)(alter 1)(octave 3)(part_index 1))
	(Pitch (index 52)(step D)(octave 3)(part_index 1))
	(Pitch (index 53)(step G)(octave 3)(part_index 1))
	(Pitch (index 54)(step B)(octave 3)(part_index 1))
	(Pitch (index 55)(step G)(octave 2)(part_index 1))
	(Pitch (index 56)(step A)(octave 2)(part_index 1))
	(Pitch (index 57)(step B)(octave 2)(part_index 1))
	(Pitch (index 58)(step C)(octave 3)(part_index 1))
	(Pitch (index 59)(step D)(octave 3)(part_index 1))
	(Pitch (index 60)(step F)(alter 1)(octave 3)(part_index 1))
	(Pitch (index 61)(step A)(octave 3)(part_index 1))
	(Pitch (index 62)(step D)(octave 4)(part_index 1))
	(Pitch (index 63)(step B)(octave 2)(part_index 1))
	(Pitch (index 64)(step G)(octave 3)(part_index 1))
	(Pitch (index 65)(step C)(alter 1)(octave 4)(part_index 1))
	(Pitch (index 66)(step A)(octave 2)(part_index 1))
	(Pitch (index 67)(step E)(octave 3)(part_index 1))
	(Pitch (index 68)(step A)(octave 3)(part_index 1))
	(Pitch (index 69)(step D)(octave 3)(part_index 1))
	(Pitch (index 70)(step F)(alter 1)(octave 3)(part_index 1))
	(Pitch (index 71)(step A)(octave 3)(part_index 1))
	(Pitch (index 72)(step D)(octave 4)(part_index 1))
	(Pitch (index 73)(step F)(alter 1)(octave 4)(part_index 1))
	(Pitch (index 74)(step B)(octave 3)(part_index 1))
	(Pitch (index 75)(step D)(octave 3)(part_index 1))
	(Pitch (index 76)(step D)(octave 4)(part_index 1))
	(Pitch (index 77)(step D)(octave 3)(part_index 1))
	(Pitch (index 78)(step D)(octave 4)(part_index 1))
	(Pitch (index 79)(step G)(octave 4)(part_index 1))
	(Pitch (index 80)(step D)(octave 3)(part_index 1))
	(Pitch (index 81)(step D)(octave 4)(part_index 1))
	(Pitch (index 82)(step A)(octave 4)(part_index 1))
	(Pitch (index 83)(step D)(octave 3)(part_index 1))
	(Pitch (index 84)(step D)(octave 4)(part_index 1))
	(Pitch (index 85)(step F)(alter 1)(octave 4)(part_index 1))
	(Pitch (index 86)(step E)(octave 3)(part_index 1))
	(Pitch (index 87)(step G)(octave 4)(part_index 1))
	(Pitch (index 88)(step E)(octave 3)(part_index 1))
	(Pitch (index 89)(step C)(alter 1)(octave 4)(part_index 1))
	(Pitch (index 90)(step G)(octave 4)(part_index 1))
	(Pitch (index 91)(step F)(alter 1)(octave 4)(part_index 1))
	(Pitch (index 92)(step G)(octave 4)(part_index 1))
	(Pitch (index 93)(step A)(octave 4)(part_index 1))
	(Pitch (index 94)(step F)(alter 1)(octave 4)(part_index 1))
	(Pitch (index 95)(step E)(octave 3)(part_index 1))
	(Pitch (index 96)(step G)(octave 4)(part_index 1))
	(Pitch (index 97)(step E)(octave 3)(part_index 1))
	(Pitch (index 98)(step C)(alter 1)(octave 4)(part_index 1))
	(Pitch (index 99)(step G)(octave 4)(part_index 1))
	(Pitch (index 100)(step D)(octave 3)(part_index 1))
	(Pitch (index 101)(step D)(octave 4)(part_index 1))
	(Pitch (index 102)(step B)(octave 3)(part_index 1))
	(Pitch (index 103)(step A)(octave 3)(part_index 1))
	(Pitch (index 104)(step D)(octave 4)(part_index 1))
	(Pitch (index 105)(step F)(alter 1)(octave 4)(part_index 1))
	(Pitch (index 106)(step G)(octave 3)(part_index 1))
	(Pitch (index 107)(step E)(octave 4)(part_index 1))
	(Pitch (index 108)(step F)(alter 1)(octave 3)(part_index 1))
	(Pitch (index 109)(step D)(octave 4)(part_index 1))
	(Pitch (index 110)(step D)(octave 3)(part_index 1))
	(Pitch (index 111)(step A)(octave 3)(part_index 1))
	(Pitch (index 112)(step E)(octave 3)(part_index 1))
	(Pitch (index 113)(step F)(alter 1)(octave 3)(part_index 1))
	(Pitch (index 114)(step G)(alter 1)(octave 3)(part_index 1))
	(Pitch (index 115)(step A)(octave 3)(part_index 1))
	(Pitch (index 116)(step G)(alter 1)(octave 3)(part_index 1))
	(Pitch (index 117)(step A)(octave 2)(part_index 1))
	(Pitch (index 118)(step C)(alter 1)(octave 4)(part_index 1))
	(Pitch (index 119)(step A)(octave 3)(part_index 1))
	(Pitch (index 120)(step E)(octave 4)(part_index 1))
	(Pitch (index 121)(step A)(octave 3)(part_index 1))
	(Pitch (index 122)(step E)(octave 4)(part_index 1))
	(Pitch (index 123)(step D)(octave 4)(part_index 1))
	(Pitch (index 124)(step A)(octave 2)(part_index 1))
	(Pitch (index 125)(step B)(octave 2)(part_index 1))
	(Pitch (index 126)(step C)(alter 1)(octave 3)(part_index 1))
	(Pitch (index 127)(step A)(octave 2)(part_index 1))
	(Pitch (index 128)(step B)(octave 2)(part_index 1))
	(Pitch (index 129)(step F)(alter 1)(octave 3)(part_index 1))
	(Pitch (index 130)(step B)(octave 2)(part_index 1))
	(Pitch (index 131)(step F)(alter 1)(octave 3)(part_index 1))
	(Pitch (index 132)(step C)(alter 1)(octave 4)(part_index 1))
	(Pitch (index 133)(step G)(octave 3)(part_index 1))
	(Pitch (index 134)(step B)(octave 3)(part_index 1))
	(Pitch (index 135)(step A)(octave 3)(part_index 1))
	(Pitch (index 136)(step G)(octave 2)(part_index 1))
	(Pitch (index 137)(step D)(octave 3)(part_index 1))
	(Pitch (index 138)(step G)(octave 2)(part_index 1))
	(Pitch (index 139)(step D)(octave 3)(part_index 1))
	(Pitch (index 140)(step A)(octave 3)(part_index 1))
	(Pitch (index 141)(step G)(octave 2)(part_index 1))
	(Pitch (index 142)(step D)(octave 3)(part_index 1))
	(Pitch (index 143)(step B)(octave 3)(part_index 1))
	(Pitch (index 144)(step G)(octave 2)(part_index 1))
	(Pitch (index 145)(step D)(octave 3)(part_index 1))
	(Pitch (index 146)(step C)(alter 1)(octave 4)(part_index 1))
	(Pitch (index 147)(step D)(octave 3)(part_index 1))
	(Pitch (index 148)(step D)(octave 4)(part_index 1))
	(Pitch (index 149)(step D)(octave 3)(part_index 1))
	(Pitch (index 150)(step G)(octave 3)(part_index 1))
	(Pitch (index 151)(step D)(octave 4)(part_index 1))
	(Pitch (index 152)(step D)(octave 4)(part_index 1))
	(Pitch (index 153)(step C)(alter 1)(octave 4)(part_index 1))
	(Pitch (index 154)(step F)(alter 1)(octave 3)(part_index 1))
	(Pitch (index 155)(step A)(octave 4)(part_index 1))
	(Pitch (index 156)(step A)(octave 2)(part_index 1))
	(Pitch (index 157)(step E)(octave 3)(part_index 1))
	(Pitch (index 158)(step A)(octave 4)(part_index 1))
	(Pitch (index 159)(step D)(octave 3)(part_index 1))
	(Pitch (index 160)(step D)(octave 4)(part_index 1))
	(Pitch (index 161)(step D)(octave 4)(part_index 1))
	(Pitch (index 162)(step G)(octave 4)(part_index 1))
	(Pitch (index 163)(step F)(alter 1)(octave 4)(part_index 1))
	(Pitch (index 164)(step C)(alter 1)(octave 4)(part_index 1))
	(Pitch (index 165)(step F)(alter 1)(octave 4)(part_index 1))
	(Pitch (index 166)(step B)(octave 3)(part_index 1))
	(Pitch (index 167)(step F)(alter 1)(octave 4)(part_index 1))
	(Pitch (index 168)(step A)(octave 3)(part_index 1))
	(Pitch (index 169)(step F)(alter 1)(octave 4)(part_index 1))
	(Pitch (index 170)(step B)(octave 3)(part_index 1))
	(Pitch (index 171)(step C)(alter 1)(octave 4)(part_index 1))
	(Pitch (index 172)(step D)(octave 4)(part_index 1))
	(Pitch (index 173)(step F)(alter 1)(octave 4)(part_index 1))
	(Pitch (index 174)(step D)(octave 4)(part_index 1))
	(Pitch (index 175)(step G)(octave 4)(part_index 1))
	(Pitch (index 176)(step D)(octave 3)(part_index 1))
	(Pitch (index 177)(step C)(octave 3)(part_index 1))
	(Pitch (index 178)(step B)(octave 2)(part_index 1))
	(Pitch (index 179)(step A)(octave 2)(part_index 1))
	(Pitch (index 180)(step B)(octave 2)(part_index 1))
	(Pitch (index 181)(step C)(octave 3)(part_index 1))
	(Pitch (index 182)(step D)(octave 4)(part_index 1))
	(Pitch (index 183)(step C)(alter 1)(octave 4)(part_index 1))
	(Pitch (index 184)(step G)(alter 1)(octave 3)(part_index 1))
	(Pitch (index 185)(step A)(octave 3)(part_index 1))
	(Pitch (index 186)(step D)(octave 3)(part_index 1))
	(Pitch (index 187)(step F)(alter 1)(octave 4)(part_index 1))
	(Pitch (index 188)(step A)(octave 2)(part_index 1))
	(Pitch (index 189)(step E)(octave 4)(part_index 1))
	(Pitch (index 190)(step B)(octave 2)(part_index 1))
	(Pitch (index 191)(step D)(octave 4)(part_index 1))
	(Pitch (index 192)(step A)(octave 3)(part_index 1))
	(Pitch (index 193)(step G)(alter 1)(octave 3)(part_index 1))
	(Pitch (index 194)(step F)(alter 1)(octave 3)(part_index 1))
	(Pitch (index 195)(step E)(octave 3)(part_index 1))
	(Pitch (index 196)(step F)(alter 1)(octave 3)(part_index 1))
	(Pitch (index 197)(step G)(alter 1)(octave 3)(part_index 1))
	(Pitch (index 198)(step A)(octave 2)(part_index 1))
	(Pitch (index 199)(step C)(alter 1)(octave 4)(part_index 1))
	(Pitch (index 200)(step E)(octave 4)(part_index 1))
	(Pitch (index 201)(step B)(octave 3)(part_index 1))
	(Pitch (index 202)(step E)(octave 4)(part_index 1))
	(Pitch (index 203)(step E)(octave 4)(part_index 1))
	(Pitch (index 204)(step A)(octave 3)(part_index 1))
	(Pitch (index 205)(step E)(octave 4)(part_index 1))
	(Pitch (index 206)(step F)(alter 1)(octave 3)(part_index 1))
	(Pitch (index 207)(step F)(alter 1)(octave 3)(part_index 1))
	(Pitch (index 208)(step C)(alter 1)(octave 4)(part_index 1))
	(Pitch (index 209)(step A)(octave 3)(part_index 1))
	(Pitch (index 210)(step C)(alter 1)(octave 4)(part_index 1))
	(Pitch (index 211)(step D)(octave 4)(part_index 1))
	(Pitch (index 212)(step B)(octave 3)(part_index 1))
	(Pitch (index 213)(step A)(octave 3)(part_index 1))
	(Pitch (index 214)(step G)(octave 3)(part_index 1))
	(Pitch (index 215)(step F)(alter 1)(octave 3)(part_index 1))
	(Pitch (index 216)(step E)(octave 3)(part_index 1))
	(Pitch (index 217)(step D)(octave 3)(part_index 1))
	(Pitch (index 218)(step C)(alter 1)(octave 3)(part_index 1))
	(Pitch (index 219)(step E)(octave 4)(part_index 1))
	(Pitch (index 220)(step C)(alter 1)(octave 3)(part_index 1))
	(Pitch (index 221)(step G)(octave 3)(part_index 1))
	(Pitch (index 222)(step E)(octave 4)(part_index 1))
	(Pitch (index 223)(step D)(octave 4)(part_index 1))
	(Pitch (index 224)(step D)(octave 3)(part_index 1))
	(Pitch (index 225)(step F)(alter 1)(octave 3)(part_index 1))
	(Pitch (index 226)(step C)(alter 1)(octave 4)(part_index 1))
	(Pitch (index 227)(step A)(octave 2)(part_index 1))
	(Pitch (index 228)(step E)(octave 3)(part_index 1))
	(Pitch (index 229)(step A)(octave 3)(part_index 1))
	(Pitch (index 230)(step D)(octave 3)(part_index 1))
	(Pitch (index 231)(step F)(alter 1)(octave 3)(part_index 1))
	(Pitch (index 232)(step A)(octave 3)(part_index 1))
	(Pitch (index 233)(step D)(octave 4)(part_index 1))
)

(deffacts beams
)

(deffacts keys
	(Key (index 0)(fifths 2)(part_index 1))
)

(deffacts times
	(Time (index 0)(beats 3)(beat_type 2)(part_index 1))
)

(deffacts transposes
)

(deffacts directions
	(Direction (index 0)(placement above)(direction_type_index 0)(sound_index 0)(part_index 1))
)

(deffacts direction_types
	(Direction_Type (index 0)(metronome_index 0)(part_index 1))
)

(deffacts metronomes
	(Metronome (index 0)(parentheses no)(default_x -35.03)(default_y 12.30)(relative_y 20.00)(beat_unit quarter)(per_minute 150)(part_index 1))
)

(deffacts sounds
	(Sound (index 0)(tempo 150)(part_index 1))
)

(deffacts clefs
	(Clef (index 0)(sign G)(line 2)(clef_octave_change -1)(part_index 1))
)

(deffacts barlines
	(Barline (index 0)(location right)(bar_style light-heavy)(part_index 1))
)

(deffacts ties
	(Tie (index 0)(type start)(part_index 1))
	(Tie (index 1)(type stop)(part_index 1))
	(Tie (index 2)(type start)(part_index 1))
	(Tie (index 3)(type stop)(part_index 1))
	(Tie (index 4)(type start)(part_index 1))
	(Tie (index 5)(type start)(part_index 1))
	(Tie (index 6)(type stop)(part_index 1))
	(Tie (index 7)(type start)(part_index 1))
	(Tie (index 8)(type stop)(part_index 1))
	(Tie (index 9)(type start)(part_index 1))
	(Tie (index 10)(type stop)(part_index 1))
	(Tie (index 11)(type start)(part_index 1))
	(Tie (index 12)(type stop)(part_index 1))
	(Tie (index 13)(type start)(part_index 1))
	(Tie (index 14)(type stop)(part_index 1))
	(Tie (index 15)(type stop)(part_index 1))
	(Tie (index 16)(type start)(part_index 1))
	(Tie (index 17)(type start)(part_index 1))
	(Tie (index 18)(type stop)(part_index 1))
	(Tie (index 19)(type stop)(part_index 1))
	(Tie (index 20)(type start)(part_index 1))
	(Tie (index 21)(type start)(part_index 1))
	(Tie (index 22)(type stop)(part_index 1))
	(Tie (index 23)(type stop)(part_index 1))
	(Tie (index 24)(type start)(part_index 1))
	(Tie (index 25)(type start)(part_index 1))
	(Tie (index 26)(type stop)(part_index 1))
	(Tie (index 27)(type stop)(part_index 1))
	(Tie (index 28)(type start)(part_index 1))
	(Tie (index 29)(type start)(part_index 1))
	(Tie (index 30)(type stop)(part_index 1))
	(Tie (index 31)(type start)(part_index 1))
	(Tie (index 32)(type stop)(part_index 1))
	(Tie (index 33)(type start)(part_index 1))
	(Tie (index 34)(type stop)(part_index 1))
	(Tie (index 35)(type start)(part_index 1))
	(Tie (index 36)(type stop)(part_index 1))
	(Tie (index 37)(type start)(part_index 1))
	(Tie (index 38)(type stop)(part_index 1))
	(Tie (index 39)(type stop)(part_index 1))
	(Tie (index 40)(type start)(part_index 1))
	(Tie (index 41)(type start)(part_index 1))
	(Tie (index 42)(type stop)(part_index 1))
	(Tie (index 43)(type stop)(part_index 1))
	(Tie (index 44)(type start)(part_index 1))
	(Tie (index 45)(type stop)(part_index 1))
	(Tie (index 46)(type start)(part_index 1))
	(Tie (index 47)(type stop)(part_index 1))
	(Tie (index 48)(type start)(part_index 1))
	(Tie (index 49)(type stop)(part_index 1))
	(Tie (index 50)(type start)(part_index 1))
	(Tie (index 51)(type stop)(part_index 1))
	(Tie (index 52)(type start)(part_index 1))
	(Tie (index 53)(type stop)(part_index 1))
	(Tie (index 54)(type start)(part_index 1))
	(Tie (index 55)(type stop)(part_index 1))
	(Tie (index 56)(type start)(part_index 1))
	(Tie (index 57)(type start)(part_index 1))
	(Tie (index 58)(type stop)(part_index 1))
	(Tie (index 59)(type stop)(part_index 1))
)

(deffacts instruments
)

(deffacts prints
)

(deffacts notationss
	(Notations (index 0)(tied_index 0)(part_index 1))
	(Notations (index 1)(tied_index 1)(part_index 1))
	(Notations (index 2)(tied_index 2)(part_index 1))
	(Notations (index 3)(tied_index 3)(part_index 1))
	(Notations (index 4)(articulations_index 0)(part_index 1))
	(Notations (index 5)(articulations_index 1)(part_index 1))
	(Notations (index 6)(tied_index 4)(part_index 1))
	(Notations (index 7)(tied_index 5)(part_index 1))
	(Notations (index 8)(tied 6 7)(part_index 1))
	(Notations (index 9)(tied 8 9)(part_index 1))
	(Notations (index 10)(tied 10 11)(part_index 1))
	(Notations (index 11)(tied 12 13)(part_index 1))
	(Notations (index 12)(tied_index 14)(part_index 1))
	(Notations (index 13)(tied_index 15)(part_index 1))
	(Notations (index 14)(tied_index 16)(part_index 1))
	(Notations (index 15)(tied_index 17)(part_index 1))
	(Notations (index 16)(tied_index 18)(part_index 1))
	(Notations (index 17)(tied_index 19)(part_index 1))
	(Notations (index 18)(tied_index 20)(part_index 1))
	(Notations (index 19)(tied_index 21)(part_index 1))
	(Notations (index 20)(tied_index 22)(part_index 1))
	(Notations (index 21)(tied_index 23)(part_index 1))
	(Notations (index 22)(articulations_index 2)(part_index 1))
	(Notations (index 23)(articulations_index 3)(part_index 1))
	(Notations (index 24)(tied_index 24)(part_index 1))
	(Notations (index 25)(tied_index 25)(part_index 1))
	(Notations (index 26)(tied_index 26)(part_index 1))
	(Notations (index 27)(tied_index 27)(part_index 1))
	(Notations (index 28)(articulations_index 4)(part_index 1))
	(Notations (index 29)(articulations_index 5)(part_index 1))
	(Notations (index 30)(tied_index 28)(part_index 1))
	(Notations (index 31)(tied_index 29)(part_index 1))
	(Notations (index 32)(tied 30 31)(part_index 1))
	(Notations (index 33)(tied 32 33)(part_index 1))
	(Notations (index 34)(tied 34 35)(part_index 1))
	(Notations (index 35)(tied 36 37)(part_index 1))
	(Notations (index 36)(tied_index 38)(part_index 1))
	(Notations (index 37)(tied_index 39)(part_index 1))
	(Notations (index 38)(tied_index 40)(part_index 1))
	(Notations (index 39)(tied_index 41)(part_index 1))
	(Notations (index 40)(tied_index 42)(part_index 1))
	(Notations (index 41)(tied_index 43)(part_index 1))
	(Notations (index 42)(articulations_index 6)(part_index 1))
	(Notations (index 43)(tied_index 44)(part_index 1))
	(Notations (index 44)(tied 45 46)(part_index 1))
	(Notations (index 45)(tied 47 48)(part_index 1))
	(Notations (index 46)(tied_index 49)(part_index 1))
	(Notations (index 47)(articulations_index 7)(part_index 1))
	(Notations (index 48)(articulations_index 8)(part_index 1))
	(Notations (index 49)(tied_index 50)(part_index 1))
	(Notations (index 50)(tied_index 51)(part_index 1))
	(Notations (index 51)(tied_index 52)(part_index 1))
	(Notations (index 52)(tied_index 53)(part_index 1))
	(Notations (index 53)(tied_index 54)(part_index 1))
	(Notations (index 54)(tied_index 55)(part_index 1))
	(Notations (index 55)(articulations_index 9)(part_index 1))
	(Notations (index 56)(articulations_index 10)(part_index 1))
	(Notations (index 57)(articulations_index 11)(part_index 1))
	(Notations (index 58)(articulations_index 12)(part_index 1))
	(Notations (index 59)(tied_index 56)(part_index 1))
	(Notations (index 60)(tied_index 57)(part_index 1))
	(Notations (index 61)(tied_index 58)(part_index 1))
	(Notations (index 62)(tied_index 59)(part_index 1))
)

(deffacts backups
)

(deffacts unpitcheds
	(Unpitched (index 0)(part_index -1)(display_step A))
)

(deffacts articulationss
	(Articulations (index 0)(part_index 1))
	(Articulations (index 1)(part_index 1))
	(Articulations (index 2)(part_index 1))
	(Articulations (index 3)(part_index 1))
	(Articulations (index 4)(part_index 1))
	(Articulations (index 5)(part_index 1))
	(Articulations (index 6)(part_index 1))
	(Articulations (index 7)(part_index 1))
	(Articulations (index 8)(part_index 1))
	(Articulations (index 9)(part_index 1))
	(Articulations (index 10)(part_index 1))
	(Articulations (index 11)(part_index 1))
	(Articulations (index 12)(part_index 1))
)

(deffacts repeats
)

(deffacts staff_layouts
)

(deffacts tieds
	(Tied (index 0)(type start)(part_index 1))
	(Tied (index 1)(type stop)(part_index 1))
	(Tied (index 2)(type start)(part_index 1))
	(Tied (index 3)(type stop)(part_index 1))
	(Tied (index 4)(type start)(part_index 1))
	(Tied (index 5)(type start)(part_index 1))
	(Tied (index 6)(type stop)(part_index 1))
	(Tied (index 7)(type start)(part_index 1))
	(Tied (index 8)(type stop)(part_index 1))
	(Tied (index 9)(type start)(part_index 1))
	(Tied (index 10)(type stop)(part_index 1))
	(Tied (index 11)(type start)(part_index 1))
	(Tied (index 12)(type stop)(part_index 1))
	(Tied (index 13)(type start)(part_index 1))
	(Tied (index 14)(type stop)(part_index 1))
	(Tied (index 15)(type stop)(part_index 1))
	(Tied (index 16)(type start)(part_index 1))
	(Tied (index 17)(type start)(part_index 1))
	(Tied (index 18)(type stop)(part_index 1))
	(Tied (index 19)(type stop)(part_index 1))
	(Tied (index 20)(type start)(part_index 1))
	(Tied (index 21)(type start)(part_index 1))
	(Tied (index 22)(type stop)(part_index 1))
	(Tied (index 23)(type stop)(part_index 1))
	(Tied (index 24)(type start)(part_index 1))
	(Tied (index 25)(type start)(part_index 1))
	(Tied (index 26)(type stop)(part_index 1))
	(Tied (index 27)(type stop)(part_index 1))
	(Tied (index 28)(type start)(part_index 1))
	(Tied (index 29)(type start)(part_index 1))
	(Tied (index 30)(type stop)(part_index 1))
	(Tied (index 31)(type start)(part_index 1))
	(Tied (index 32)(type stop)(part_index 1))
	(Tied (index 33)(type start)(part_index 1))
	(Tied (index 34)(type stop)(part_index 1))
	(Tied (index 35)(type start)(part_index 1))
	(Tied (index 36)(type stop)(part_index 1))
	(Tied (index 37)(type start)(part_index 1))
	(Tied (index 38)(type stop)(part_index 1))
	(Tied (index 39)(type stop)(part_index 1))
	(Tied (index 40)(type start)(part_index 1))
	(Tied (index 41)(type start)(part_index 1))
	(Tied (index 42)(type stop)(part_index 1))
	(Tied (index 43)(type stop)(part_index 1))
	(Tied (index 44)(type start)(part_index 1))
	(Tied (index 45)(type stop)(part_index 1))
	(Tied (index 46)(type start)(part_index 1))
	(Tied (index 47)(type stop)(part_index 1))
	(Tied (index 48)(type start)(part_index 1))
	(Tied (index 49)(type stop)(part_index 1))
	(Tied (index 50)(type start)(part_index 1))
	(Tied (index 51)(type stop)(part_index 1))
	(Tied (index 52)(type start)(part_index 1))
	(Tied (index 53)(type stop)(part_index 1))
	(Tied (index 54)(type start)(part_index 1))
	(Tied (index 55)(type stop)(part_index 1))
	(Tied (index 56)(type start)(part_index 1))
	(Tied (index 57)(type start)(part_index 1))
	(Tied (index 58)(type stop)(part_index 1))
	(Tied (index 59)(type stop)(part_index 1))
)

(deffacts system_layouts
)

(deffacts system_marginss
)

