(deftemplate Part
	(slot id)
	(slot index)
	(slot part_index)
	(multislot measure)
)

(deftemplate Attributes
	(slot divisions)
	(slot staves)
	(slot clef_index)
	(slot index)
	(slot part_index)
	(slot time_index)
	(slot key_index)
	(multislot clef)
)

(deftemplate Measure
	(slot barline_index)
	(slot width)
	(slot direction_index)
	(slot index)
	(slot note_index)
	(slot attributes_index)
	(slot part_index)
	(slot number)
	(multislot note)
)

(deftemplate Note
	(slot tie_index)
	(slot dynamics)
	(slot index)
	(slot default_y)
	(slot staff)
	(slot duration)
	(slot lyric_index)
	(slot stem)
	(slot accidental)
	(slot voice)
	(slot type)
	(slot notations_index)
	(slot pitch_index)
	(slot default_x)
	(slot part_index)
	(multislot lyric)
)

(deftemplate Pitch
	(slot index)
	(slot part_index)
	(slot octave)
	(slot alter)
	(slot step)
)

(deftemplate Beam
)

(deftemplate Key
	(slot fifths)
	(slot index)
	(slot part_index)
)

(deftemplate Time
	(slot beat_type)
	(slot index)
	(slot beats)
	(slot part_index)
)

(deftemplate Transpose
)

(deftemplate Direction
	(slot index)
	(slot placement)
	(slot part_index)
	(slot direction_type_index)
	(slot sound_index)
)

(deftemplate Direction_Type
	(slot metronome_index)
	(slot index)
	(slot part_index)
)

(deftemplate Metronome
	(slot per_minute)
	(slot index)
	(slot default_x)
	(slot part_index)
	(slot parentheses)
	(slot relative_y)
	(slot beat_unit)
)

(deftemplate Sound
	(slot tempo)
	(slot index)
	(slot part_index)
)

(deftemplate Clef
	(slot index)
	(slot line)
	(slot part_index)
	(slot sign)
	(slot number)
)

(deftemplate Barline
	(slot bar_style)
	(slot location)
	(slot index)
	(slot part_index)
)

(deftemplate Tie
	(slot type)
	(slot index)
	(slot part_index)
)

(deftemplate Instrument
)

(deftemplate Print
)

(deftemplate Notations
	(slot tied_index)
	(slot index)
	(slot part_index)
)

(deftemplate Backup
)

(deftemplate Unpitched
	(slot display_step)
	(slot index)
	(slot part_index)
)

(deftemplate Articulations
)

(deftemplate Repeat
)

(deftemplate Staff_layout
)

(deftemplate Tied
	(slot type)
	(slot index)
	(slot part_index)
)

(deftemplate System_layout
)

(deftemplate System_margins
)

(deffacts parts
	(Part (index 0)(id P1)(measure 0 1 2 3 4 5 6 7 8 9 10 11 12 13 14 15 16 17 18 19)(part_index 1))
	(Part (index 1)(id P2)(measure 20 21 22 23 24 25 26 27 28 29 30 31 32 33 34 35 36 37 38 39)(part_index 2))
	(Part (index 2)(id P3)(measure 40 41 42 43 44 45 46 47 48 49 50 51 52 53 54 55 56 57 58 59)(part_index 3))
)

(deffacts attributess
	(Attributes (index 0)(divisions 1)(key_index 0)(time_index 0)(clef_index 0)(part_index 1))
	(Attributes (index 1)(divisions 1)(key_index 1)(time_index 1)(clef_index 1)(part_index 2))
	(Attributes (index 2)(divisions 1)(key_index 2)(time_index 2)(staves 2)(clef 2 3)(part_index 3))
	(Attributes (index 3)(clef_index 4)(part_index 3))
	(Attributes (index 4)(clef_index 5)(part_index 3))
)

(deffacts measures
	(Measure (index 0)(number 1)(width 396.99)(attributes_index 0)(direction_index 0)(note 0 1)(part_index 1))
	(Measure (index 1)(number 2)(width 136.56)(note 2 3)(part_index 1))
	(Measure (index 2)(number 3)(width 120.70)(note 4 5)(part_index 1))
	(Measure (index 3)(number 4)(width 107.60)(note_index 6)(part_index 1))
	(Measure (index 4)(number 5)(width 138.64)(note 7 8)(part_index 1))
	(Measure (index 5)(number 6)(width 202.12)(note 9 10)(part_index 1))
	(Measure (index 6)(number 7)(width 130.22)(note 11 12)(part_index 1))
	(Measure (index 7)(number 8)(width 83.60)(note_index 13)(part_index 1))
	(Measure (index 8)(number 9)(width 122.24)(note 14 15)(part_index 1))
	(Measure (index 9)(number 10)(width 133.12)(note 16 17)(part_index 1))
	(Measure (index 10)(number 11)(width 70.40)(note_index 18)(part_index 1))
	(Measure (index 11)(number 12)(width 55.61)(note_index 19)(part_index 1))
	(Measure (index 12)(number 13)(width 207.56)(note 20 21 22 23)(part_index 1))
	(Measure (index 13)(number 14)(width 197.02)(note 24 25)(part_index 1))
	(Measure (index 14)(number 15)(width 222.19)(note 26 27 28 29)(part_index 1))
	(Measure (index 15)(number 16)(width 148.04)(note 30 31)(part_index 1))
	(Measure (index 16)(number 17)(width 127.11)(note 32 33)(part_index 1))
	(Measure (index 17)(number 18)(width 126.06)(note 34 35)(part_index 1))
	(Measure (index 18)(number 19)(width 89.78)(note_index 36)(part_index 1))
	(Measure (index 19)(number 20)(width 94.71)(note_index 37)(barline_index 0)(part_index 1))
	(Measure (index 20)(number 1)(width 396.99)(attributes_index 1)(note 38 39)(part_index 2))
	(Measure (index 21)(number 2)(width 136.56)(note 40 41)(part_index 2))
	(Measure (index 22)(number 3)(width 120.70)(note 42 43)(part_index 2))
	(Measure (index 23)(number 4)(width 107.60)(note_index 44)(part_index 2))
	(Measure (index 24)(number 5)(width 138.64)(note 45 46)(part_index 2))
	(Measure (index 25)(number 6)(width 202.12)(note 47 48)(part_index 2))
	(Measure (index 26)(number 7)(width 130.22)(note 49 50)(part_index 2))
	(Measure (index 27)(number 8)(width 83.60)(note_index 51)(part_index 2))
	(Measure (index 28)(number 9)(width 122.24)(note 52 53)(part_index 2))
	(Measure (index 29)(number 10)(width 133.12)(note 54 55)(part_index 2))
	(Measure (index 30)(number 11)(width 70.40)(note_index 56)(part_index 2))
	(Measure (index 31)(number 12)(width 55.61)(note_index 57)(part_index 2))
	(Measure (index 32)(number 13)(width 207.56)(note_index 58)(part_index 2))
	(Measure (index 33)(number 14)(width 197.02)(note 59 60 61 62)(part_index 2))
	(Measure (index 34)(number 15)(width 222.19)(note 63 64)(part_index 2))
	(Measure (index 35)(number 16)(width 148.04)(note 65 66 67 68)(part_index 2))
	(Measure (index 36)(number 17)(width 127.11)(note 69 70)(part_index 2))
	(Measure (index 37)(number 18)(width 126.06)(note 71 72 73)(part_index 2))
	(Measure (index 38)(number 19)(width 89.78)(note 74 75)(part_index 2))
	(Measure (index 39)(number 20)(width 94.71)(note_index 76)(barline_index 1)(part_index 2))
	(Measure (index 40)(number 1)(width 396.99)(attributes_index 2)(note 77 78 79 80)(part_index 3))
	(Measure (index 41)(number 2)(width 136.56)(note 81 82 83 84)(part_index 3))
	(Measure (index 42)(number 3)(width 120.70)(note 85 86 87 88)(part_index 3))
	(Measure (index 43)(number 4)(width 107.60)(attributes_index 3)(note 89 90)(part_index 3))
	(Measure (index 44)(number 5)(width 138.64)(note 91 92 93 94)(part_index 3))
	(Measure (index 45)(number 6)(width 202.12)(note 95 96 97 98)(part_index 3))
	(Measure (index 46)(number 7)(width 130.22)(attributes_index 4)(note 99 100 101 102)(part_index 3))
	(Measure (index 47)(number 8)(width 83.60)(note 103 104)(part_index 3))
	(Measure (index 48)(number 9)(width 122.24)(note 105 106 107 108)(part_index 3))
	(Measure (index 49)(number 10)(width 133.12)(note 109 110 111 112)(part_index 3))
	(Measure (index 50)(number 11)(width 70.40)(note 113 114)(part_index 3))
	(Measure (index 51)(number 12)(width 55.61)(note 115 116)(part_index 3))
	(Measure (index 52)(number 13)(width 207.56)(note 117 118 119 120 121 122 123 124)(part_index 3))
	(Measure (index 53)(number 14)(width 197.02)(note 125 126 127 128)(part_index 3))
	(Measure (index 54)(number 15)(width 222.19)(note 129 130 131 132 133 134 135 136)(part_index 3))
	(Measure (index 55)(number 16)(width 148.04)(note 137 138 139 140)(part_index 3))
	(Measure (index 56)(number 17)(width 127.11)(note 141 142 143 144)(part_index 3))
	(Measure (index 57)(number 18)(width 126.06)(note 145 146 147 148)(part_index 3))
	(Measure (index 58)(number 19)(width 89.78)(note 149 150 151)(part_index 3))
	(Measure (index 59)(number 20)(width 94.71)(note 152 153)(barline_index 2)(part_index 3))
)

(deffacts notes
	(Note (index 0)(default_x 110.13)(default_y -30.00)(dynamics 141.11)(pitch_index 0)(duration 2)(voice 1)(type half)(stem up)(lyric 12212 12213 12214)(part_index 1))
	(Note (index 1)(default_x 266.55)(default_y -20.00)(dynamics 141.11)(pitch_index 1)(duration 2)(voice 1)(type half)(stem down)(part_index 1))
	(Note (index 2)(default_x 18.78)(default_y -25.00)(dynamics 141.11)(pitch_index 2)(duration 2)(voice 1)(type half)(stem up)(part_index 1))
	(Note (index 3)(default_x 76.69)(default_y -30.00)(dynamics 141.11)(pitch_index 3)(duration 2)(voice 1)(type half)(stem up)(part_index 1))
	(Note (index 4)(default_x 23.26)(default_y -35.00)(dynamics 141.11)(pitch_index 4)(duration 2)(voice 1)(type half)(accidental sharp)(stem up)(part_index 1))
	(Note (index 5)(default_x 65.69)(default_y -30.00)(dynamics 141.11)(pitch_index 5)(duration 2)(voice 1)(type half)(stem up)(part_index 1))
	(Note (index 6)(default_x 41.94)(default_y -25.00)(dynamics 141.11)(pitch_index 6)(duration 4)(voice 1)(type whole)(part_index 1))
	(Note (index 7)(default_x 24.46)(default_y -30.00)(dynamics 141.11)(pitch_index 7)(duration 2)(voice 1)(type half)(stem up)(part_index 1))
	(Note (index 8)(default_x 80.57)(default_y -20.00)(dynamics 141.11)(pitch_index 8)(duration 2)(voice 1)(type half)(stem down)(part_index 1))
	(Note (index 9)(default_x 103.69)(default_y -25.00)(dynamics 141.11)(pitch_index 9)(duration 2)(voice 1)(type half)(stem up)(part_index 1))
	(Note (index 10)(default_x 151.92)(default_y -30.00)(dynamics 141.11)(pitch_index 10)(duration 2)(voice 1)(type half)(stem up)(part_index 1))
	(Note (index 11)(default_x 39.42)(default_y -35.00)(dynamics 141.11)(pitch_index 11)(duration 2)(voice 1)(type half)(accidental sharp)(stem up)(part_index 1))
	(Note (index 12)(default_x 78.90)(default_y -30.00)(dynamics 141.11)(pitch_index 12)(duration 2)(voice 1)(type half)(stem up)(part_index 1))
	(Note (index 13)(default_x 26.50)(default_y -25.00)(dynamics 141.11)(pitch_index 13)(duration 4)(voice 1)(type whole)(part_index 1))
	(Note (index 14)(default_x 26.46)(default_y -30.00)(dynamics 141.11)(pitch_index 14)(duration 2)(voice 1)(type half)(stem up)(part_index 1))
	(Note (index 15)(default_x 73.37)(default_y -25.00)(dynamics 141.11)(pitch_index 15)(duration 2)(voice 1)(type half)(stem up)(part_index 1))
	(Note (index 16)(default_x 24.86)(default_y -30.00)(dynamics 141.11)(pitch_index 16)(duration 2)(voice 1)(type half)(stem up)(part_index 1))
	(Note (index 17)(default_x 78.01)(default_y -35.00)(dynamics 141.11)(pitch_index 17)(duration 2)(voice 1)(type half)(accidental sharp)(stem up)(part_index 1))
	(Note (index 18)(default_x 20.50)(default_y -30.00)(dynamics 141.11)(pitch_index 18)(duration 4)(voice 1)(type whole)(part_index 1))
	(Note (index 19)(duration 4)(voice 1)(part_index 1))
	(Note (index 20)(default_x 32.22)(default_y -30.00)(dynamics 141.11)(pitch_index 19)(duration 1)(voice 1)(type quarter)(stem up)(part_index 1))
	(Note (index 21)(default_x 75.65)(default_y -35.00)(dynamics 141.11)(pitch_index 20)(duration 1)(voice 1)(type quarter)(accidental sharp)(stem up)(part_index 1))
	(Note (index 22)(default_x 119.09)(default_y -30.00)(dynamics 141.11)(pitch_index 21)(duration 1)(voice 1)(type quarter)(stem up)(part_index 1))
	(Note (index 23)(default_x 162.53)(default_y -25.00)(dynamics 141.11)(pitch_index 22)(duration 1)(voice 1)(type quarter)(stem up)(part_index 1))
	(Note (index 24)(default_x 90.47)(default_y -30.00)(dynamics 141.11)(pitch_index 23)(duration 2)(voice 1)(type half)(stem up)(part_index 1))
	(Note (index 25)(default_x 142.77)(default_y -35.00)(dynamics 141.11)(pitch_index 24)(duration 2)(voice 1)(type half)(accidental sharp)(stem up)(part_index 1))
	(Note (index 26)(default_x 30.42)(default_y -30.00)(dynamics 141.11)(pitch_index 25)(duration 1)(voice 1)(type quarter)(stem up)(part_index 1))
	(Note (index 27)(default_x 77.96)(default_y -35.00)(dynamics 141.11)(pitch_index 26)(duration 1)(voice 1)(type quarter)(accidental sharp)(stem up)(part_index 1))
	(Note (index 28)(default_x 125.50)(default_y -30.00)(dynamics 141.11)(pitch_index 27)(duration 1)(voice 1)(type quarter)(stem up)(part_index 1))
	(Note (index 29)(default_x 173.04)(default_y -25.00)(dynamics 141.11)(pitch_index 28)(duration 1)(voice 1)(type quarter)(stem up)(part_index 1))
	(Note (index 30)(default_x 29.66)(default_y -30.00)(dynamics 141.11)(pitch_index 29)(duration 2)(voice 1)(type half)(stem up)(part_index 1))
	(Note (index 31)(default_x 87.87)(default_y -35.00)(dynamics 141.11)(pitch_index 30)(duration 2)(voice 1)(type half)(accidental sharp)(stem up)(part_index 1))
	(Note (index 32)(default_x 24.26)(default_y -20.00)(dynamics 141.11)(pitch_index 31)(duration 2)(voice 1)(type half)(stem down)(part_index 1))
	(Note (index 33)(default_x 74.70)(default_y -25.00)(dynamics 141.11)(pitch_index 32)(duration 2)(voice 1)(type half)(stem up)(part_index 1))
	(Note (index 34)(default_x 23.46)(default_y -30.00)(dynamics 141.11)(pitch_index 33)(duration 2)(voice 1)(type half)(stem up)(part_index 1))
	(Note (index 35)(default_x 79.37)(default_y -35.00)(dynamics 141.11)(pitch_index 34)(duration 2)(voice 1)(type half)(accidental sharp)(stem up)(part_index 1))
	(Note (index 36)(default_x 20.70)(default_y -30.00)(dynamics 141.11)(pitch_index 35)(duration 4)(voice 1)(type whole)(part_index 1))
	(Note (index 37)(default_x 21.30)(default_y -30.00)(dynamics 141.11)(pitch_index 36)(duration 4)(voice 1)(type whole)(part_index 1))
	(Note (index 38)(default_x 110.13)(default_y -156.45)(dynamics 141.11)(pitch_index 37)(duration 2)(voice 1)(type half)(stem up)(lyric_index 12215)(part_index 2))
	(Note (index 39)(default_x 266.55)(default_y -156.45)(dynamics 141.11)(pitch_index 38)(duration 2)(voice 1)(type half)(stem up)(lyric_index 12216)(part_index 2))
	(Note (index 40)(default_x 18.78)(default_y -171.45)(dynamics 141.11)(pitch_index 39)(duration 2)(voice 1)(type half)(stem up)(lyric_index 12217)(part_index 2))
	(Note (index 41)(default_x 76.69)(default_y -171.45)(dynamics 141.11)(pitch_index 40)(duration 2)(voice 1)(type half)(stem up)(lyric_index 12218)(part_index 2))
	(Note (index 42)(default_x 23.26)(default_y -171.45)(dynamics 141.11)(pitch_index 41)(duration 3)(voice 1)(type half)(stem up)(lyric_index 12219)(part_index 2))
	(Note (index 43)(default_x 92.58)(default_y -166.45)(dynamics 141.11)(pitch_index 42)(duration 1)(voice 1)(type quarter)(accidental natural)(stem up)(part_index 2))
	(Note (index 44)(default_x 41.94)(default_y -161.45)(dynamics 141.11)(pitch_index 43)(duration 4)(voice 1)(type whole)(lyric_index 12220)(part_index 2))
	(Note (index 45)(default_x 24.46)(default_y -156.45)(dynamics 141.11)(pitch_index 44)(duration 2)(voice 1)(type half)(stem up)(lyric_index 12221)(part_index 2))
	(Note (index 46)(default_x 80.57)(default_y -156.45)(dynamics 141.11)(pitch_index 45)(duration 2)(voice 1)(type half)(stem up)(lyric_index 12222)(part_index 2))
	(Note (index 47)(default_x 103.69)(default_y -150.00)(dynamics 141.11)(pitch_index 46)(duration 2)(voice 1)(type half)(stem up)(lyric_index 12223)(part_index 2))
	(Note (index 48)(default_x 151.92)(default_y -150.00)(dynamics 141.11)(pitch_index 47)(duration 2)(voice 1)(type half)(stem up)(lyric_index 12224)(part_index 2))
	(Note (index 49)(default_x 39.42)(default_y -150.00)(dynamics 141.11)(pitch_index 48)(duration 3)(voice 1)(type half)(stem up)(lyric_index 12225)(part_index 2))
	(Note (index 50)(default_x 103.94)(default_y -145.00)(dynamics 141.11)(pitch_index 49)(duration 1)(voice 1)(type quarter)(accidental natural)(stem up)(part_index 2))
	(Note (index 51)(default_x 26.50)(default_y -140.00)(dynamics 141.11)(pitch_index 50)(duration 4)(voice 1)(type whole)(lyric_index 12226)(part_index 2))
	(Note (index 52)(default_x 26.46)(default_y -150.00)(dynamics 141.11)(pitch_index 51)(duration 2)(voice 1)(type half)(stem up)(lyric_index 12227)(part_index 2))
	(Note (index 53)(default_x 73.37)(default_y -145.00)(dynamics 141.11)(pitch_index 52)(duration 2)(voice 1)(type half)(stem up)(lyric_index 12228)(part_index 2))
	(Note (index 54)(default_x 24.86)(default_y -150.00)(dynamics 141.11)(pitch_index 53)(duration 2)(voice 1)(type half)(stem up)(lyric_index 12229)(part_index 2))
	(Note (index 55)(default_x 78.01)(default_y -150.00)(dynamics 141.11)(pitch_index 54)(duration 2)(voice 1)(type half)(stem up)(lyric_index 12230)(part_index 2))
	(Note (index 56)(default_x 20.50)(default_y -150.00)(dynamics 141.11)(pitch_index 55)(duration 4)(voice 1)(type whole)(lyric_index 12231)(part_index 2))
	(Note (index 57)(duration 4)(voice 1)(part_index 2))
	(Note (index 58)(default_x 28.90)(default_y -150.00)(dynamics 141.11)(pitch_index 56)(duration 4)(tie_index 0)(voice 1)(type whole)(notations_index 0)(lyric_index 12232)(part_index 2))
	(Note (index 59)(default_x 90.84)(default_y -150.00)(dynamics 141.11)(pitch_index 57)(duration 1)(tie_index 1)(voice 1)(type quarter)(stem up)(notations_index 1)(part_index 2))
	(Note (index 60)(default_x 116.98)(default_y -155.00)(dynamics 141.11)(pitch_index 58)(duration 1)(voice 1)(type quarter)(stem up)(part_index 2))
	(Note (index 61)(default_x 143.13)(default_y -150.00)(dynamics 141.11)(pitch_index 59)(duration 1)(voice 1)(type quarter)(stem up)(lyric_index 12233)(part_index 2))
	(Note (index 62)(default_x 169.27)(default_y -145.00)(dynamics 141.11)(pitch_index 60)(duration 1)(voice 1)(type quarter)(stem up)(part_index 2))
	(Note (index 63)(default_x 30.06)(default_y -150.00)(dynamics 141.11)(pitch_index 61)(duration 2)(voice 1)(type half)(stem up)(lyric_index 12234)(part_index 2))
	(Note (index 64)(default_x 125.14)(default_y -150.00)(dynamics 141.11)(pitch_index 62)(duration 2)(voice 1)(type half)(stem up)(lyric_index 12235)(part_index 2))
	(Note (index 65)(default_x 30.02)(default_y -150.00)(dynamics 141.11)(pitch_index 63)(duration 1)(voice 1)(type quarter)(stem up)(lyric_index 12236)(part_index 2))
	(Note (index 66)(default_x 59.12)(default_y -155.00)(dynamics 141.11)(pitch_index 64)(duration 1)(voice 1)(type quarter)(stem up)(part_index 2))
	(Note (index 67)(default_x 88.23)(default_y -150.00)(dynamics 141.11)(pitch_index 65)(duration 1)(voice 1)(type quarter)(stem up)(lyric_index 12237)(part_index 2))
	(Note (index 68)(default_x 117.34)(default_y -145.00)(dynamics 141.11)(pitch_index 66)(duration 1)(voice 1)(type quarter)(stem up)(part_index 2))
	(Note (index 69)(default_x 24.26)(default_y -140.00)(dynamics 141.11)(pitch_index 67)(duration 2)(voice 1)(type half)(stem up)(lyric_index 12238)(part_index 2))
	(Note (index 70)(default_x 74.70)(default_y -145.00)(dynamics 141.11)(pitch_index 68)(duration 2)(voice 1)(type half)(stem up)(lyric_index 12239)(part_index 2))
	(Note (index 71)(default_x 23.82)(default_y -160.00)(dynamics 141.11)(pitch_index 69)(duration 1)(voice 1)(type quarter)(stem up)(lyric_index 12240)(part_index 2))
	(Note (index 72)(default_x 51.77)(default_y -155.00)(dynamics 141.11)(pitch_index 70)(duration 1)(voice 1)(type quarter)(stem up)(part_index 2))
	(Note (index 73)(default_x 79.37)(default_y -150.00)(dynamics 141.11)(pitch_index 71)(duration 2)(voice 1)(type half)(stem up)(part_index 2))
	(Note (index 74)(default_x 23.66)(default_y -150.00)(dynamics 141.11)(pitch_index 72)(duration 2)(voice 1)(type half)(stem up)(lyric_index 12241)(part_index 2))
	(Note (index 75)(default_x 55.74)(default_y -145.00)(dynamics 141.11)(pitch_index 73)(duration 2)(voice 1)(type half)(stem up)(part_index 2))
	(Note (index 76)(default_x 21.30)(default_y -150.00)(dynamics 141.11)(pitch_index 74)(duration 4)(voice 1)(type whole)(lyric_index 12242)(part_index 2))
	(Note (index 77)(default_x 110.13)(default_y -252.95)(dynamics 141.11)(pitch_index 75)(duration 2)(voice 1)(type half)(stem down)(staff 1)(lyric 12243 12244)(part_index 3))
	(Note (index 78)(default_x 266.55)(default_y -232.95)(dynamics 141.11)(pitch_index 76)(duration 2)(voice 1)(type half)(stem down)(staff 1)(lyric 12245 12246)(part_index 3))
	(Note (index 79)(duration 2)(voice 5)(type half)(staff 2)(part_index 3))
	(Note (index 80)(default_x 266.55)(default_y -374.20)(dynamics 141.11)(pitch_index 77)(duration 2)(voice 5)(type half)(stem down)(staff 2)(part_index 3))
	(Note (index 81)(default_x 18.78)(default_y -232.95)(dynamics 141.11)(pitch_index 78)(duration 2)(voice 1)(type half)(stem down)(staff 1)(lyric 12247 12248)(part_index 3))
	(Note (index 82)(default_x 76.69)(default_y -242.95)(dynamics 141.11)(pitch_index 79)(duration 2)(voice 1)(type half)(stem down)(staff 1)(lyric 12249 12250)(part_index 3))
	(Note (index 83)(default_x 18.78)(default_y -379.20)(dynamics 141.11)(pitch_index 80)(duration 2)(voice 5)(type half)(accidental sharp)(stem down)(staff 2)(part_index 3))
	(Note (index 84)(default_x 76.69)(default_y -374.20)(dynamics 141.11)(pitch_index 81)(duration 2)(voice 5)(type half)(stem down)(staff 2)(part_index 3))
	(Note (index 85)(default_x 23.26)(default_y -247.95)(dynamics 141.11)(pitch_index 82)(duration 2)(voice 1)(type half)(stem down)(staff 1)(lyric 12251 12252)(part_index 3))
	(Note (index 86)(default_x 65.69)(default_y -242.95)(dynamics 141.11)(pitch_index 83)(duration 2)(voice 1)(type half)(stem down)(staff 1)(lyric_index 12253)(part_index 3))
	(Note (index 87)(default_x 23.26)(default_y -389.20)(dynamics 141.11)(pitch_index 84)(duration 2)(voice 5)(type half)(stem down)(staff 2)(part_index 3))
	(Note (index 88)(default_x 65.69)(default_y -374.20)(dynamics 141.11)(pitch_index 85)(duration 2)(voice 5)(type half)(stem down)(staff 2)(part_index 3))
	(Note (index 89)(default_x 41.94)(default_y -297.95)(dynamics 141.11)(pitch_index 86)(duration 4)(voice 1)(type whole)(staff 1)(lyric 12254 12255)(part_index 3))
	(Note (index 90)(default_x 41.94)(default_y -379.20)(dynamics 141.11)(pitch_index 87)(duration 4)(voice 5)(type whole)(staff 2)(part_index 3))
	(Note (index 91)(default_x 24.46)(default_y -312.95)(dynamics 141.11)(pitch_index 88)(duration 2)(voice 1)(type half)(stem up)(staff 1)(lyric 12256 12257)(part_index 3))
	(Note (index 92)(default_x 80.57)(default_y -292.95)(dynamics 141.11)(pitch_index 89)(duration 2)(voice 1)(type half)(stem up)(staff 1)(lyric 12258 12259)(part_index 3))
	(Note (index 93)(duration 2)(voice 5)(type half)(staff 2)(part_index 3))
	(Note (index 94)(default_x 80.57)(default_y -374.20)(dynamics 141.11)(pitch_index 90)(duration 2)(voice 5)(type half)(stem down)(staff 2)(part_index 3))
	(Note (index 95)(default_x 103.69)(default_y -279.67)(dynamics 141.11)(pitch_index 91)(duration 2)(voice 1)(type half)(stem up)(staff 1)(lyric 12260 12261)(part_index 3))
	(Note (index 96)(default_x 151.92)(default_y -289.67)(dynamics 141.11)(pitch_index 92)(duration 2)(voice 1)(type half)(stem up)(staff 1)(lyric 12262 12263)(part_index 3))
	(Note (index 97)(default_x 103.69)(default_y -363.87)(dynamics 141.11)(pitch_index 93)(duration 2)(voice 5)(type half)(accidental sharp)(stem down)(staff 2)(part_index 3))
	(Note (index 98)(default_x 151.92)(default_y -358.87)(dynamics 141.11)(pitch_index 94)(duration 2)(voice 5)(type half)(stem down)(staff 2)(part_index 3))
	(Note (index 99)(default_x 39.42)(default_y -234.67)(dynamics 141.11)(pitch_index 95)(duration 2)(voice 1)(type half)(stem down)(staff 1)(lyric 12264 12265)(part_index 3))
	(Note (index 100)(default_x 78.90)(default_y -229.67)(dynamics 141.11)(pitch_index 96)(duration 2)(voice 1)(type half)(stem down)(staff 1)(lyric_index 12266)(part_index 3))
	(Note (index 101)(default_x 39.42)(default_y -373.87)(dynamics 141.11)(pitch_index 97)(duration 2)(voice 5)(type half)(stem down)(staff 2)(part_index 3))
	(Note (index 102)(default_x 78.90)(default_y -358.87)(dynamics 141.11)(pitch_index 98)(duration 2)(voice 5)(type half)(stem down)(staff 2)(part_index 3))
	(Note (index 103)(default_x 26.50)(default_y -224.67)(dynamics 141.11)(pitch_index 99)(duration 4)(voice 1)(type whole)(staff 1)(lyric 12267 12268)(part_index 3))
	(Note (index 104)(default_x 26.50)(default_y -363.87)(dynamics 141.11)(pitch_index 100)(duration 4)(voice 5)(type whole)(staff 2)(part_index 3))
	(Note (index 105)(default_x 26.46)(default_y -229.67)(dynamics 141.11)(pitch_index 101)(duration 2)(voice 1)(type half)(stem down)(staff 1)(lyric 12269 12270)(part_index 3))
	(Note (index 106)(default_x 73.37)(default_y -224.67)(dynamics 141.11)(pitch_index 102)(duration 2)(voice 1)(type half)(stem down)(staff 1)(lyric 12271 12272)(part_index 3))
	(Note (index 107)(default_x 26.46)(default_y -358.87)(dynamics 141.11)(pitch_index 103)(duration 2)(voice 5)(type half)(stem down)(staff 2)(part_index 3))
	(Note (index 108)(default_x 73.37)(default_y -378.87)(dynamics 141.11)(pitch_index 104)(duration 2)(voice 5)(type half)(stem up)(staff 2)(part_index 3))
	(Note (index 109)(default_x 24.86)(default_y -229.67)(dynamics 141.11)(pitch_index 105)(duration 2)(voice 1)(type half)(stem down)(staff 1)(lyric 12273 12274)(part_index 3))
	(Note (index 110)(default_x 78.01)(default_y -234.67)(dynamics 141.11)(pitch_index 106)(duration 2)(voice 1)(type half)(stem down)(staff 1)(lyric 12275 12276)(part_index 3))
	(Note (index 111)(default_x 24.86)(default_y -373.87)(dynamics 141.11)(pitch_index 107)(duration 2)(voice 5)(type half)(stem down)(staff 2)(part_index 3))
	(Note (index 112)(default_x 78.01)(default_y -373.87)(dynamics 141.11)(pitch_index 108)(duration 2)(voice 5)(type half)(stem down)(staff 2)(part_index 3))
	(Note (index 113)(default_x 20.50)(default_y -229.67)(dynamics 141.11)(pitch_index 109)(duration 4)(voice 1)(type whole)(staff 1)(lyric 12277 12278)(part_index 3))
	(Note (index 114)(default_x 20.50)(default_y -358.87)(dynamics 141.11)(pitch_index 110)(duration 4)(voice 5)(type whole)(staff 2)(part_index 3))
	(Note (index 115)(duration 4)(voice 1)(staff 1)(part_index 3))
	(Note (index 116)(duration 4)(voice 5)(staff 2)(part_index 3))
	(Note (index 117)(default_x 32.22)(default_y -229.67)(dynamics 141.11)(pitch_index 111)(duration 1)(voice 1)(type quarter)(stem down)(staff 1)(lyric 12279 12280)(part_index 3))
	(Note (index 118)(default_x 75.65)(default_y -234.67)(dynamics 141.11)(pitch_index 112)(duration 1)(voice 1)(type quarter)(stem down)(staff 1)(lyric_index 12281)(part_index 3))
	(Note (index 119)(default_x 119.09)(default_y -229.67)(dynamics 141.11)(pitch_index 113)(duration 1)(voice 1)(type quarter)(stem down)(staff 1)(lyric_index 12282)(part_index 3))
	(Note (index 120)(default_x 162.53)(default_y -224.67)(dynamics 141.11)(pitch_index 114)(duration 1)(voice 1)(type quarter)(stem down)(staff 1)(lyric_index 12283)(part_index 3))
	(Note (index 121)(default_x 32.22)(default_y -358.87)(dynamics 141.11)(pitch_index 115)(duration 1)(voice 5)(type quarter)(stem down)(staff 2)(part_index 3))
	(Note (index 122)(default_x 75.65)(default_y -373.87)(dynamics 141.11)(pitch_index 116)(duration 1)(voice 5)(type quarter)(stem down)(staff 2)(part_index 3))
	(Note (index 123)(default_x 119.09)(default_y -358.87)(dynamics 141.11)(pitch_index 117)(duration 1)(voice 5)(type quarter)(stem down)(staff 2)(part_index 3))
	(Note (index 124)(default_x 162.53)(default_y -363.87)(dynamics 141.11)(pitch_index 118)(duration 1)(voice 5)(type quarter)(accidental sharp)(stem down)(staff 2)(part_index 3))
	(Note (index 125)(default_x 90.47)(default_y -231.65)(dynamics 141.11)(pitch_index 119)(duration 2)(voice 1)(type half)(stem down)(staff 1)(lyric_index 12284)(part_index 3))
	(Note (index 126)(default_x 142.77)(default_y -236.65)(dynamics 141.11)(pitch_index 120)(duration 2)(voice 1)(type half)(stem down)(staff 1)(lyric 12285 12286)(part_index 3))
	(Note (index 127)(default_x 90.47)(default_y -346.65)(dynamics 141.11)(pitch_index 121)(duration 2)(voice 5)(type half)(stem down)(staff 2)(part_index 3))
	(Note (index 128)(default_x 142.77)(default_y -361.65)(dynamics 141.11)(pitch_index 122)(duration 2)(voice 5)(type half)(stem down)(staff 2)(part_index 3))
	(Note (index 129)(default_x 30.42)(default_y -231.65)(dynamics 141.11)(pitch_index 123)(duration 1)(voice 1)(type quarter)(stem down)(staff 1)(lyric 12287 12288)(part_index 3))
	(Note (index 130)(default_x 77.96)(default_y -236.65)(dynamics 141.11)(pitch_index 124)(duration 1)(voice 1)(type quarter)(stem down)(staff 1)(lyric_index 12289)(part_index 3))
	(Note (index 131)(default_x 125.50)(default_y -231.65)(dynamics 141.11)(pitch_index 125)(duration 1)(voice 1)(type quarter)(stem down)(staff 1)(lyric 12290 12291)(part_index 3))
	(Note (index 132)(default_x 173.04)(default_y -226.65)(dynamics 141.11)(pitch_index 126)(duration 1)(voice 1)(type quarter)(stem down)(staff 1)(lyric_index 12292)(part_index 3))
	(Note (index 133)(default_x 30.42)(default_y -346.65)(dynamics 141.11)(pitch_index 127)(duration 1)(voice 5)(type quarter)(stem down)(staff 2)(part_index 3))
	(Note (index 134)(default_x 77.96)(default_y -361.65)(dynamics 141.11)(pitch_index 128)(duration 1)(voice 5)(type quarter)(stem down)(staff 2)(part_index 3))
	(Note (index 135)(default_x 125.50)(default_y -346.65)(dynamics 141.11)(pitch_index 129)(duration 1)(voice 5)(type quarter)(stem down)(staff 2)(part_index 3))
	(Note (index 136)(default_x 173.04)(default_y -351.65)(dynamics 141.11)(pitch_index 130)(duration 1)(voice 5)(type quarter)(accidental sharp)(stem down)(staff 2)(part_index 3))
	(Note (index 137)(default_x 29.66)(default_y -231.65)(dynamics 141.11)(pitch_index 131)(duration 2)(voice 1)(type half)(stem down)(staff 1)(lyric 12293 12294)(part_index 3))
	(Note (index 138)(default_x 87.87)(default_y -236.65)(dynamics 141.11)(pitch_index 132)(duration 2)(voice 1)(type half)(stem down)(staff 1)(lyric 12295 12296)(part_index 3))
	(Note (index 139)(default_x 29.66)(default_y -346.65)(dynamics 141.11)(pitch_index 133)(duration 2)(voice 5)(type half)(stem down)(staff 2)(part_index 3))
	(Note (index 140)(default_x 87.87)(default_y -361.65)(dynamics 141.11)(pitch_index 134)(duration 2)(voice 5)(type half)(stem down)(staff 2)(part_index 3))
	(Note (index 141)(default_x 24.26)(default_y -221.65)(dynamics 141.11)(pitch_index 135)(duration 2)(voice 1)(type half)(stem down)(staff 1)(lyric 12297 12298)(part_index 3))
	(Note (index 142)(default_x 74.70)(default_y -226.65)(dynamics 141.11)(pitch_index 136)(duration 2)(voice 1)(type half)(stem down)(staff 1)(lyric 12299 12300)(part_index 3))
	(Note (index 143)(default_x 24.26)(default_y -371.65)(dynamics 141.11)(pitch_index 137)(duration 2)(voice 5)(type half)(stem up)(staff 2)(part_index 3))
	(Note (index 144)(default_x 74.70)(default_y -366.65)(dynamics 141.11)(pitch_index 138)(duration 2)(voice 5)(type half)(stem up)(staff 2)(part_index 3))
	(Note (index 145)(default_x 23.46)(default_y -241.65)(dynamics 141.11)(pitch_index 139)(duration 2)(voice 1)(type half)(stem down)(staff 1)(lyric 12301 12302)(part_index 3))
	(Note (index 146)(default_x 79.37)(default_y -236.65)(dynamics 141.11)(pitch_index 140)(duration 2)(voice 1)(type half)(stem down)(staff 1)(lyric 12303 12304)(part_index 3))
	(Note (index 147)(default_x 23.46)(default_y -356.65)(dynamics 141.11)(pitch_index 141)(duration 2)(voice 5)(type half)(stem down)(staff 2)(part_index 3))
	(Note (index 148)(default_x 79.37)(default_y -361.65)(dynamics 141.11)(pitch_index 142)(duration 2)(voice 5)(type half)(stem down)(staff 2)(part_index 3))
	(Note (index 149)(default_x 23.66)(default_y -231.65)(dynamics 141.11)(pitch_index 143)(duration 2)(voice 1)(type half)(stem down)(staff 1)(lyric 12305 12306)(part_index 3))
	(Note (index 150)(default_x 55.74)(default_y -226.65)(dynamics 141.11)(pitch_index 144)(duration 2)(voice 1)(type half)(stem down)(staff 1)(part_index 3))
	(Note (index 151)(default_x 20.70)(default_y -346.65)(dynamics 141.11)(pitch_index 145)(duration 4)(voice 5)(type whole)(staff 2)(part_index 3))
	(Note (index 152)(default_x 21.30)(default_y -231.65)(dynamics 141.11)(pitch_index 146)(duration 4)(voice 1)(type whole)(staff 1)(lyric 12307 12308)(part_index 3))
	(Note (index 153)(default_x 21.30)(default_y -346.65)(dynamics 141.11)(pitch_index 147)(duration 4)(voice 5)(type whole)(staff 2)(part_index 3))
)

(deffacts pitchs
	(Pitch (index 0)(step G)(octave 4)(part_index 1))
	(Pitch (index 1)(step B)(alter -1)(octave 4)(part_index 1))
	(Pitch (index 2)(step A)(octave 4)(part_index 1))
	(Pitch (index 3)(step G)(octave 4)(part_index 1))
	(Pitch (index 4)(step F)(alter 1)(octave 4)(part_index 1))
	(Pitch (index 5)(step G)(octave 4)(part_index 1))
	(Pitch (index 6)(step A)(octave 4)(part_index 1))
	(Pitch (index 7)(step G)(octave 4)(part_index 1))
	(Pitch (index 8)(step B)(alter -1)(octave 4)(part_index 1))
	(Pitch (index 9)(step A)(octave 4)(part_index 1))
	(Pitch (index 10)(step G)(octave 4)(part_index 1))
	(Pitch (index 11)(step F)(alter 1)(octave 4)(part_index 1))
	(Pitch (index 12)(step G)(octave 4)(part_index 1))
	(Pitch (index 13)(step A)(octave 4)(part_index 1))
	(Pitch (index 14)(step G)(octave 4)(part_index 1))
	(Pitch (index 15)(step A)(octave 4)(part_index 1))
	(Pitch (index 16)(step G)(octave 4)(part_index 1))
	(Pitch (index 17)(step F)(alter 1)(octave 4)(part_index 1))
	(Pitch (index 18)(step G)(octave 4)(part_index 1))
	(Pitch (index 19)(step G)(octave 4)(part_index 1))
	(Pitch (index 20)(step F)(alter 1)(octave 4)(part_index 1))
	(Pitch (index 21)(step G)(octave 4)(part_index 1))
	(Pitch (index 22)(step A)(octave 4)(part_index 1))
	(Pitch (index 23)(step G)(octave 4)(part_index 1))
	(Pitch (index 24)(step F)(alter 1)(octave 4)(part_index 1))
	(Pitch (index 25)(step G)(octave 4)(part_index 1))
	(Pitch (index 26)(step F)(alter 1)(octave 4)(part_index 1))
	(Pitch (index 27)(step G)(octave 4)(part_index 1))
	(Pitch (index 28)(step A)(octave 4)(part_index 1))
	(Pitch (index 29)(step G)(octave 4)(part_index 1))
	(Pitch (index 30)(step F)(alter 1)(octave 4)(part_index 1))
	(Pitch (index 31)(step B)(alter -1)(octave 4)(part_index 1))
	(Pitch (index 32)(step A)(octave 4)(part_index 1))
	(Pitch (index 33)(step G)(octave 4)(part_index 1))
	(Pitch (index 34)(step F)(alter 1)(octave 4)(part_index 1))
	(Pitch (index 35)(step G)(octave 4)(part_index 1))
	(Pitch (index 36)(step G)(octave 4)(part_index 1))
	(Pitch (index 37)(step G)(octave 4)(part_index 2))
	(Pitch (index 38)(step G)(octave 4)(part_index 2))
	(Pitch (index 39)(step D)(octave 4)(part_index 2))
	(Pitch (index 40)(step D)(octave 4)(part_index 2))
	(Pitch (index 41)(step D)(octave 4)(part_index 2))
	(Pitch (index 42)(step E)(octave 4)(part_index 2))
	(Pitch (index 43)(step F)(octave 4)(part_index 2))
	(Pitch (index 44)(step G)(octave 4)(part_index 2))
	(Pitch (index 45)(step G)(octave 4)(part_index 2))
	(Pitch (index 46)(step D)(octave 4)(part_index 2))
	(Pitch (index 47)(step D)(octave 4)(part_index 2))
	(Pitch (index 48)(step D)(octave 4)(part_index 2))
	(Pitch (index 49)(step E)(octave 4)(part_index 2))
	(Pitch (index 50)(step F)(octave 4)(part_index 2))
	(Pitch (index 51)(step D)(octave 4)(part_index 2))
	(Pitch (index 52)(step E)(alter -1)(octave 4)(part_index 2))
	(Pitch (index 53)(step D)(octave 4)(part_index 2))
	(Pitch (index 54)(step D)(octave 4)(part_index 2))
	(Pitch (index 55)(step D)(octave 4)(part_index 2))
	(Pitch (index 56)(step D)(octave 4)(part_index 2))
	(Pitch (index 57)(step D)(octave 4)(part_index 2))
	(Pitch (index 58)(step C)(octave 4)(part_index 2))
	(Pitch (index 59)(step D)(octave 4)(part_index 2))
	(Pitch (index 60)(step E)(alter -1)(octave 4)(part_index 2))
	(Pitch (index 61)(step D)(octave 4)(part_index 2))
	(Pitch (index 62)(step D)(octave 4)(part_index 2))
	(Pitch (index 63)(step D)(octave 4)(part_index 2))
	(Pitch (index 64)(step C)(octave 4)(part_index 2))
	(Pitch (index 65)(step D)(octave 4)(part_index 2))
	(Pitch (index 66)(step E)(alter -1)(octave 4)(part_index 2))
	(Pitch (index 67)(step F)(octave 4)(part_index 2))
	(Pitch (index 68)(step E)(alter -1)(octave 4)(part_index 2))
	(Pitch (index 69)(step B)(alter -1)(octave 3)(part_index 2))
	(Pitch (index 70)(step C)(octave 4)(part_index 2))
	(Pitch (index 71)(step D)(octave 4)(part_index 2))
	(Pitch (index 72)(step D)(octave 4)(part_index 2))
	(Pitch (index 73)(step E)(alter -1)(octave 4)(part_index 2))
	(Pitch (index 74)(step D)(octave 4)(part_index 2))
	(Pitch (index 75)(step G)(octave 3)(part_index 3))
	(Pitch (index 76)(step D)(octave 4)(part_index 3))
	(Pitch (index 77)(step G)(octave 3)(part_index 3))
	(Pitch (index 78)(step D)(octave 4)(part_index 3))
	(Pitch (index 79)(step B)(alter -1)(octave 3)(part_index 3))
	(Pitch (index 80)(step F)(alter 1)(octave 3)(part_index 3))
	(Pitch (index 81)(step G)(octave 3)(part_index 3))
	(Pitch (index 82)(step A)(octave 3)(part_index 3))
	(Pitch (index 83)(step B)(alter -1)(octave 3)(part_index 3))
	(Pitch (index 84)(step D)(octave 3)(part_index 3))
	(Pitch (index 85)(step G)(octave 3)(part_index 3))
	(Pitch (index 86)(step C)(octave 4)(part_index 3))
	(Pitch (index 87)(step F)(octave 3)(part_index 3))
	(Pitch (index 88)(step G)(octave 3)(part_index 3))
	(Pitch (index 89)(step D)(octave 4)(part_index 3))
	(Pitch (index 90)(step G)(octave 3)(part_index 3))
	(Pitch (index 91)(step D)(octave 4)(part_index 3))
	(Pitch (index 92)(step B)(alter -1)(octave 3)(part_index 3))
	(Pitch (index 93)(step F)(alter 1)(octave 3)(part_index 3))
	(Pitch (index 94)(step G)(octave 3)(part_index 3))
	(Pitch (index 95)(step A)(octave 3)(part_index 3))
	(Pitch (index 96)(step B)(alter -1)(octave 3)(part_index 3))
	(Pitch (index 97)(step D)(octave 3)(part_index 3))
	(Pitch (index 98)(step G)(octave 3)(part_index 3))
	(Pitch (index 99)(step C)(octave 4)(part_index 3))
	(Pitch (index 100)(step F)(octave 3)(part_index 3))
	(Pitch (index 101)(step B)(alter -1)(octave 3)(part_index 3))
	(Pitch (index 102)(step C)(octave 4)(part_index 3))
	(Pitch (index 103)(step G)(octave 3)(part_index 3))
	(Pitch (index 104)(step C)(octave 3)(part_index 3))
	(Pitch (index 105)(step B)(alter -1)(octave 3)(part_index 3))
	(Pitch (index 106)(step A)(octave 3)(part_index 3))
	(Pitch (index 107)(step D)(octave 3)(part_index 3))
	(Pitch (index 108)(step D)(octave 3)(part_index 3))
	(Pitch (index 109)(step B)(alter -1)(octave 3)(part_index 3))
	(Pitch (index 110)(step G)(octave 3)(part_index 3))
	(Pitch (index 111)(step B)(alter -1)(octave 3)(part_index 3))
	(Pitch (index 112)(step A)(octave 3)(part_index 3))
	(Pitch (index 113)(step B)(alter -1)(octave 3)(part_index 3))
	(Pitch (index 114)(step C)(octave 4)(part_index 3))
	(Pitch (index 115)(step G)(octave 3)(part_index 3))
	(Pitch (index 116)(step D)(octave 3)(part_index 3))
	(Pitch (index 117)(step G)(octave 3)(part_index 3))
	(Pitch (index 118)(step F)(alter 1)(octave 3)(part_index 3))
	(Pitch (index 119)(step B)(alter -1)(octave 3)(part_index 3))
	(Pitch (index 120)(step A)(octave 3)(part_index 3))
	(Pitch (index 121)(step G)(octave 3)(part_index 3))
	(Pitch (index 122)(step D)(octave 3)(part_index 3))
	(Pitch (index 123)(step B)(alter -1)(octave 3)(part_index 3))
	(Pitch (index 124)(step A)(octave 3)(part_index 3))
	(Pitch (index 125)(step B)(alter -1)(octave 3)(part_index 3))
	(Pitch (index 126)(step C)(octave 4)(part_index 3))
	(Pitch (index 127)(step G)(octave 3)(part_index 3))
	(Pitch (index 128)(step D)(octave 3)(part_index 3))
	(Pitch (index 129)(step G)(octave 3)(part_index 3))
	(Pitch (index 130)(step F)(alter 1)(octave 3)(part_index 3))
	(Pitch (index 131)(step B)(alter -1)(octave 3)(part_index 3))
	(Pitch (index 132)(step A)(octave 3)(part_index 3))
	(Pitch (index 133)(step G)(octave 3)(part_index 3))
	(Pitch (index 134)(step D)(octave 3)(part_index 3))
	(Pitch (index 135)(step D)(octave 4)(part_index 3))
	(Pitch (index 136)(step C)(octave 4)(part_index 3))
	(Pitch (index 137)(step B)(alter -1)(octave 2)(part_index 3))
	(Pitch (index 138)(step C)(octave 3)(part_index 3))
	(Pitch (index 139)(step G)(octave 3)(part_index 3))
	(Pitch (index 140)(step A)(octave 3)(part_index 3))
	(Pitch (index 141)(step E)(alter -1)(octave 3)(part_index 3))
	(Pitch (index 142)(step D)(octave 3)(part_index 3))
	(Pitch (index 143)(step B)(alter -1)(octave 3)(part_index 3))
	(Pitch (index 144)(step C)(octave 4)(part_index 3))
	(Pitch (index 145)(step G)(octave 3)(part_index 3))
	(Pitch (index 146)(step B)(alter -1)(octave 3)(part_index 3))
	(Pitch (index 147)(step G)(octave 3)(part_index 3))
)

(deffacts beams
)

(deffacts keys
	(Key (index 0)(fifths -2)(part_index 1))
	(Key (index 1)(fifths -2)(part_index 2))
	(Key (index 2)(fifths -2)(part_index 3))
)

(deffacts times
	(Time (index 0)(beats 2)(beat_type 2)(part_index 1))
	(Time (index 1)(beats 2)(beat_type 2)(part_index 2))
	(Time (index 2)(beats 2)(beat_type 2)(part_index 3))
)

(deffacts transposes
)

(deffacts directions
	(Direction (index 0)(placement above)(direction_type_index 0)(sound_index 0)(part_index 1))
)

(deffacts direction_types
	(Direction_Type (index 0)(metronome_index 0)(part_index 1))
)

(deffacts metronomes
	(Metronome (index 0)(parentheses no)(default_x -35.03)(relative_y 20.00)(beat_unit quarter)(per_minute 240)(part_index 1))
)

(deffacts sounds
	(Sound (index 0)(tempo 240)(part_index 1))
)

(deffacts clefs
	(Clef (index 0)(sign G)(line 2)(part_index 1))
	(Clef (index 1)(sign G)(line 2)(part_index 2))
	(Clef (index 2)(number 1)(sign F)(line 4)(part_index 3))
	(Clef (index 3)(number 2)(sign F)(line 4)(part_index 3))
	(Clef (index 4)(number 1)(sign G)(line 2)(part_index 3))
	(Clef (index 5)(number 1)(sign F)(line 4)(part_index 3))
)

(deffacts barlines
	(Barline (index 0)(location right)(bar_style light-heavy)(part_index 1))
	(Barline (index 1)(location right)(bar_style light-heavy)(part_index 2))
	(Barline (index 2)(location right)(bar_style light-heavy)(part_index 3))
)

(deffacts ties
	(Tie (index 0)(type start)(part_index 2))
	(Tie (index 1)(type stop)(part_index 2))
)

(deffacts instruments
)

(deffacts prints
)

(deffacts notationss
	(Notations (index 0)(tied_index 0)(part_index 2))
	(Notations (index 1)(tied_index 1)(part_index 2))
)

(deffacts backups
)

(deffacts unpitcheds
	(Unpitched (index 0)(part_index -1)(display_step A))
)

(deffacts articulationss
)

(deffacts repeats
)

(deffacts staff_layouts
)

(deffacts tieds
	(Tied (index 0)(type start)(part_index 2))
	(Tied (index 1)(type stop)(part_index 2))
)

(deffacts system_layouts
)

(deffacts system_marginss
)

