(deftemplate Part
	(slot id)
	(slot index)
	(slot part_index)
	(multislot measure)
)

(deftemplate Attributes
	(slot divisions)
	(slot clef_index)
	(slot index)
	(slot part_index)
	(slot time_index)
	(slot key_index)
)

(deftemplate Measure
	(slot barline_index)
	(slot width)
	(slot direction_index)
	(slot index)
	(slot number)
	(slot part_index)
	(slot attributes_index)
	(multislot note)
)

(deftemplate Note
	(slot dynamics)
	(slot index)
	(slot default_y)
	(slot duration)
	(slot lyric_index)
	(slot stem)
	(slot type)
	(slot part_index)
	(slot beam_index)
	(slot pitch_index)
	(slot default_x)
	(slot voice)
	(multislot beam)
)

(deftemplate Pitch
	(slot step)
	(slot octave)
	(slot index)
	(slot part_index)
)

(deftemplate Beam
	(slot number)
	(slot index)
	(slot data)
	(slot part_index)
)

(deftemplate Key
	(slot fifths)
	(slot index)
	(slot part_index)
)

(deftemplate Time
	(slot beat_type)
	(slot index)
	(slot beats)
	(slot part_index)
)

(deftemplate Transpose
)

(deftemplate Direction
	(slot index)
	(slot placement)
	(slot part_index)
	(slot direction_type_index)
	(slot sound_index)
)

(deftemplate Direction_Type
	(slot metronome_index)
	(slot index)
	(slot part_index)
)

(deftemplate Metronome
	(slot per_minute)
	(slot index)
	(slot default_x)
	(slot part_index)
	(slot parentheses)
	(slot relative_y)
	(slot beat_unit)
)

(deftemplate Sound
	(slot tempo)
	(slot index)
	(slot part_index)
)

(deftemplate Clef
	(slot index)
	(slot line)
	(slot part_index)
	(slot sign)
	(slot clef_octave_change)
)

(deftemplate Barline
	(slot bar_style)
	(slot location)
	(slot index)
	(slot part_index)
)

(deftemplate Tie
)

(deftemplate Instrument
)

(deftemplate Print
)

(deftemplate Notations
)

(deftemplate Backup
)

(deftemplate Unpitched
	(slot display_step)
	(slot index)
	(slot part_index)
)

(deftemplate Articulations
)

(deftemplate Repeat
)

(deftemplate Staff_layout
)

(deftemplate Tied
)

(deftemplate System_layout
)

(deftemplate System_margins
)

(deffacts parts
	(Part (index 0)(id P1)(measure 0 1 2 3 4 5 6 7 8 9 10 11 12 13 14 15 16 17 18 19 20 21)(part_index 1))
)

(deffacts attributess
	(Attributes (index 0)(divisions 4)(key_index 0)(time_index 0)(clef_index 0)(part_index 1))
)

(deffacts measures
	(Measure (index 0)(number 1)(width 190.50)(attributes_index 0)(direction_index 0)(note 0 1 2 3 4)(part_index 1))
	(Measure (index 1)(number 2)(width 121.24)(note 5 6 7 8 9)(part_index 1))
	(Measure (index 2)(number 3)(width 121.24)(note 10 11 12 13 14)(part_index 1))
	(Measure (index 3)(number 4)(width 117.44)(note 15 16 17 18 19)(part_index 1))
	(Measure (index 4)(number 5)(width 100.20)(note 20 21 22 23)(part_index 1))
	(Measure (index 5)(number 6)(width 100.20)(note 24 25 26 27)(part_index 1))
	(Measure (index 6)(number 7)(width 100.20)(note 28 29 30 31)(part_index 1))
	(Measure (index 7)(number 8)(width 109.04)(note 32 33 34 35)(part_index 1))
	(Measure (index 8)(number 9)(width 117.44)(note 36 37 38 39 40)(part_index 1))
	(Measure (index 9)(number 10)(width 165.00)(note 41 42 43 44 45)(part_index 1))
	(Measure (index 10)(number 11)(width 116.83)(note 46 47 48 49 50)(part_index 1))
	(Measure (index 11)(number 12)(width 110.38)(note 51 52 53 54)(part_index 1))
	(Measure (index 12)(number 13)(width 100.01)(note 55 56 57 58)(part_index 1))
	(Measure (index 13)(number 14)(width 110.36)(note 59 60 61 62)(part_index 1))
	(Measure (index 14)(number 15)(width 120.63)(note 63 64 65 66 67)(part_index 1))
	(Measure (index 15)(number 16)(width 99.59)(note 68 69 70 71)(part_index 1))
	(Measure (index 16)(number 17)(width 134.06)(note 72 73 74 75 76 77)(part_index 1))
	(Measure (index 17)(number 18)(width 120.63)(note 78 79 80 81 82)(part_index 1))
	(Measure (index 18)(number 19)(width 305.47)(note 83 84 85 86 87)(part_index 1))
	(Measure (index 19)(number 20)(width 265.66)(note 88 89 90 91 92 93 94)(part_index 1))
	(Measure (index 20)(number 21)(width 274.53)(note 95 96 97 98 99 100 101)(part_index 1))
	(Measure (index 21)(number 22)(width 231.83)(note 102 103 104)(barline_index 0)(part_index 1))
)

(deffacts notes
	(Note (index 0)(default_x 83.07)(default_y -65.00)(dynamics 100.00)(pitch_index 0)(duration 2)(voice 1)(type eighth)(stem up)(beam_index 0)(lyric_index 857)(part_index 1))
	(Note (index 1)(default_x 105.40)(default_y -35.00)(dynamics 100.00)(pitch_index 1)(duration 2)(voice 1)(type eighth)(stem up)(beam_index 1)(part_index 1))
	(Note (index 2)(default_x 127.74)(default_y -30.00)(dynamics 100.00)(pitch_index 2)(duration 2)(voice 1)(type eighth)(stem up)(beam_index 2)(part_index 1))
	(Note (index 3)(default_x 150.07)(default_y -30.00)(dynamics 100.00)(pitch_index 3)(duration 1)(voice 1)(type 16th)(stem up)(beam 3 4)(part_index 1))
	(Note (index 4)(default_x 165.74)(default_y -30.00)(dynamics 100.00)(pitch_index 4)(duration 1)(voice 1)(type 16th)(stem up)(beam 5 6)(part_index 1))
	(Note (index 5)(default_x 13.80)(default_y -65.00)(dynamics 100.00)(pitch_index 5)(duration 2)(voice 1)(type eighth)(stem up)(beam_index 7)(part_index 1))
	(Note (index 6)(default_x 36.13)(default_y -35.00)(dynamics 100.00)(pitch_index 6)(duration 2)(voice 1)(type eighth)(stem up)(beam_index 8)(part_index 1))
	(Note (index 7)(default_x 58.47)(default_y -30.00)(dynamics 100.00)(pitch_index 7)(duration 2)(voice 1)(type eighth)(stem up)(beam_index 9)(part_index 1))
	(Note (index 8)(default_x 80.80)(default_y -30.00)(dynamics 100.00)(pitch_index 8)(duration 1)(voice 1)(type 16th)(stem up)(beam 10 11)(part_index 1))
	(Note (index 9)(default_x 96.47)(default_y -30.00)(dynamics 100.00)(pitch_index 9)(duration 1)(voice 1)(type 16th)(stem up)(beam 12 13)(part_index 1))
	(Note (index 10)(default_x 13.80)(default_y -65.00)(dynamics 100.00)(pitch_index 10)(duration 2)(voice 1)(type eighth)(stem up)(beam_index 14)(part_index 1))
	(Note (index 11)(default_x 36.13)(default_y -35.00)(dynamics 100.00)(pitch_index 11)(duration 2)(voice 1)(type eighth)(stem up)(beam_index 15)(part_index 1))
	(Note (index 12)(default_x 58.47)(default_y -30.00)(dynamics 100.00)(pitch_index 12)(duration 2)(voice 1)(type eighth)(stem up)(beam_index 16)(part_index 1))
	(Note (index 13)(default_x 80.80)(default_y -30.00)(dynamics 100.00)(pitch_index 13)(duration 1)(voice 1)(type 16th)(stem up)(beam 17 18)(part_index 1))
	(Note (index 14)(default_x 96.47)(default_y -30.00)(dynamics 100.00)(pitch_index 14)(duration 1)(voice 1)(type 16th)(stem up)(beam 19 20)(part_index 1))
	(Note (index 15)(default_x 10.00)(default_y -30.00)(dynamics 100.00)(pitch_index 15)(duration 2)(voice 1)(type eighth)(stem up)(beam_index 21)(part_index 1))
	(Note (index 16)(default_x 32.33)(default_y -25.00)(dynamics 100.00)(pitch_index 16)(duration 2)(voice 1)(type eighth)(stem up)(beam_index 22)(part_index 1))
	(Note (index 17)(default_x 54.67)(default_y -15.00)(dynamics 100.00)(pitch_index 17)(duration 2)(voice 1)(type eighth)(stem down)(beam_index 23)(part_index 1))
	(Note (index 18)(default_x 77.00)(default_y -10.00)(dynamics 100.00)(pitch_index 18)(duration 1)(voice 1)(type 16th)(stem down)(beam 24 25)(part_index 1))
	(Note (index 19)(default_x 92.67)(default_y -15.00)(dynamics 100.00)(pitch_index 19)(duration 1)(voice 1)(type 16th)(stem down)(beam 26 27)(part_index 1))
	(Note (index 20)(default_x 10.00)(default_y -45.00)(dynamics 100.00)(pitch_index 20)(duration 2)(voice 1)(type eighth)(stem up)(beam_index 28)(part_index 1))
	(Note (index 21)(default_x 31.81)(default_y -25.00)(dynamics 100.00)(pitch_index 21)(duration 2)(voice 1)(type eighth)(stem up)(beam_index 29)(part_index 1))
	(Note (index 22)(default_x 53.63)(default_y -30.00)(dynamics 100.00)(pitch_index 22)(duration 2)(voice 1)(type eighth)(stem up)(beam_index 30)(part_index 1))
	(Note (index 23)(default_x 75.44)(default_y -25.00)(dynamics 100.00)(pitch_index 23)(duration 2)(voice 1)(type eighth)(stem up)(beam_index 31)(part_index 1))
	(Note (index 24)(default_x 10.00)(default_y -35.00)(dynamics 100.00)(pitch_index 24)(duration 2)(voice 1)(type eighth)(stem up)(beam_index 32)(part_index 1))
	(Note (index 25)(default_x 31.81)(default_y -45.00)(dynamics 100.00)(pitch_index 25)(duration 2)(voice 1)(type eighth)(stem up)(beam_index 33)(part_index 1))
	(Note (index 26)(default_x 53.63)(default_y -35.00)(dynamics 100.00)(pitch_index 26)(duration 2)(voice 1)(type eighth)(stem up)(beam_index 34)(part_index 1))
	(Note (index 27)(default_x 75.44)(default_y -30.00)(dynamics 100.00)(pitch_index 27)(duration 2)(voice 1)(type eighth)(stem up)(beam_index 35)(part_index 1))
	(Note (index 28)(default_x 10.00)(default_y -15.00)(dynamics 100.00)(pitch_index 28)(duration 2)(voice 1)(type eighth)(stem up)(beam_index 36)(part_index 1))
	(Note (index 29)(default_x 31.81)(default_y -25.00)(dynamics 100.00)(pitch_index 29)(duration 2)(voice 1)(type eighth)(stem up)(beam_index 37)(part_index 1))
	(Note (index 30)(default_x 53.63)(default_y -25.00)(dynamics 100.00)(pitch_index 30)(duration 2)(voice 1)(type eighth)(stem up)(beam_index 38)(part_index 1))
	(Note (index 31)(default_x 75.44)(default_y -30.00)(dynamics 100.00)(pitch_index 31)(duration 2)(voice 1)(type eighth)(stem up)(beam_index 39)(part_index 1))
	(Note (index 32)(default_x 10.00)(default_y -35.00)(dynamics 100.00)(pitch_index 32)(duration 2)(voice 1)(type eighth)(stem up)(beam_index 40)(part_index 1))
	(Note (index 33)(default_x 33.07)(default_y -30.00)(dynamics 100.00)(pitch_index 33)(duration 2)(voice 1)(type eighth)(stem up)(beam_index 41)(part_index 1))
	(Note (index 34)(default_x 56.14)(default_y -45.00)(dynamics 100.00)(pitch_index 34)(duration 3)(voice 1)(type eighth)(stem up)(beam_index 42)(part_index 1))
	(Note (index 35)(default_x 84.27)(default_y -50.00)(dynamics 100.00)(pitch_index 35)(duration 1)(voice 1)(type 16th)(stem up)(beam 43 44)(part_index 1))
	(Note (index 36)(default_x 10.00)(default_y -45.00)(dynamics 100.00)(pitch_index 36)(duration 2)(voice 1)(type eighth)(stem up)(beam_index 45)(part_index 1))
	(Note (index 37)(default_x 32.33)(default_y -35.00)(dynamics 100.00)(pitch_index 37)(duration 2)(voice 1)(type eighth)(stem up)(beam_index 46)(part_index 1))
	(Note (index 38)(default_x 54.67)(default_y -30.00)(dynamics 100.00)(pitch_index 38)(duration 2)(voice 1)(type eighth)(stem up)(beam_index 47)(part_index 1))
	(Note (index 39)(default_x 77.00)(default_y -30.00)(dynamics 100.00)(pitch_index 39)(duration 1)(voice 1)(type 16th)(stem up)(beam 48 49)(part_index 1))
	(Note (index 40)(default_x 92.67)(default_y -35.00)(dynamics 100.00)(pitch_index 40)(duration 1)(voice 1)(type 16th)(stem up)(beam 50 51)(part_index 1))
	(Note (index 41)(default_x 58.17)(default_y -30.00)(dynamics 100.00)(pitch_index 41)(duration 2)(voice 1)(type eighth)(stem up)(beam_index 52)(part_index 1))
	(Note (index 42)(default_x 80.31)(default_y -25.00)(dynamics 100.00)(pitch_index 42)(duration 2)(voice 1)(type eighth)(stem up)(beam_index 53)(part_index 1))
	(Note (index 43)(default_x 102.44)(default_y -50.00)(dynamics 100.00)(pitch_index 43)(duration 2)(voice 1)(type eighth)(stem up)(beam_index 54)(part_index 1))
	(Note (index 44)(default_x 124.57)(default_y -15.00)(dynamics 100.00)(pitch_index 44)(duration 1)(voice 1)(type 16th)(stem up)(beam 55 56)(part_index 1))
	(Note (index 45)(default_x 140.24)(default_y -15.00)(dynamics 100.00)(pitch_index 45)(duration 1)(voice 1)(type 16th)(stem up)(beam 57 58)(part_index 1))
	(Note (index 46)(default_x 10.00)(default_y -15.00)(dynamics 100.00)(pitch_index 46)(duration 2)(voice 1)(type eighth)(stem down)(beam_index 59)(part_index 1))
	(Note (index 47)(default_x 34.63)(default_y -10.00)(dynamics 100.00)(pitch_index 47)(duration 1)(voice 1)(type 16th)(stem down)(beam 60 61)(part_index 1))
	(Note (index 48)(default_x 50.30)(default_y -10.00)(dynamics 100.00)(pitch_index 48)(duration 1)(voice 1)(type 16th)(stem down)(beam 62 63)(part_index 1))
	(Note (index 49)(default_x 65.96)(default_y -15.00)(dynamics 100.00)(pitch_index 49)(duration 2)(voice 1)(type eighth)(stem down)(beam_index 64)(part_index 1))
	(Note (index 50)(default_x 90.59)(default_y -25.00)(dynamics 100.00)(pitch_index 50)(duration 2)(voice 1)(type eighth)(stem down)(beam_index 65)(part_index 1))
	(Note (index 51)(default_x 10.00)(default_y -30.00)(dynamics 100.00)(pitch_index 51)(duration 2)(voice 1)(type eighth)(stem up)(beam_index 66)(part_index 1))
	(Note (index 52)(default_x 32.00)(default_y -30.00)(dynamics 100.00)(pitch_index 52)(duration 2)(voice 1)(type eighth)(stem up)(beam_index 67)(part_index 1))
	(Note (index 53)(duration 2)(voice 1)(type eighth)(part_index 1))
	(Note (index 54)(default_x 76.01)(default_y -25.00)(dynamics 100.00)(pitch_index 53)(duration 2)(voice 1)(type eighth)(stem up)(part_index 1))
	(Note (index 55)(duration 2)(voice 1)(type eighth)(part_index 1))
	(Note (index 56)(default_x 31.88)(default_y -15.00)(dynamics 100.00)(pitch_index 54)(duration 2)(voice 1)(type eighth)(stem down)(part_index 1))
	(Note (index 57)(duration 2)(voice 1)(type eighth)(part_index 1))
	(Note (index 58)(default_x 75.25)(default_y -10.00)(dynamics 100.00)(pitch_index 55)(duration 2)(voice 1)(type eighth)(stem down)(part_index 1))
	(Note (index 59)(duration 2)(voice 1)(type eighth)(part_index 1))
	(Note (index 60)(default_x 34.63)(default_y -25.00)(dynamics 100.00)(pitch_index 56)(duration 2)(voice 1)(type eighth)(stem up)(part_index 1))
	(Note (index 61)(default_x 59.90)(default_y -15.00)(dynamics 100.00)(pitch_index 57)(duration 2)(voice 1)(type eighth)(stem down)(beam_index 68)(part_index 1))
	(Note (index 62)(default_x 84.33)(default_y -15.00)(dynamics 100.00)(pitch_index 58)(duration 2)(voice 1)(type eighth)(stem down)(beam_index 69)(part_index 1))
	(Note (index 63)(default_x 13.80)(default_y -50.00)(dynamics 100.00)(pitch_index 59)(duration 2)(voice 1)(type eighth)(stem up)(beam_index 70)(part_index 1))
	(Note (index 64)(default_x 38.43)(default_y -10.00)(dynamics 100.00)(pitch_index 60)(duration 1)(voice 1)(type 16th)(stem up)(beam 71 72)(part_index 1))
	(Note (index 65)(default_x 54.10)(default_y -10.00)(dynamics 100.00)(pitch_index 61)(duration 1)(voice 1)(type 16th)(stem up)(beam 73 74)(part_index 1))
	(Note (index 66)(default_x 69.76)(default_y -10.00)(dynamics 100.00)(pitch_index 62)(duration 2)(voice 1)(type eighth)(stem down)(beam_index 75)(part_index 1))
	(Note (index 67)(default_x 94.39)(default_y -10.00)(dynamics 100.00)(pitch_index 63)(duration 2)(voice 1)(type eighth)(stem down)(beam_index 76)(part_index 1))
	(Note (index 68)(default_x 10.00)(default_y -15.00)(dynamics 100.00)(pitch_index 64)(duration 2)(voice 1)(type eighth)(stem down)(beam_index 77)(part_index 1))
	(Note (index 69)(default_x 31.61)(default_y -25.00)(dynamics 100.00)(pitch_index 65)(duration 2)(voice 1)(type eighth)(stem down)(beam_index 78)(part_index 1))
	(Note (index 70)(default_x 53.22)(default_y -30.00)(dynamics 100.00)(pitch_index 66)(duration 2)(voice 1)(type eighth)(stem up)(beam_index 79)(part_index 1))
	(Note (index 71)(default_x 74.83)(default_y -25.00)(dynamics 100.00)(pitch_index 67)(duration 2)(voice 1)(type eighth)(stem up)(beam_index 80)(part_index 1))
	(Note (index 72)(default_x 10.00)(default_y -15.00)(dynamics 100.00)(pitch_index 68)(duration 2)(voice 1)(type eighth)(stem up)(beam_index 81)(part_index 1))
	(Note (index 73)(default_x 35.62)(default_y -25.00)(dynamics 100.00)(pitch_index 69)(duration 2)(voice 1)(type eighth)(stem up)(beam_index 82)(part_index 1))
	(Note (index 74)(default_x 61.25)(default_y -30.00)(dynamics 100.00)(pitch_index 70)(duration 1)(voice 1)(type 16th)(stem up)(beam 83 84)(part_index 1))
	(Note (index 75)(default_x 77.26)(default_y -30.00)(dynamics 100.00)(pitch_index 71)(duration 1)(voice 1)(type 16th)(stem up)(beam 85 86)(part_index 1))
	(Note (index 76)(default_x 93.28)(default_y -25.00)(dynamics 100.00)(pitch_index 72)(duration 1)(voice 1)(type 16th)(stem up)(beam 87 88)(part_index 1))
	(Note (index 77)(default_x 109.29)(default_y -30.00)(dynamics 100.00)(pitch_index 73)(duration 1)(voice 1)(type 16th)(stem up)(beam 89 90)(part_index 1))
	(Note (index 78)(default_x 13.80)(default_y -65.00)(dynamics 100.00)(pitch_index 74)(duration 2)(voice 1)(type eighth)(stem up)(beam_index 91)(part_index 1))
	(Note (index 79)(default_x 35.93)(default_y -35.00)(dynamics 100.00)(pitch_index 75)(duration 2)(voice 1)(type eighth)(stem up)(beam_index 92)(part_index 1))
	(Note (index 80)(default_x 58.06)(default_y -30.00)(dynamics 100.00)(pitch_index 76)(duration 2)(voice 1)(type eighth)(stem up)(beam_index 93)(part_index 1))
	(Note (index 81)(default_x 80.19)(default_y -30.00)(dynamics 100.00)(pitch_index 77)(duration 1)(voice 1)(type 16th)(stem up)(beam 94 95)(part_index 1))
	(Note (index 82)(default_x 95.86)(default_y -30.00)(dynamics 100.00)(pitch_index 78)(duration 1)(voice 1)(type 16th)(stem up)(beam 96 97)(part_index 1))
	(Note (index 83)(default_x 61.97)(default_y -65.00)(dynamics 100.00)(pitch_index 79)(duration 2)(voice 1)(type eighth)(stem up)(beam_index 98)(part_index 1))
	(Note (index 84)(default_x 118.89)(default_y -35.00)(dynamics 100.00)(pitch_index 80)(duration 2)(voice 1)(type eighth)(stem up)(beam_index 99)(part_index 1))
	(Note (index 85)(default_x 175.81)(default_y -30.00)(dynamics 100.00)(pitch_index 81)(duration 2)(voice 1)(type eighth)(stem up)(beam_index 100)(part_index 1))
	(Note (index 86)(default_x 232.73)(default_y -25.00)(dynamics 100.00)(pitch_index 82)(duration 1)(voice 1)(type 16th)(stem up)(beam 101 102)(part_index 1))
	(Note (index 87)(default_x 268.30)(default_y -30.00)(dynamics 100.00)(pitch_index 83)(duration 1)(voice 1)(type 16th)(stem up)(beam 103 104)(part_index 1))
	(Note (index 88)(default_x 13.80)(default_y -65.00)(dynamics 100.00)(pitch_index 84)(duration 2)(voice 1)(type eighth)(stem up)(beam_index 105)(part_index 1))
	(Note (index 89)(default_x 72.68)(default_y -35.00)(dynamics 100.00)(pitch_index 85)(duration 2)(voice 1)(type eighth)(stem up)(beam_index 106)(part_index 1))
	(Note (index 90)(default_x 131.57)(default_y -30.00)(dynamics 100.00)(pitch_index 86)(duration 2)(voice 1)(type eighth)(stem up)(beam_index 107)(part_index 1))
	(Note (index 91)(default_x 190.45)(default_y -50.00)(dynamics 100.00)(pitch_index 87)(duration 1)(voice 1)(type 16th)(stem up)(beam 108 109)(part_index 1))
	(Note (index 92)(default_x 190.45)(default_y -15.00)(dynamics 100.00)(pitch_index 88)(duration 1)(voice 1)(type 16th)(stem up)(part_index 1))
	(Note (index 93)(default_x 227.26)(default_y -50.00)(dynamics 100.00)(pitch_index 89)(duration 1)(voice 1)(type 16th)(stem up)(beam 110 111)(part_index 1))
	(Note (index 94)(default_x 227.26)(default_y -15.00)(dynamics 100.00)(pitch_index 90)(duration 1)(voice 1)(type 16th)(stem up)(part_index 1))
	(Note (index 95)(default_x 13.80)(default_y -50.00)(dynamics 100.00)(pitch_index 91)(duration 2)(voice 1)(type eighth)(stem up)(beam_index 112)(part_index 1))
	(Note (index 96)(default_x 13.80)(default_y -15.00)(dynamics 100.00)(pitch_index 92)(duration 2)(voice 1)(type eighth)(stem up)(part_index 1))
	(Note (index 97)(default_x 71.38)(default_y -25.00)(dynamics 100.00)(pitch_index 93)(duration 2)(voice 1)(type eighth)(stem up)(beam_index 113)(part_index 1))
	(Note (index 98)(default_x 128.97)(default_y -30.00)(dynamics 100.00)(pitch_index 94)(duration 1)(voice 1)(type 16th)(stem up)(beam 114 115)(part_index 1))
	(Note (index 99)(default_x 164.96)(default_y -30.00)(dynamics 100.00)(pitch_index 95)(duration 1)(voice 1)(type 16th)(stem up)(beam 116 117)(part_index 1))
	(Note (index 100)(default_x 200.95)(default_y -25.00)(dynamics 100.00)(pitch_index 96)(duration 1)(voice 1)(type 16th)(stem up)(beam 118 119)(part_index 1))
	(Note (index 101)(default_x 236.94)(default_y -30.00)(dynamics 100.00)(pitch_index 97)(duration 1)(voice 1)(type 16th)(stem up)(beam 120 121)(part_index 1))
	(Note (index 102)(default_x 13.80)(default_y -65.00)(dynamics 100.00)(pitch_index 98)(duration 2)(voice 1)(type eighth)(stem up)(beam_index 122)(part_index 1))
	(Note (index 103)(default_x 71.42)(default_y -35.00)(dynamics 100.00)(pitch_index 99)(duration 2)(voice 1)(type eighth)(stem up)(beam_index 123)(part_index 1))
	(Note (index 104)(default_x 129.04)(default_y -30.00)(dynamics 100.00)(pitch_index 100)(duration 4)(voice 1)(type quarter)(stem up)(part_index 1))
)

(deffacts pitchs
	(Pitch (index 0)(step G)(octave 2)(part_index 1))
	(Pitch (index 1)(step F)(octave 3)(part_index 1))
	(Pitch (index 2)(step G)(octave 3)(part_index 1))
	(Pitch (index 3)(step G)(octave 3)(part_index 1))
	(Pitch (index 4)(step G)(octave 3)(part_index 1))
	(Pitch (index 5)(step G)(octave 2)(part_index 1))
	(Pitch (index 6)(step F)(octave 3)(part_index 1))
	(Pitch (index 7)(step G)(octave 3)(part_index 1))
	(Pitch (index 8)(step G)(octave 3)(part_index 1))
	(Pitch (index 9)(step G)(octave 3)(part_index 1))
	(Pitch (index 10)(step G)(octave 2)(part_index 1))
	(Pitch (index 11)(step F)(octave 3)(part_index 1))
	(Pitch (index 12)(step G)(octave 3)(part_index 1))
	(Pitch (index 13)(step G)(octave 3)(part_index 1))
	(Pitch (index 14)(step G)(octave 3)(part_index 1))
	(Pitch (index 15)(step G)(octave 3)(part_index 1))
	(Pitch (index 16)(step A)(octave 3)(part_index 1))
	(Pitch (index 17)(step C)(octave 4)(part_index 1))
	(Pitch (index 18)(step D)(octave 4)(part_index 1))
	(Pitch (index 19)(step C)(octave 4)(part_index 1))
	(Pitch (index 20)(step D)(octave 3)(part_index 1))
	(Pitch (index 21)(step A)(octave 3)(part_index 1))
	(Pitch (index 22)(step G)(octave 3)(part_index 1))
	(Pitch (index 23)(step A)(octave 3)(part_index 1))
	(Pitch (index 24)(step F)(octave 3)(part_index 1))
	(Pitch (index 25)(step D)(octave 3)(part_index 1))
	(Pitch (index 26)(step F)(octave 3)(part_index 1))
	(Pitch (index 27)(step G)(octave 3)(part_index 1))
	(Pitch (index 28)(step C)(octave 4)(part_index 1))
	(Pitch (index 29)(step A)(octave 3)(part_index 1))
	(Pitch (index 30)(step A)(octave 3)(part_index 1))
	(Pitch (index 31)(step G)(octave 3)(part_index 1))
	(Pitch (index 32)(step F)(octave 3)(part_index 1))
	(Pitch (index 33)(step G)(octave 3)(part_index 1))
	(Pitch (index 34)(step D)(octave 3)(part_index 1))
	(Pitch (index 35)(step C)(octave 3)(part_index 1))
	(Pitch (index 36)(step D)(octave 3)(part_index 1))
	(Pitch (index 37)(step F)(octave 3)(part_index 1))
	(Pitch (index 38)(step G)(octave 3)(part_index 1))
	(Pitch (index 39)(step G)(octave 3)(part_index 1))
	(Pitch (index 40)(step F)(octave 3)(part_index 1))
	(Pitch (index 41)(step G)(octave 3)(part_index 1))
	(Pitch (index 42)(step A)(octave 3)(part_index 1))
	(Pitch (index 43)(step C)(octave 3)(part_index 1))
	(Pitch (index 44)(step C)(octave 4)(part_index 1))
	(Pitch (index 45)(step C)(octave 4)(part_index 1))
	(Pitch (index 46)(step C)(octave 4)(part_index 1))
	(Pitch (index 47)(step D)(octave 4)(part_index 1))
	(Pitch (index 48)(step D)(octave 4)(part_index 1))
	(Pitch (index 49)(step C)(octave 4)(part_index 1))
	(Pitch (index 50)(step A)(octave 3)(part_index 1))
	(Pitch (index 51)(step G)(octave 3)(part_index 1))
	(Pitch (index 52)(step G)(octave 3)(part_index 1))
	(Pitch (index 53)(step A)(octave 3)(part_index 1))
	(Pitch (index 54)(step C)(octave 4)(part_index 1))
	(Pitch (index 55)(step D)(octave 4)(part_index 1))
	(Pitch (index 56)(step A)(octave 3)(part_index 1))
	(Pitch (index 57)(step C)(octave 4)(part_index 1))
	(Pitch (index 58)(step C)(octave 4)(part_index 1))
	(Pitch (index 59)(step C)(octave 3)(part_index 1))
	(Pitch (index 60)(step D)(octave 4)(part_index 1))
	(Pitch (index 61)(step D)(octave 4)(part_index 1))
	(Pitch (index 62)(step D)(octave 4)(part_index 1))
	(Pitch (index 63)(step D)(octave 4)(part_index 1))
	(Pitch (index 64)(step C)(octave 4)(part_index 1))
	(Pitch (index 65)(step A)(octave 3)(part_index 1))
	(Pitch (index 66)(step G)(octave 3)(part_index 1))
	(Pitch (index 67)(step A)(octave 3)(part_index 1))
	(Pitch (index 68)(step C)(octave 4)(part_index 1))
	(Pitch (index 69)(step A)(octave 3)(part_index 1))
	(Pitch (index 70)(step G)(octave 3)(part_index 1))
	(Pitch (index 71)(step G)(octave 3)(part_index 1))
	(Pitch (index 72)(step A)(octave 3)(part_index 1))
	(Pitch (index 73)(step G)(octave 3)(part_index 1))
	(Pitch (index 74)(step G)(octave 2)(part_index 1))
	(Pitch (index 75)(step F)(octave 3)(part_index 1))
	(Pitch (index 76)(step G)(octave 3)(part_index 1))
	(Pitch (index 77)(step G)(octave 3)(part_index 1))
	(Pitch (index 78)(step G)(octave 3)(part_index 1))
	(Pitch (index 79)(step G)(octave 2)(part_index 1))
	(Pitch (index 80)(step F)(octave 3)(part_index 1))
	(Pitch (index 81)(step G)(octave 3)(part_index 1))
	(Pitch (index 82)(step A)(octave 3)(part_index 1))
	(Pitch (index 83)(step G)(octave 3)(part_index 1))
	(Pitch (index 84)(step G)(octave 2)(part_index 1))
	(Pitch (index 85)(step F)(octave 3)(part_index 1))
	(Pitch (index 86)(step G)(octave 3)(part_index 1))
	(Pitch (index 87)(step C)(octave 3)(part_index 1))
	(Pitch (index 88)(step C)(octave 4)(part_index 1))
	(Pitch (index 89)(step C)(octave 3)(part_index 1))
	(Pitch (index 90)(step C)(octave 4)(part_index 1))
	(Pitch (index 91)(step C)(octave 3)(part_index 1))
	(Pitch (index 92)(step C)(octave 4)(part_index 1))
	(Pitch (index 93)(step A)(octave 3)(part_index 1))
	(Pitch (index 94)(step G)(octave 3)(part_index 1))
	(Pitch (index 95)(step G)(octave 3)(part_index 1))
	(Pitch (index 96)(step A)(octave 3)(part_index 1))
	(Pitch (index 97)(step G)(octave 3)(part_index 1))
	(Pitch (index 98)(step G)(octave 2)(part_index 1))
	(Pitch (index 99)(step F)(octave 3)(part_index 1))
	(Pitch (index 100)(step G)(octave 3)(part_index 1))
)

(deffacts beams
	(Beam (index 0)(data begin)(number 1)(part_index 1))
	(Beam (index 1)(data end)(number 1)(part_index 1))
	(Beam (index 2)(data begin)(number 1)(part_index 1))
	(Beam (index 3)(data continue)(number 1)(part_index 1))
	(Beam (index 4)(data begin)(number 2)(part_index 1))
	(Beam (index 5)(data end)(number 1)(part_index 1))
	(Beam (index 6)(data end)(number 2)(part_index 1))
	(Beam (index 7)(data begin)(number 1)(part_index 1))
	(Beam (index 8)(data end)(number 1)(part_index 1))
	(Beam (index 9)(data begin)(number 1)(part_index 1))
	(Beam (index 10)(data continue)(number 1)(part_index 1))
	(Beam (index 11)(data begin)(number 2)(part_index 1))
	(Beam (index 12)(data end)(number 1)(part_index 1))
	(Beam (index 13)(data end)(number 2)(part_index 1))
	(Beam (index 14)(data begin)(number 1)(part_index 1))
	(Beam (index 15)(data end)(number 1)(part_index 1))
	(Beam (index 16)(data begin)(number 1)(part_index 1))
	(Beam (index 17)(data continue)(number 1)(part_index 1))
	(Beam (index 18)(data begin)(number 2)(part_index 1))
	(Beam (index 19)(data end)(number 1)(part_index 1))
	(Beam (index 20)(data end)(number 2)(part_index 1))
	(Beam (index 21)(data begin)(number 1)(part_index 1))
	(Beam (index 22)(data end)(number 1)(part_index 1))
	(Beam (index 23)(data begin)(number 1)(part_index 1))
	(Beam (index 24)(data continue)(number 1)(part_index 1))
	(Beam (index 25)(data begin)(number 2)(part_index 1))
	(Beam (index 26)(data end)(number 1)(part_index 1))
	(Beam (index 27)(data end)(number 2)(part_index 1))
	(Beam (index 28)(data begin)(number 1)(part_index 1))
	(Beam (index 29)(data end)(number 1)(part_index 1))
	(Beam (index 30)(data begin)(number 1)(part_index 1))
	(Beam (index 31)(data end)(number 1)(part_index 1))
	(Beam (index 32)(data begin)(number 1)(part_index 1))
	(Beam (index 33)(data end)(number 1)(part_index 1))
	(Beam (index 34)(data begin)(number 1)(part_index 1))
	(Beam (index 35)(data end)(number 1)(part_index 1))
	(Beam (index 36)(data begin)(number 1)(part_index 1))
	(Beam (index 37)(data end)(number 1)(part_index 1))
	(Beam (index 38)(data begin)(number 1)(part_index 1))
	(Beam (index 39)(data end)(number 1)(part_index 1))
	(Beam (index 40)(data begin)(number 1)(part_index 1))
	(Beam (index 41)(data end)(number 1)(part_index 1))
	(Beam (index 42)(data begin)(number 1)(part_index 1))
	(Beam (index 43)(data end)(number 1)(part_index 1))
	(Beam (index 44)(data backward-hook)(number 2)(part_index 1))
	(Beam (index 45)(data begin)(number 1)(part_index 1))
	(Beam (index 46)(data end)(number 1)(part_index 1))
	(Beam (index 47)(data begin)(number 1)(part_index 1))
	(Beam (index 48)(data continue)(number 1)(part_index 1))
	(Beam (index 49)(data begin)(number 2)(part_index 1))
	(Beam (index 50)(data end)(number 1)(part_index 1))
	(Beam (index 51)(data end)(number 2)(part_index 1))
	(Beam (index 52)(data begin)(number 1)(part_index 1))
	(Beam (index 53)(data end)(number 1)(part_index 1))
	(Beam (index 54)(data begin)(number 1)(part_index 1))
	(Beam (index 55)(data continue)(number 1)(part_index 1))
	(Beam (index 56)(data begin)(number 2)(part_index 1))
	(Beam (index 57)(data end)(number 1)(part_index 1))
	(Beam (index 58)(data end)(number 2)(part_index 1))
	(Beam (index 59)(data begin)(number 1)(part_index 1))
	(Beam (index 60)(data continue)(number 1)(part_index 1))
	(Beam (index 61)(data begin)(number 2)(part_index 1))
	(Beam (index 62)(data end)(number 1)(part_index 1))
	(Beam (index 63)(data end)(number 2)(part_index 1))
	(Beam (index 64)(data begin)(number 1)(part_index 1))
	(Beam (index 65)(data end)(number 1)(part_index 1))
	(Beam (index 66)(data begin)(number 1)(part_index 1))
	(Beam (index 67)(data end)(number 1)(part_index 1))
	(Beam (index 68)(data begin)(number 1)(part_index 1))
	(Beam (index 69)(data end)(number 1)(part_index 1))
	(Beam (index 70)(data begin)(number 1)(part_index 1))
	(Beam (index 71)(data continue)(number 1)(part_index 1))
	(Beam (index 72)(data begin)(number 2)(part_index 1))
	(Beam (index 73)(data end)(number 1)(part_index 1))
	(Beam (index 74)(data end)(number 2)(part_index 1))
	(Beam (index 75)(data begin)(number 1)(part_index 1))
	(Beam (index 76)(data end)(number 1)(part_index 1))
	(Beam (index 77)(data begin)(number 1)(part_index 1))
	(Beam (index 78)(data end)(number 1)(part_index 1))
	(Beam (index 79)(data begin)(number 1)(part_index 1))
	(Beam (index 80)(data end)(number 1)(part_index 1))
	(Beam (index 81)(data begin)(number 1)(part_index 1))
	(Beam (index 82)(data end)(number 1)(part_index 1))
	(Beam (index 83)(data begin)(number 1)(part_index 1))
	(Beam (index 84)(data begin)(number 2)(part_index 1))
	(Beam (index 85)(data continue)(number 1)(part_index 1))
	(Beam (index 86)(data continue)(number 2)(part_index 1))
	(Beam (index 87)(data continue)(number 1)(part_index 1))
	(Beam (index 88)(data continue)(number 2)(part_index 1))
	(Beam (index 89)(data end)(number 1)(part_index 1))
	(Beam (index 90)(data end)(number 2)(part_index 1))
	(Beam (index 91)(data begin)(number 1)(part_index 1))
	(Beam (index 92)(data end)(number 1)(part_index 1))
	(Beam (index 93)(data begin)(number 1)(part_index 1))
	(Beam (index 94)(data continue)(number 1)(part_index 1))
	(Beam (index 95)(data begin)(number 2)(part_index 1))
	(Beam (index 96)(data end)(number 1)(part_index 1))
	(Beam (index 97)(data end)(number 2)(part_index 1))
	(Beam (index 98)(data begin)(number 1)(part_index 1))
	(Beam (index 99)(data end)(number 1)(part_index 1))
	(Beam (index 100)(data begin)(number 1)(part_index 1))
	(Beam (index 101)(data continue)(number 1)(part_index 1))
	(Beam (index 102)(data begin)(number 2)(part_index 1))
	(Beam (index 103)(data end)(number 1)(part_index 1))
	(Beam (index 104)(data end)(number 2)(part_index 1))
	(Beam (index 105)(data begin)(number 1)(part_index 1))
	(Beam (index 106)(data end)(number 1)(part_index 1))
	(Beam (index 107)(data begin)(number 1)(part_index 1))
	(Beam (index 108)(data continue)(number 1)(part_index 1))
	(Beam (index 109)(data begin)(number 2)(part_index 1))
	(Beam (index 110)(data end)(number 1)(part_index 1))
	(Beam (index 111)(data end)(number 2)(part_index 1))
	(Beam (index 112)(data begin)(number 1)(part_index 1))
	(Beam (index 113)(data end)(number 1)(part_index 1))
	(Beam (index 114)(data begin)(number 1)(part_index 1))
	(Beam (index 115)(data begin)(number 2)(part_index 1))
	(Beam (index 116)(data continue)(number 1)(part_index 1))
	(Beam (index 117)(data continue)(number 2)(part_index 1))
	(Beam (index 118)(data continue)(number 1)(part_index 1))
	(Beam (index 119)(data continue)(number 2)(part_index 1))
	(Beam (index 120)(data end)(number 1)(part_index 1))
	(Beam (index 121)(data end)(number 2)(part_index 1))
	(Beam (index 122)(data begin)(number 1)(part_index 1))
	(Beam (index 123)(data end)(number 1)(part_index 1))
)

(deffacts keys
	(Key (index 0)(fifths 0)(part_index 1))
)

(deffacts times
	(Time (index 0)(beats 2)(beat_type 4)(part_index 1))
)

(deffacts transposes
)

(deffacts directions
	(Direction (index 0)(placement above)(direction_type_index 0)(sound_index 0)(part_index 1))
)

(deffacts direction_types
	(Direction_Type (index 0)(metronome_index 0)(part_index 1))
)

(deffacts metronomes
	(Metronome (index 0)(parentheses no)(default_x -39.76)(relative_y 20.00)(beat_unit quarter)(per_minute 70)(part_index 1))
)

(deffacts sounds
	(Sound (index 0)(tempo 70)(part_index 1))
)

(deffacts clefs
	(Clef (index 0)(sign G)(line 2)(clef_octave_change -1)(part_index 1))
)

(deffacts barlines
	(Barline (index 0)(location right)(bar_style light-heavy)(part_index 1))
)

(deffacts ties
)

(deffacts instruments
)

(deffacts prints
)

(deffacts notationss
)

(deffacts backups
)

(deffacts unpitcheds
	(Unpitched (index 0)(part_index -1)(display_step A))
)

(deffacts articulationss
)

(deffacts repeats
)

(deffacts staff_layouts
)

(deffacts tieds
)

(deffacts system_layouts
)

(deffacts system_marginss
)

