(deftemplate Part
	(slot id)
	(slot index)
	(slot part_index)
	(multislot measure)
)

(deftemplate Attributes
	(slot divisions)
	(slot clef_index)
	(slot index)
	(slot part_index)
	(slot time_index)
	(slot key_index)
)

(deftemplate Measure
	(slot barline_index)
	(slot width)
	(slot direction_index)
	(slot index)
	(slot number)
	(slot part_index)
	(slot attributes_index)
	(multislot note)
)

(deftemplate Note
	(slot tie_index)
	(slot dynamics)
	(slot index)
	(slot default_y)
	(slot duration)
	(slot lyric_index)
	(slot stem)
	(slot accidental)
	(slot voice)
	(slot type)
	(slot notations_index)
	(slot beam_index)
	(slot pitch_index)
	(slot default_x)
	(slot part_index)
)

(deftemplate Pitch
	(slot index)
	(slot part_index)
	(slot octave)
	(slot alter)
	(slot step)
)

(deftemplate Beam
	(slot number)
	(slot index)
	(slot data)
	(slot part_index)
)

(deftemplate Key
	(slot fifths)
	(slot index)
	(slot part_index)
)

(deftemplate Time
	(slot beat_type)
	(slot index)
	(slot beats)
	(slot part_index)
)

(deftemplate Transpose
)

(deftemplate Direction
	(slot index)
	(slot placement)
	(slot part_index)
	(slot direction_type_index)
	(slot sound_index)
)

(deftemplate Direction_Type
	(slot metronome_index)
	(slot index)
	(slot part_index)
)

(deftemplate Metronome
	(slot per_minute)
	(slot index)
	(slot default_x)
	(slot part_index)
	(slot parentheses)
	(slot relative_y)
	(slot beat_unit)
)

(deftemplate Sound
	(slot tempo)
	(slot index)
	(slot part_index)
)

(deftemplate Clef
	(slot sign)
	(slot line)
	(slot index)
	(slot part_index)
)

(deftemplate Barline
	(slot bar_style)
	(slot location)
	(slot index)
	(slot part_index)
)

(deftemplate Tie
	(slot type)
	(slot index)
	(slot part_index)
)

(deftemplate Instrument
)

(deftemplate Print
)

(deftemplate Notations
	(slot tied_index)
	(slot index)
	(slot part_index)
)

(deftemplate Backup
)

(deftemplate Unpitched
	(slot display_step)
	(slot index)
	(slot part_index)
)

(deftemplate Articulations
)

(deftemplate Repeat
)

(deftemplate Staff_layout
)

(deftemplate Tied
	(slot type)
	(slot index)
	(slot part_index)
)

(deftemplate System_layout
)

(deftemplate System_margins
)

(deffacts parts
	(Part (index 0)(id P1)(measure 0 1 2 3 4 5 6 7 8 9 10 11 12 13 14 15 16 17 18 19 20 21 22 23 24 25 26 27 28 29 30 31 32)(part_index 1))
)

(deffacts attributess
	(Attributes (index 0)(divisions 2)(key_index 0)(time_index 0)(clef_index 0)(part_index 1))
)

(deffacts measures
	(Measure (index 0)(number 1)(width 327.42)(attributes_index 0)(direction_index 0)(note 0 1 2 3 4 5 6 7)(part_index 1))
	(Measure (index 1)(number 2)(width 183.17)(note 8 9 10 11 12 13 14 15)(part_index 1))
	(Measure (index 2)(number 3)(width 219.65)(note 16 17 18 19 20 21 22 23)(part_index 1))
	(Measure (index 3)(number 4)(width 164.37)(note 24 25 26 27 28 29 30)(part_index 1))
	(Measure (index 4)(number 5)(width 182.87)(note 31 32 33 34 35 36 37)(part_index 1))
	(Measure (index 5)(number 6)(width 259.91)(note 38 39 40 41 42 43 44 45)(part_index 1))
	(Measure (index 6)(number 7)(width 199.84)(note 46 47 48 49 50 51 52 53)(part_index 1))
	(Measure (index 7)(number 8)(width 190.72)(note 54 55 56 57 58 59 60 61)(part_index 1))
	(Measure (index 8)(number 9)(width 236.32)(note 62 63 64 65 66 67 68 69)(part_index 1))
	(Measure (index 9)(number 10)(width 190.72)(note 70 71 72 73 74 75 76 77)(part_index 1))
	(Measure (index 10)(number 11)(width 302.03)(note 78 79 80 81 82 83 84 85)(part_index 1))
	(Measure (index 11)(number 12)(width 177.56)(note 86 87 88 89 90 91 92)(part_index 1))
	(Measure (index 12)(number 13)(width 196.06)(note 93 94 95 96 97 98 99)(part_index 1))
	(Measure (index 13)(number 14)(width 196.36)(note 100 101 102 103 104 105 106 107)(part_index 1))
	(Measure (index 14)(number 15)(width 205.48)(note 108 109 110 111 112 113 114 115)(part_index 1))
	(Measure (index 15)(number 16)(width 269.06)(note 116 117 118 119 120 121 122 123)(part_index 1))
	(Measure (index 16)(number 17)(width 182.01)(note 124 125 126 127 128 129 130)(part_index 1))
	(Measure (index 17)(number 18)(width 217.55)(note 131 132 133 134 135 136 137)(part_index 1))
	(Measure (index 18)(number 19)(width 199.87)(note 138 139 140 141 142 143 144 145)(part_index 1))
	(Measure (index 19)(number 20)(width 208.99)(note 146 147 148 149 150 151 152 153)(part_index 1))
	(Measure (index 20)(number 21)(width 267.13)(note 154 155 156 157 158 159 160 161)(part_index 1))
	(Measure (index 21)(number 22)(width 225.30)(note 162 163 164 165 166 167 168 169)(part_index 1))
	(Measure (index 22)(number 23)(width 207.06)(note 170 171 172 173 174 175 176 177)(part_index 1))
	(Measure (index 23)(number 24)(width 197.94)(note 178 179 180 181 182 183 184 185)(part_index 1))
	(Measure (index 24)(number 25)(width 180.08)(note 186 187 188 189 190 191 192)(part_index 1))
	(Measure (index 25)(number 26)(width 277.70)(note 193 194 195 196 197 198 199)(part_index 1))
	(Measure (index 26)(number 27)(width 190.83)(note 200 201 202 203 204 205 206 207)(part_index 1))
	(Measure (index 27)(number 28)(width 199.95)(note 208 209 210 211 212 213 214 215)(part_index 1))
	(Measure (index 28)(number 29)(width 190.83)(note 216 217 218 219 220 221 222 223)(part_index 1))
	(Measure (index 29)(number 30)(width 218.19)(note 224 225 226 227 228 229 230 231)(part_index 1))
	(Measure (index 30)(number 31)(width 444.86)(note 232 233 234 235 236 237 238 239)(part_index 1))
	(Measure (index 31)(number 32)(width 347.75)(note 240 241 242 243 244 245 246)(part_index 1))
	(Measure (index 32)(number 33)(width 284.88)(note 247 248 249)(barline_index 0)(part_index 1))
)

(deffacts notes
	(Note (index 0)(default_x 104.08)(default_y -55.00)(dynamics 100.00)(pitch_index 0)(duration 1)(voice 1)(type eighth)(stem up)(beam_index 0)(lyric_index 886)(part_index 1))
	(Note (index 1)(default_x 131.80)(default_y -60.00)(dynamics 100.00)(pitch_index 1)(duration 1)(voice 1)(type eighth)(stem up)(beam_index 1)(part_index 1))
	(Note (index 2)(default_x 159.52)(default_y -65.00)(dynamics 100.00)(pitch_index 2)(duration 1)(voice 1)(type eighth)(stem up)(beam_index 2)(part_index 1))
	(Note (index 3)(default_x 187.23)(default_y -60.00)(dynamics 100.00)(pitch_index 3)(duration 1)(voice 1)(type eighth)(stem up)(beam_index 3)(part_index 1))
	(Note (index 4)(default_x 214.95)(default_y -55.00)(dynamics 100.00)(pitch_index 4)(duration 1)(voice 1)(type eighth)(stem up)(beam_index 4)(part_index 1))
	(Note (index 5)(default_x 242.67)(default_y -50.00)(dynamics 100.00)(pitch_index 5)(duration 1)(voice 1)(type eighth)(stem up)(beam_index 5)(part_index 1))
	(Note (index 6)(default_x 270.38)(default_y -45.00)(dynamics 100.00)(pitch_index 6)(duration 1)(voice 1)(type eighth)(stem up)(beam_index 6)(part_index 1))
	(Note (index 7)(default_x 298.10)(default_y -35.00)(dynamics 100.00)(pitch_index 7)(duration 1)(voice 1)(type eighth)(stem up)(beam_index 7)(part_index 1))
	(Note (index 8)(default_x 10.00)(default_y -30.00)(dynamics 100.00)(pitch_index 8)(duration 1)(voice 1)(type eighth)(stem down)(beam_index 8)(part_index 1))
	(Note (index 9)(default_x 31.20)(default_y -25.00)(dynamics 100.00)(pitch_index 9)(duration 1)(voice 1)(type eighth)(stem down)(beam_index 9)(part_index 1))
	(Note (index 10)(default_x 52.40)(default_y -20.00)(dynamics 100.00)(pitch_index 10)(duration 1)(voice 1)(type eighth)(stem down)(beam_index 10)(part_index 1))
	(Note (index 11)(default_x 73.60)(default_y -10.00)(dynamics 100.00)(pitch_index 11)(duration 1)(voice 1)(type eighth)(stem down)(beam_index 11)(part_index 1))
	(Note (index 12)(default_x 94.80)(default_y -20.00)(dynamics 100.00)(pitch_index 12)(duration 1)(voice 1)(type eighth)(stem up)(beam_index 12)(part_index 1))
	(Note (index 13)(default_x 116.01)(default_y -25.00)(dynamics 100.00)(pitch_index 13)(duration 1)(voice 1)(type eighth)(stem up)(beam_index 13)(part_index 1))
	(Note (index 14)(default_x 137.21)(default_y -30.00)(dynamics 100.00)(pitch_index 14)(duration 1)(voice 1)(type eighth)(stem up)(beam_index 14)(part_index 1))
	(Note (index 15)(default_x 158.41)(default_y -40.00)(dynamics 100.00)(pitch_index 15)(duration 1)(voice 1)(type eighth)(stem up)(beam_index 15)(part_index 1))
	(Note (index 16)(default_x 10.00)(default_y -45.00)(dynamics 100.00)(pitch_index 16)(duration 1)(voice 1)(type eighth)(stem up)(beam_index 16)(part_index 1))
	(Note (index 17)(default_x 36.01)(default_y -55.00)(dynamics 100.00)(pitch_index 17)(duration 1)(voice 1)(type eighth)(stem up)(beam_index 17)(part_index 1))
	(Note (index 18)(default_x 62.01)(default_y -50.00)(dynamics 100.00)(pitch_index 18)(duration 1)(voice 1)(type eighth)(stem up)(beam_index 18)(part_index 1))
	(Note (index 19)(default_x 88.02)(default_y -55.00)(dynamics 100.00)(pitch_index 19)(duration 1)(voice 1)(type eighth)(stem up)(beam_index 19)(part_index 1))
	(Note (index 20)(default_x 114.03)(default_y -50.00)(dynamics 100.00)(pitch_index 20)(duration 1)(voice 1)(type eighth)(stem up)(beam_index 20)(part_index 1))
	(Note (index 21)(default_x 140.03)(default_y -45.00)(dynamics 100.00)(pitch_index 21)(duration 1)(voice 1)(type eighth)(stem up)(beam_index 21)(part_index 1))
	(Note (index 22)(default_x 166.04)(default_y -40.00)(dynamics 100.00)(pitch_index 22)(duration 1)(voice 1)(type eighth)(stem up)(beam_index 22)(part_index 1))
	(Note (index 23)(default_x 192.05)(default_y -30.00)(dynamics 100.00)(pitch_index 23)(duration 1)(voice 1)(type eighth)(stem up)(beam_index 23)(part_index 1))
	(Note (index 24)(default_x 10.00)(default_y -15.00)(dynamics 100.00)(pitch_index 24)(duration 1)(voice 1)(type eighth)(stem down)(beam_index 24)(part_index 1))
	(Note (index 25)(default_x 30.10)(default_y -10.00)(dynamics 100.00)(pitch_index 25)(duration 1)(voice 1)(type eighth)(stem down)(beam_index 25)(part_index 1))
	(Note (index 26)(default_x 50.20)(default_y -5.00)(dynamics 100.00)(pitch_index 26)(duration 1)(voice 1)(type eighth)(stem down)(beam_index 26)(part_index 1))
	(Note (index 27)(default_x 70.31)(default_y 5.00)(dynamics 100.00)(pitch_index 27)(duration 1)(voice 1)(type eighth)(stem down)(beam_index 27)(part_index 1))
	(Note (index 28)(default_x 90.41)(default_y -5.00)(dynamics 100.00)(pitch_index 28)(duration 1)(voice 1)(type eighth)(stem down)(beam_index 28)(part_index 1))
	(Note (index 29)(default_x 110.51)(default_y -10.00)(dynamics 100.00)(pitch_index 29)(duration 1)(voice 1)(type eighth)(stem down)(beam_index 29)(part_index 1))
	(Note (index 30)(default_x 130.61)(default_y -15.00)(dynamics 100.00)(pitch_index 30)(duration 2)(tie_index 0)(voice 1)(type quarter)(stem down)(notations_index 0)(part_index 1))
	(Note (index 31)(default_x 10.00)(default_y -15.00)(dynamics 100.00)(pitch_index 31)(duration 2)(tie_index 1)(voice 1)(type quarter)(stem down)(notations_index 1)(part_index 1))
	(Note (index 32)(default_x 43.44)(default_y -45.00)(dynamics 100.00)(pitch_index 32)(duration 1)(voice 1)(type eighth)(stem up)(beam_index 30)(part_index 1))
	(Note (index 33)(default_x 64.33)(default_y -40.00)(dynamics 100.00)(pitch_index 33)(duration 1)(voice 1)(type eighth)(stem up)(beam_index 31)(part_index 1))
	(Note (index 34)(default_x 85.23)(default_y -35.00)(dynamics 100.00)(pitch_index 34)(duration 1)(voice 1)(type eighth)(stem up)(beam_index 32)(part_index 1))
	(Note (index 35)(default_x 106.13)(default_y -30.00)(dynamics 100.00)(pitch_index 35)(duration 1)(voice 1)(type eighth)(stem up)(beam_index 33)(part_index 1))
	(Note (index 36)(default_x 127.03)(default_y -25.00)(dynamics 100.00)(pitch_index 36)(duration 1)(voice 1)(type eighth)(stem up)(beam_index 34)(part_index 1))
	(Note (index 37)(default_x 158.11)(default_y -15.00)(dynamics 100.00)(pitch_index 37)(duration 1)(voice 1)(type eighth)(accidental sharp)(stem up)(beam_index 35)(part_index 1))
	(Note (index 38)(default_x 79.19)(default_y -10.00)(dynamics 100.00)(pitch_index 38)(duration 1)(voice 1)(type eighth)(stem down)(beam_index 36)(part_index 1))
	(Note (index 39)(default_x 101.47)(default_y -5.00)(dynamics 100.00)(pitch_index 39)(duration 1)(voice 1)(type eighth)(stem down)(beam_index 37)(part_index 1))
	(Note (index 40)(default_x 123.75)(default_y 0.00)(dynamics 100.00)(pitch_index 40)(duration 1)(voice 1)(type eighth)(stem down)(beam_index 38)(part_index 1))
	(Note (index 41)(default_x 146.03)(default_y 10.00)(dynamics 100.00)(pitch_index 41)(duration 1)(voice 1)(type eighth)(stem down)(beam_index 39)(part_index 1))
	(Note (index 42)(default_x 168.31)(default_y 0.00)(dynamics 100.00)(pitch_index 42)(duration 1)(voice 1)(type eighth)(stem down)(beam_index 40)(part_index 1))
	(Note (index 43)(default_x 190.58)(default_y -5.00)(dynamics 100.00)(pitch_index 43)(duration 1)(voice 1)(type eighth)(stem down)(beam_index 41)(part_index 1))
	(Note (index 44)(default_x 212.86)(default_y -10.00)(dynamics 100.00)(pitch_index 44)(duration 1)(voice 1)(type eighth)(stem down)(beam_index 42)(part_index 1))
	(Note (index 45)(default_x 235.14)(default_y 0.00)(dynamics 100.00)(pitch_index 45)(duration 1)(voice 1)(type eighth)(stem down)(beam_index 43)(part_index 1))
	(Note (index 46)(default_x 10.00)(default_y -5.00)(dynamics 100.00)(pitch_index 46)(duration 1)(voice 1)(type eighth)(stem down)(beam_index 44)(part_index 1))
	(Note (index 47)(default_x 33.53)(default_y -10.00)(dynamics 100.00)(pitch_index 47)(duration 1)(voice 1)(type eighth)(stem down)(beam_index 45)(part_index 1))
	(Note (index 48)(default_x 57.06)(default_y 5.00)(dynamics 100.00)(pitch_index 48)(duration 1)(voice 1)(type eighth)(stem down)(beam_index 46)(part_index 1))
	(Note (index 49)(default_x 80.59)(default_y 15.00)(dynamics 100.00)(pitch_index 49)(duration 1)(voice 1)(type eighth)(stem down)(beam_index 47)(part_index 1))
	(Note (index 50)(default_x 104.12)(default_y 5.00)(dynamics 100.00)(pitch_index 50)(duration 1)(voice 1)(type eighth)(stem down)(beam_index 48)(part_index 1))
	(Note (index 51)(default_x 127.65)(default_y -5.00)(dynamics 100.00)(pitch_index 51)(duration 1)(voice 1)(type eighth)(stem down)(beam_index 49)(part_index 1))
	(Note (index 52)(default_x 151.18)(default_y -10.00)(dynamics 100.00)(pitch_index 52)(duration 1)(voice 1)(type eighth)(stem down)(beam_index 50)(part_index 1))
	(Note (index 53)(default_x 174.71)(default_y -20.00)(dynamics 100.00)(pitch_index 53)(duration 1)(voice 1)(type eighth)(stem down)(beam_index 51)(part_index 1))
	(Note (index 54)(default_x 10.00)(default_y -25.00)(dynamics 100.00)(pitch_index 54)(duration 1)(voice 1)(type eighth)(stem up)(beam_index 52)(part_index 1))
	(Note (index 55)(default_x 32.28)(default_y -35.00)(dynamics 100.00)(pitch_index 55)(duration 1)(voice 1)(type eighth)(stem up)(beam_index 53)(part_index 1))
	(Note (index 56)(default_x 54.56)(default_y -30.00)(dynamics 100.00)(pitch_index 56)(duration 1)(voice 1)(type eighth)(stem up)(beam_index 54)(part_index 1))
	(Note (index 57)(default_x 76.84)(default_y -35.00)(dynamics 100.00)(pitch_index 57)(duration 1)(voice 1)(type eighth)(stem up)(beam_index 55)(part_index 1))
	(Note (index 58)(default_x 99.11)(default_y -25.00)(dynamics 100.00)(pitch_index 58)(duration 1)(voice 1)(type eighth)(stem up)(beam_index 56)(part_index 1))
	(Note (index 59)(default_x 121.39)(default_y -35.00)(dynamics 100.00)(pitch_index 59)(duration 1)(voice 1)(type eighth)(stem up)(beam_index 57)(part_index 1))
	(Note (index 60)(default_x 143.67)(default_y -30.00)(dynamics 100.00)(pitch_index 60)(duration 1)(voice 1)(type eighth)(stem up)(beam_index 58)(part_index 1))
	(Note (index 61)(default_x 165.95)(default_y -40.00)(dynamics 100.00)(pitch_index 61)(duration 1)(voice 1)(type eighth)(stem up)(beam_index 59)(part_index 1))
	(Note (index 62)(default_x 10.00)(default_y -45.00)(dynamics 100.00)(pitch_index 62)(duration 1)(voice 1)(type eighth)(stem up)(beam_index 60)(part_index 1))
	(Note (index 63)(default_x 38.09)(default_y -55.00)(dynamics 100.00)(pitch_index 63)(duration 1)(voice 1)(type eighth)(stem up)(beam_index 61)(part_index 1))
	(Note (index 64)(default_x 66.18)(default_y -65.00)(dynamics 100.00)(pitch_index 64)(duration 1)(voice 1)(type eighth)(stem up)(beam_index 62)(part_index 1))
	(Note (index 65)(default_x 94.27)(default_y -60.00)(dynamics 100.00)(pitch_index 65)(duration 1)(voice 1)(type eighth)(stem up)(beam_index 63)(part_index 1))
	(Note (index 66)(default_x 122.36)(default_y -55.00)(dynamics 100.00)(pitch_index 66)(duration 1)(voice 1)(type eighth)(stem up)(beam_index 64)(part_index 1))
	(Note (index 67)(default_x 150.45)(default_y -50.00)(dynamics 100.00)(pitch_index 67)(duration 1)(voice 1)(type eighth)(stem up)(beam_index 65)(part_index 1))
	(Note (index 68)(default_x 178.54)(default_y -45.00)(dynamics 100.00)(pitch_index 68)(duration 1)(voice 1)(type eighth)(stem up)(beam_index 66)(part_index 1))
	(Note (index 69)(default_x 206.63)(default_y -35.00)(dynamics 100.00)(pitch_index 69)(duration 1)(voice 1)(type eighth)(stem up)(beam_index 67)(part_index 1))
	(Note (index 70)(default_x 10.00)(default_y -30.00)(dynamics 100.00)(pitch_index 70)(duration 1)(voice 1)(type eighth)(stem down)(beam_index 68)(part_index 1))
	(Note (index 71)(default_x 32.28)(default_y -25.00)(dynamics 100.00)(pitch_index 71)(duration 1)(voice 1)(type eighth)(stem down)(beam_index 69)(part_index 1))
	(Note (index 72)(default_x 54.56)(default_y -20.00)(dynamics 100.00)(pitch_index 72)(duration 1)(voice 1)(type eighth)(stem down)(beam_index 70)(part_index 1))
	(Note (index 73)(default_x 76.84)(default_y -10.00)(dynamics 100.00)(pitch_index 73)(duration 1)(voice 1)(type eighth)(stem down)(beam_index 71)(part_index 1))
	(Note (index 74)(default_x 99.11)(default_y -20.00)(dynamics 100.00)(pitch_index 74)(duration 1)(voice 1)(type eighth)(stem up)(beam_index 72)(part_index 1))
	(Note (index 75)(default_x 121.39)(default_y -25.00)(dynamics 100.00)(pitch_index 75)(duration 1)(voice 1)(type eighth)(stem up)(beam_index 73)(part_index 1))
	(Note (index 76)(default_x 143.67)(default_y -30.00)(dynamics 100.00)(pitch_index 76)(duration 1)(voice 1)(type eighth)(stem up)(beam_index 74)(part_index 1))
	(Note (index 77)(default_x 165.95)(default_y -40.00)(dynamics 100.00)(pitch_index 77)(duration 1)(voice 1)(type eighth)(stem up)(beam_index 75)(part_index 1))
	(Note (index 78)(default_x 79.19)(default_y -45.00)(dynamics 100.00)(pitch_index 78)(duration 1)(voice 1)(type eighth)(stem up)(beam_index 76)(part_index 1))
	(Note (index 79)(default_x 106.85)(default_y -55.00)(dynamics 100.00)(pitch_index 79)(duration 1)(voice 1)(type eighth)(stem up)(beam_index 77)(part_index 1))
	(Note (index 80)(default_x 134.50)(default_y -50.00)(dynamics 100.00)(pitch_index 80)(duration 1)(voice 1)(type eighth)(stem up)(beam_index 78)(part_index 1))
	(Note (index 81)(default_x 162.16)(default_y -55.00)(dynamics 100.00)(pitch_index 81)(duration 1)(voice 1)(type eighth)(stem up)(beam_index 79)(part_index 1))
	(Note (index 82)(default_x 189.81)(default_y -50.00)(dynamics 100.00)(pitch_index 82)(duration 1)(voice 1)(type eighth)(stem up)(beam_index 80)(part_index 1))
	(Note (index 83)(default_x 217.47)(default_y -45.00)(dynamics 100.00)(pitch_index 83)(duration 1)(voice 1)(type eighth)(stem up)(beam_index 81)(part_index 1))
	(Note (index 84)(default_x 245.12)(default_y -40.00)(dynamics 100.00)(pitch_index 84)(duration 1)(voice 1)(type eighth)(stem up)(beam_index 82)(part_index 1))
	(Note (index 85)(default_x 272.78)(default_y -30.00)(dynamics 100.00)(pitch_index 85)(duration 1)(voice 1)(type eighth)(stem up)(beam_index 83)(part_index 1))
	(Note (index 86)(default_x 10.00)(default_y -15.00)(dynamics 100.00)(pitch_index 86)(duration 1)(voice 1)(type eighth)(stem down)(beam_index 84)(part_index 1))
	(Note (index 87)(default_x 31.84)(default_y -10.00)(dynamics 100.00)(pitch_index 87)(duration 1)(voice 1)(type eighth)(stem down)(beam_index 85)(part_index 1))
	(Note (index 88)(default_x 53.67)(default_y -5.00)(dynamics 100.00)(pitch_index 88)(duration 1)(voice 1)(type eighth)(stem down)(beam_index 86)(part_index 1))
	(Note (index 89)(default_x 75.51)(default_y 5.00)(dynamics 100.00)(pitch_index 89)(duration 1)(voice 1)(type eighth)(stem down)(beam_index 87)(part_index 1))
	(Note (index 90)(default_x 97.35)(default_y -5.00)(dynamics 100.00)(pitch_index 90)(duration 1)(voice 1)(type eighth)(stem down)(beam_index 88)(part_index 1))
	(Note (index 91)(default_x 119.19)(default_y -10.00)(dynamics 100.00)(pitch_index 91)(duration 1)(voice 1)(type eighth)(stem down)(beam_index 89)(part_index 1))
	(Note (index 92)(default_x 141.02)(default_y -15.00)(dynamics 100.00)(pitch_index 92)(duration 2)(tie_index 2)(voice 1)(type quarter)(stem down)(notations_index 2)(part_index 1))
	(Note (index 93)(default_x 10.00)(default_y -15.00)(dynamics 100.00)(pitch_index 93)(duration 2)(tie_index 3)(voice 1)(type quarter)(stem down)(notations_index 3)(part_index 1))
	(Note (index 94)(default_x 47.18)(default_y -45.00)(dynamics 100.00)(pitch_index 94)(duration 1)(voice 1)(type eighth)(stem up)(beam_index 90)(part_index 1))
	(Note (index 95)(default_x 70.42)(default_y -40.00)(dynamics 100.00)(pitch_index 95)(duration 1)(voice 1)(type eighth)(stem up)(beam_index 91)(part_index 1))
	(Note (index 96)(default_x 93.66)(default_y -35.00)(dynamics 100.00)(pitch_index 96)(duration 1)(voice 1)(type eighth)(stem up)(beam_index 92)(part_index 1))
	(Note (index 97)(default_x 116.90)(default_y -30.00)(dynamics 100.00)(pitch_index 97)(duration 1)(voice 1)(type eighth)(stem up)(beam_index 93)(part_index 1))
	(Note (index 98)(default_x 140.14)(default_y -25.00)(dynamics 100.00)(pitch_index 98)(duration 1)(voice 1)(type eighth)(stem up)(beam_index 94)(part_index 1))
	(Note (index 99)(default_x 171.22)(default_y -15.00)(dynamics 100.00)(pitch_index 99)(duration 1)(voice 1)(type eighth)(accidental sharp)(stem up)(beam_index 95)(part_index 1))
	(Note (index 100)(default_x 10.00)(default_y -10.00)(dynamics 100.00)(pitch_index 100)(duration 1)(voice 1)(type eighth)(stem down)(beam_index 96)(part_index 1))
	(Note (index 101)(default_x 33.08)(default_y -5.00)(dynamics 100.00)(pitch_index 101)(duration 1)(voice 1)(type eighth)(stem down)(beam_index 97)(part_index 1))
	(Note (index 102)(default_x 56.17)(default_y 0.00)(dynamics 100.00)(pitch_index 102)(duration 1)(voice 1)(type eighth)(stem down)(beam_index 98)(part_index 1))
	(Note (index 103)(default_x 79.25)(default_y 10.00)(dynamics 100.00)(pitch_index 103)(duration 1)(voice 1)(type eighth)(stem down)(beam_index 99)(part_index 1))
	(Note (index 104)(default_x 102.34)(default_y 0.00)(dynamics 100.00)(pitch_index 104)(duration 1)(voice 1)(type eighth)(stem down)(beam_index 100)(part_index 1))
	(Note (index 105)(default_x 125.42)(default_y -5.00)(dynamics 100.00)(pitch_index 105)(duration 1)(voice 1)(type eighth)(stem down)(beam_index 101)(part_index 1))
	(Note (index 106)(default_x 148.51)(default_y -10.00)(dynamics 100.00)(pitch_index 106)(duration 1)(voice 1)(type eighth)(stem down)(beam_index 102)(part_index 1))
	(Note (index 107)(default_x 171.59)(default_y 0.00)(dynamics 100.00)(pitch_index 107)(duration 1)(voice 1)(type eighth)(stem down)(beam_index 103)(part_index 1))
	(Note (index 108)(default_x 10.00)(default_y -5.00)(dynamics 100.00)(pitch_index 108)(duration 1)(voice 1)(type eighth)(stem down)(beam_index 104)(part_index 1))
	(Note (index 109)(default_x 34.24)(default_y -10.00)(dynamics 100.00)(pitch_index 109)(duration 1)(voice 1)(type eighth)(stem down)(beam_index 105)(part_index 1))
	(Note (index 110)(default_x 58.47)(default_y 5.00)(dynamics 100.00)(pitch_index 110)(duration 1)(voice 1)(type eighth)(stem down)(beam_index 106)(part_index 1))
	(Note (index 111)(default_x 82.71)(default_y 15.00)(dynamics 100.00)(pitch_index 111)(duration 1)(voice 1)(type eighth)(stem down)(beam_index 107)(part_index 1))
	(Note (index 112)(default_x 106.94)(default_y 5.00)(dynamics 100.00)(pitch_index 112)(duration 1)(voice 1)(type eighth)(stem down)(beam_index 108)(part_index 1))
	(Note (index 113)(default_x 131.18)(default_y -5.00)(dynamics 100.00)(pitch_index 113)(duration 1)(voice 1)(type eighth)(stem down)(beam_index 109)(part_index 1))
	(Note (index 114)(default_x 155.41)(default_y -10.00)(dynamics 100.00)(pitch_index 114)(duration 1)(voice 1)(type eighth)(stem down)(beam_index 110)(part_index 1))
	(Note (index 115)(default_x 179.65)(default_y -20.00)(dynamics 100.00)(pitch_index 115)(duration 1)(voice 1)(type eighth)(stem down)(beam_index 111)(part_index 1))
	(Note (index 116)(default_x 79.19)(default_y -25.00)(dynamics 100.00)(pitch_index 116)(duration 1)(voice 1)(type eighth)(stem up)(beam_index 112)(part_index 1))
	(Note (index 117)(default_x 102.72)(default_y -35.00)(dynamics 100.00)(pitch_index 117)(duration 1)(voice 1)(type eighth)(stem up)(beam_index 113)(part_index 1))
	(Note (index 118)(default_x 126.26)(default_y -30.00)(dynamics 100.00)(pitch_index 118)(duration 1)(voice 1)(type eighth)(stem up)(beam_index 114)(part_index 1))
	(Note (index 119)(default_x 149.79)(default_y -35.00)(dynamics 100.00)(pitch_index 119)(duration 1)(voice 1)(type eighth)(stem up)(beam_index 115)(part_index 1))
	(Note (index 120)(default_x 173.33)(default_y -25.00)(dynamics 100.00)(pitch_index 120)(duration 1)(voice 1)(type eighth)(stem up)(beam_index 116)(part_index 1))
	(Note (index 121)(default_x 196.86)(default_y -35.00)(dynamics 100.00)(pitch_index 121)(duration 1)(voice 1)(type eighth)(stem up)(beam_index 117)(part_index 1))
	(Note (index 122)(default_x 220.39)(default_y -30.00)(dynamics 100.00)(pitch_index 122)(duration 1)(voice 1)(type eighth)(stem up)(beam_index 118)(part_index 1))
	(Note (index 123)(default_x 243.93)(default_y -25.00)(dynamics 100.00)(pitch_index 123)(duration 1)(voice 1)(type eighth)(stem up)(beam_index 119)(part_index 1))
	(Note (index 124)(default_x 10.00)(default_y -20.00)(dynamics 100.00)(pitch_index 124)(duration 1)(voice 1)(type eighth)(stem down)(beam_index 120)(part_index 1))
	(Note (index 125)(default_x 32.42)(default_y -15.00)(dynamics 100.00)(pitch_index 125)(duration 1)(voice 1)(type eighth)(stem down)(beam_index 121)(part_index 1))
	(Note (index 126)(default_x 54.85)(default_y -10.00)(dynamics 100.00)(pitch_index 126)(duration 1)(voice 1)(type eighth)(stem down)(beam_index 122)(part_index 1))
	(Note (index 127)(default_x 77.27)(default_y 5.00)(dynamics 100.00)(pitch_index 127)(duration 1)(tie_index 4)(voice 1)(type eighth)(stem down)(beam_index 123)(notations_index 4)(part_index 1))
	(Note (index 128)(default_x 99.69)(default_y 5.00)(dynamics 100.00)(pitch_index 128)(duration 1)(tie_index 5)(voice 1)(type eighth)(stem down)(beam_index 124)(notations_index 5)(part_index 1))
	(Note (index 129)(default_x 122.11)(default_y -10.00)(dynamics 100.00)(pitch_index 129)(duration 1)(voice 1)(type eighth)(stem down)(beam_index 125)(part_index 1))
	(Note (index 130)(default_x 144.54)(default_y 5.00)(dynamics 100.00)(pitch_index 130)(duration 2)(tie_index 6)(voice 1)(type quarter)(stem down)(notations_index 6)(part_index 1))
	(Note (index 131)(default_x 10.00)(default_y 5.00)(dynamics 100.00)(pitch_index 131)(duration 2)(tie_index 7)(voice 1)(type quarter)(stem down)(notations_index 7)(part_index 1))
	(Note (index 132)(default_x 53.36)(default_y 15.00)(dynamics 100.00)(pitch_index 132)(duration 1)(voice 1)(type eighth)(stem down)(beam_index 126)(part_index 1))
	(Note (index 133)(default_x 80.46)(default_y 10.00)(dynamics 100.00)(pitch_index 133)(duration 1)(voice 1)(type eighth)(stem down)(beam_index 127)(part_index 1))
	(Note (index 134)(default_x 107.56)(default_y 5.00)(dynamics 100.00)(pitch_index 134)(duration 1)(voice 1)(type eighth)(stem down)(beam_index 128)(part_index 1))
	(Note (index 135)(default_x 134.66)(default_y 15.00)(dynamics 100.00)(pitch_index 135)(duration 1)(voice 1)(type eighth)(stem down)(beam_index 129)(part_index 1))
	(Note (index 136)(default_x 161.76)(default_y 10.00)(dynamics 100.00)(pitch_index 136)(duration 1)(voice 1)(type eighth)(stem down)(beam_index 130)(part_index 1))
	(Note (index 137)(default_x 188.85)(default_y 5.00)(dynamics 100.00)(pitch_index 137)(duration 1)(voice 1)(type eighth)(stem down)(beam_index 131)(part_index 1))
	(Note (index 138)(default_x 10.00)(default_y -5.00)(dynamics 100.00)(pitch_index 138)(duration 1)(voice 1)(type eighth)(stem down)(beam_index 132)(part_index 1))
	(Note (index 139)(default_x 33.53)(default_y -10.00)(dynamics 100.00)(pitch_index 139)(duration 1)(voice 1)(type eighth)(stem down)(beam_index 133)(part_index 1))
	(Note (index 140)(default_x 57.07)(default_y -15.00)(dynamics 100.00)(pitch_index 140)(duration 1)(voice 1)(type eighth)(stem down)(beam_index 134)(part_index 1))
	(Note (index 141)(default_x 80.60)(default_y -10.00)(dynamics 100.00)(pitch_index 141)(duration 1)(voice 1)(type eighth)(stem down)(beam_index 135)(part_index 1))
	(Note (index 142)(default_x 104.14)(default_y -15.00)(dynamics 100.00)(pitch_index 142)(duration 1)(voice 1)(type eighth)(stem down)(beam_index 136)(part_index 1))
	(Note (index 143)(default_x 127.67)(default_y -10.00)(dynamics 100.00)(pitch_index 143)(duration 1)(voice 1)(type eighth)(stem down)(beam_index 137)(part_index 1))
	(Note (index 144)(default_x 151.20)(default_y -5.00)(dynamics 100.00)(pitch_index 144)(duration 1)(voice 1)(type eighth)(stem down)(beam_index 138)(part_index 1))
	(Note (index 145)(default_x 174.74)(default_y -15.00)(dynamics 100.00)(pitch_index 145)(duration 1)(voice 1)(type eighth)(stem down)(beam_index 139)(part_index 1))
	(Note (index 146)(default_x 10.00)(default_y -5.00)(dynamics 100.00)(pitch_index 146)(duration 1)(voice 1)(type eighth)(stem down)(beam_index 140)(part_index 1))
	(Note (index 147)(default_x 34.67)(default_y 0.00)(dynamics 100.00)(pitch_index 147)(duration 1)(voice 1)(type eighth)(stem down)(beam_index 141)(part_index 1))
	(Note (index 148)(default_x 59.35)(default_y 5.00)(dynamics 100.00)(pitch_index 148)(duration 1)(voice 1)(type eighth)(stem down)(beam_index 142)(part_index 1))
	(Note (index 149)(default_x 84.02)(default_y -5.00)(dynamics 100.00)(pitch_index 149)(duration 1)(voice 1)(type eighth)(stem down)(beam_index 143)(part_index 1))
	(Note (index 150)(default_x 108.70)(default_y 0.00)(dynamics 100.00)(pitch_index 150)(duration 1)(voice 1)(type eighth)(stem down)(beam_index 144)(part_index 1))
	(Note (index 151)(default_x 133.37)(default_y 5.00)(dynamics 100.00)(pitch_index 151)(duration 1)(voice 1)(type eighth)(stem down)(beam_index 145)(part_index 1))
	(Note (index 152)(default_x 158.04)(default_y 10.00)(dynamics 100.00)(pitch_index 152)(duration 1)(voice 1)(type eighth)(stem down)(beam_index 146)(part_index 1))
	(Note (index 153)(default_x 182.72)(default_y 5.00)(dynamics 100.00)(pitch_index 153)(duration 1)(voice 1)(type eighth)(stem down)(beam_index 147)(part_index 1))
	(Note (index 154)(default_x 79.19)(default_y -5.00)(dynamics 100.00)(pitch_index 154)(duration 1)(voice 1)(type eighth)(stem down)(beam_index 148)(part_index 1))
	(Note (index 155)(default_x 102.48)(default_y -15.00)(dynamics 100.00)(pitch_index 155)(duration 1)(voice 1)(type eighth)(stem down)(beam_index 149)(part_index 1))
	(Note (index 156)(default_x 125.77)(default_y -10.00)(dynamics 100.00)(pitch_index 156)(duration 1)(voice 1)(type eighth)(stem down)(beam_index 150)(part_index 1))
	(Note (index 157)(default_x 149.07)(default_y -15.00)(dynamics 100.00)(pitch_index 157)(duration 1)(voice 1)(type eighth)(stem down)(beam_index 151)(part_index 1))
	(Note (index 158)(default_x 172.36)(default_y -10.00)(dynamics 100.00)(pitch_index 158)(duration 1)(voice 1)(type eighth)(stem down)(beam_index 152)(part_index 1))
	(Note (index 159)(default_x 195.65)(default_y -5.00)(dynamics 100.00)(pitch_index 159)(duration 1)(voice 1)(type eighth)(stem down)(beam_index 153)(part_index 1))
	(Note (index 160)(default_x 218.94)(default_y 0.00)(dynamics 100.00)(pitch_index 160)(duration 1)(voice 1)(type eighth)(stem down)(beam_index 154)(part_index 1))
	(Note (index 161)(default_x 242.23)(default_y -10.00)(dynamics 100.00)(pitch_index 161)(duration 1)(voice 1)(type eighth)(stem down)(beam_index 155)(part_index 1))
	(Note (index 162)(default_x 10.00)(default_y 0.00)(dynamics 100.00)(pitch_index 162)(duration 1)(voice 1)(type eighth)(stem down)(beam_index 156)(part_index 1))
	(Note (index 163)(default_x 36.71)(default_y 5.00)(dynamics 100.00)(pitch_index 163)(duration 1)(voice 1)(type eighth)(stem down)(beam_index 157)(part_index 1))
	(Note (index 164)(default_x 63.42)(default_y 10.00)(dynamics 100.00)(pitch_index 164)(duration 1)(voice 1)(type eighth)(stem down)(beam_index 158)(part_index 1))
	(Note (index 165)(default_x 90.14)(default_y 15.00)(dynamics 100.00)(pitch_index 165)(duration 1)(voice 1)(type eighth)(stem down)(beam_index 159)(part_index 1))
	(Note (index 166)(default_x 116.85)(default_y 10.00)(dynamics 100.00)(pitch_index 166)(duration 1)(voice 1)(type eighth)(stem down)(beam_index 160)(part_index 1))
	(Note (index 167)(default_x 143.56)(default_y 5.00)(dynamics 100.00)(pitch_index 167)(duration 1)(voice 1)(type eighth)(stem down)(beam_index 161)(part_index 1))
	(Note (index 168)(default_x 170.27)(default_y 0.00)(dynamics 100.00)(pitch_index 168)(duration 1)(voice 1)(type eighth)(stem down)(beam_index 162)(part_index 1))
	(Note (index 169)(default_x 196.98)(default_y -10.00)(dynamics 100.00)(pitch_index 169)(duration 1)(voice 1)(type eighth)(stem down)(beam_index 163)(part_index 1))
	(Note (index 170)(default_x 10.00)(default_y -5.00)(dynamics 100.00)(pitch_index 170)(duration 1)(voice 1)(type eighth)(stem down)(beam_index 164)(part_index 1))
	(Note (index 171)(default_x 34.43)(default_y 0.00)(dynamics 100.00)(pitch_index 171)(duration 1)(voice 1)(type eighth)(stem down)(beam_index 165)(part_index 1))
	(Note (index 172)(default_x 58.86)(default_y 5.00)(dynamics 100.00)(pitch_index 172)(duration 1)(voice 1)(type eighth)(stem down)(beam_index 166)(part_index 1))
	(Note (index 173)(default_x 83.30)(default_y 15.00)(dynamics 100.00)(pitch_index 173)(duration 1)(voice 1)(type eighth)(stem down)(beam_index 167)(part_index 1))
	(Note (index 174)(default_x 107.73)(default_y 5.00)(dynamics 100.00)(pitch_index 174)(duration 1)(voice 1)(type eighth)(stem down)(beam_index 168)(part_index 1))
	(Note (index 175)(default_x 132.16)(default_y -5.00)(dynamics 100.00)(pitch_index 175)(duration 1)(voice 1)(type eighth)(stem down)(beam_index 169)(part_index 1))
	(Note (index 176)(default_x 156.59)(default_y -10.00)(dynamics 100.00)(pitch_index 176)(duration 1)(voice 1)(type eighth)(stem down)(beam_index 170)(part_index 1))
	(Note (index 177)(default_x 181.02)(default_y -20.00)(dynamics 100.00)(pitch_index 177)(duration 1)(voice 1)(type eighth)(stem down)(beam_index 171)(part_index 1))
	(Note (index 178)(default_x 10.00)(default_y -25.00)(dynamics 100.00)(pitch_index 178)(duration 1)(voice 1)(type eighth)(stem up)(beam_index 172)(part_index 1))
	(Note (index 179)(default_x 33.29)(default_y -35.00)(dynamics 100.00)(pitch_index 179)(duration 1)(voice 1)(type eighth)(stem up)(beam_index 173)(part_index 1))
	(Note (index 180)(default_x 56.58)(default_y -30.00)(dynamics 100.00)(pitch_index 180)(duration 1)(voice 1)(type eighth)(stem up)(beam_index 174)(part_index 1))
	(Note (index 181)(default_x 79.88)(default_y -35.00)(dynamics 100.00)(pitch_index 181)(duration 1)(voice 1)(type eighth)(stem up)(beam_index 175)(part_index 1))
	(Note (index 182)(default_x 103.17)(default_y -25.00)(dynamics 100.00)(pitch_index 182)(duration 1)(voice 1)(type eighth)(stem up)(beam_index 176)(part_index 1))
	(Note (index 183)(default_x 126.46)(default_y -35.00)(dynamics 100.00)(pitch_index 183)(duration 1)(voice 1)(type eighth)(stem up)(beam_index 177)(part_index 1))
	(Note (index 184)(default_x 149.75)(default_y -30.00)(dynamics 100.00)(pitch_index 184)(duration 1)(voice 1)(type eighth)(stem up)(beam_index 178)(part_index 1))
	(Note (index 185)(default_x 173.04)(default_y -25.00)(dynamics 100.00)(pitch_index 185)(duration 1)(voice 1)(type eighth)(stem up)(beam_index 179)(part_index 1))
	(Note (index 186)(default_x 10.00)(default_y -20.00)(dynamics 100.00)(pitch_index 186)(duration 1)(voice 1)(type eighth)(stem down)(beam_index 180)(part_index 1))
	(Note (index 187)(default_x 32.17)(default_y -15.00)(dynamics 100.00)(pitch_index 187)(duration 1)(voice 1)(type eighth)(stem down)(beam_index 181)(part_index 1))
	(Note (index 188)(default_x 54.34)(default_y -10.00)(dynamics 100.00)(pitch_index 188)(duration 1)(voice 1)(type eighth)(stem down)(beam_index 182)(part_index 1))
	(Note (index 189)(default_x 76.50)(default_y 5.00)(dynamics 100.00)(pitch_index 189)(duration 1)(tie_index 8)(voice 1)(type eighth)(stem down)(beam_index 183)(notations_index 8)(part_index 1))
	(Note (index 190)(default_x 98.67)(default_y 5.00)(dynamics 100.00)(pitch_index 190)(duration 1)(tie_index 9)(voice 1)(type eighth)(stem down)(beam_index 184)(notations_index 9)(part_index 1))
	(Note (index 191)(default_x 120.84)(default_y -10.00)(dynamics 100.00)(pitch_index 191)(duration 1)(voice 1)(type eighth)(stem down)(beam_index 185)(part_index 1))
	(Note (index 192)(default_x 143.01)(default_y 5.00)(dynamics 100.00)(pitch_index 192)(duration 2)(tie_index 10)(voice 1)(type quarter)(stem down)(notations_index 10)(part_index 1))
	(Note (index 193)(default_x 79.19)(default_y 5.00)(dynamics 100.00)(pitch_index 193)(duration 2)(tie_index 11)(voice 1)(type quarter)(stem down)(notations_index 11)(part_index 1))
	(Note (index 194)(default_x 120.65)(default_y 15.00)(dynamics 100.00)(pitch_index 194)(duration 1)(voice 1)(type eighth)(stem down)(beam_index 186)(part_index 1))
	(Note (index 195)(default_x 146.55)(default_y 10.00)(dynamics 100.00)(pitch_index 195)(duration 1)(voice 1)(type eighth)(stem down)(beam_index 187)(part_index 1))
	(Note (index 196)(default_x 172.46)(default_y 5.00)(dynamics 100.00)(pitch_index 196)(duration 1)(voice 1)(type eighth)(stem down)(beam_index 188)(part_index 1))
	(Note (index 197)(default_x 198.37)(default_y 15.00)(dynamics 100.00)(pitch_index 197)(duration 1)(voice 1)(type eighth)(stem down)(beam_index 189)(part_index 1))
	(Note (index 198)(default_x 224.28)(default_y 10.00)(dynamics 100.00)(pitch_index 198)(duration 1)(voice 1)(type eighth)(stem down)(beam_index 190)(part_index 1))
	(Note (index 199)(default_x 250.19)(default_y 5.00)(dynamics 100.00)(pitch_index 199)(duration 1)(voice 1)(type eighth)(stem down)(beam_index 191)(part_index 1))
	(Note (index 200)(default_x 10.00)(default_y -5.00)(dynamics 100.00)(pitch_index 200)(duration 1)(voice 1)(type eighth)(stem down)(beam_index 192)(part_index 1))
	(Note (index 201)(default_x 32.29)(default_y -10.00)(dynamics 100.00)(pitch_index 201)(duration 1)(voice 1)(type eighth)(stem down)(beam_index 193)(part_index 1))
	(Note (index 202)(default_x 54.59)(default_y -15.00)(dynamics 100.00)(pitch_index 202)(duration 1)(voice 1)(type eighth)(stem down)(beam_index 194)(part_index 1))
	(Note (index 203)(default_x 76.88)(default_y -10.00)(dynamics 100.00)(pitch_index 203)(duration 1)(voice 1)(type eighth)(stem down)(beam_index 195)(part_index 1))
	(Note (index 204)(default_x 99.18)(default_y -15.00)(dynamics 100.00)(pitch_index 204)(duration 1)(voice 1)(type eighth)(stem down)(beam_index 196)(part_index 1))
	(Note (index 205)(default_x 121.47)(default_y -10.00)(dynamics 100.00)(pitch_index 205)(duration 1)(voice 1)(type eighth)(stem down)(beam_index 197)(part_index 1))
	(Note (index 206)(default_x 143.77)(default_y -5.00)(dynamics 100.00)(pitch_index 206)(duration 1)(voice 1)(type eighth)(stem down)(beam_index 198)(part_index 1))
	(Note (index 207)(default_x 166.06)(default_y -15.00)(dynamics 100.00)(pitch_index 207)(duration 1)(voice 1)(type eighth)(stem down)(beam_index 199)(part_index 1))
	(Note (index 208)(default_x 10.00)(default_y -5.00)(dynamics 100.00)(pitch_index 208)(duration 1)(voice 1)(type eighth)(stem down)(beam_index 200)(part_index 1))
	(Note (index 209)(default_x 33.54)(default_y 0.00)(dynamics 100.00)(pitch_index 209)(duration 1)(voice 1)(type eighth)(stem down)(beam_index 201)(part_index 1))
	(Note (index 210)(default_x 57.09)(default_y 5.00)(dynamics 100.00)(pitch_index 210)(duration 1)(voice 1)(type eighth)(stem down)(beam_index 202)(part_index 1))
	(Note (index 211)(default_x 80.63)(default_y -5.00)(dynamics 100.00)(pitch_index 211)(duration 1)(voice 1)(type eighth)(stem down)(beam_index 203)(part_index 1))
	(Note (index 212)(default_x 104.17)(default_y 0.00)(dynamics 100.00)(pitch_index 212)(duration 1)(voice 1)(type eighth)(stem down)(beam_index 204)(part_index 1))
	(Note (index 213)(default_x 127.72)(default_y 5.00)(dynamics 100.00)(pitch_index 213)(duration 1)(voice 1)(type eighth)(stem down)(beam_index 205)(part_index 1))
	(Note (index 214)(default_x 151.26)(default_y 10.00)(dynamics 100.00)(pitch_index 214)(duration 1)(voice 1)(type eighth)(stem down)(beam_index 206)(part_index 1))
	(Note (index 215)(default_x 174.80)(default_y 5.00)(dynamics 100.00)(pitch_index 215)(duration 1)(voice 1)(type eighth)(stem down)(beam_index 207)(part_index 1))
	(Note (index 216)(default_x 10.00)(default_y -5.00)(dynamics 100.00)(pitch_index 216)(duration 1)(voice 1)(type eighth)(stem down)(beam_index 208)(part_index 1))
	(Note (index 217)(default_x 32.29)(default_y -15.00)(dynamics 100.00)(pitch_index 217)(duration 1)(voice 1)(type eighth)(stem down)(beam_index 209)(part_index 1))
	(Note (index 218)(default_x 54.59)(default_y -10.00)(dynamics 100.00)(pitch_index 218)(duration 1)(voice 1)(type eighth)(stem down)(beam_index 210)(part_index 1))
	(Note (index 219)(default_x 76.88)(default_y -15.00)(dynamics 100.00)(pitch_index 219)(duration 1)(voice 1)(type eighth)(stem down)(beam_index 211)(part_index 1))
	(Note (index 220)(default_x 99.18)(default_y -10.00)(dynamics 100.00)(pitch_index 220)(duration 1)(voice 1)(type eighth)(stem down)(beam_index 212)(part_index 1))
	(Note (index 221)(default_x 121.47)(default_y -5.00)(dynamics 100.00)(pitch_index 221)(duration 1)(voice 1)(type eighth)(stem down)(beam_index 213)(part_index 1))
	(Note (index 222)(default_x 143.77)(default_y 0.00)(dynamics 100.00)(pitch_index 222)(duration 1)(voice 1)(type eighth)(stem down)(beam_index 214)(part_index 1))
	(Note (index 223)(default_x 166.06)(default_y -10.00)(dynamics 100.00)(pitch_index 223)(duration 1)(voice 1)(type eighth)(stem down)(beam_index 215)(part_index 1))
	(Note (index 224)(default_x 10.00)(default_y 0.00)(dynamics 100.00)(pitch_index 224)(duration 1)(voice 1)(type eighth)(stem down)(beam_index 216)(part_index 1))
	(Note (index 225)(default_x 35.82)(default_y 5.00)(dynamics 100.00)(pitch_index 225)(duration 1)(voice 1)(type eighth)(stem down)(beam_index 217)(part_index 1))
	(Note (index 226)(default_x 61.65)(default_y 10.00)(dynamics 100.00)(pitch_index 226)(duration 1)(voice 1)(type eighth)(stem down)(beam_index 218)(part_index 1))
	(Note (index 227)(default_x 87.47)(default_y 15.00)(dynamics 100.00)(pitch_index 227)(duration 1)(voice 1)(type eighth)(stem down)(beam_index 219)(part_index 1))
	(Note (index 228)(default_x 113.29)(default_y 10.00)(dynamics 100.00)(pitch_index 228)(duration 1)(voice 1)(type eighth)(stem down)(beam_index 220)(part_index 1))
	(Note (index 229)(default_x 139.12)(default_y 5.00)(dynamics 100.00)(pitch_index 229)(duration 1)(voice 1)(type eighth)(stem down)(beam_index 221)(part_index 1))
	(Note (index 230)(default_x 164.94)(default_y 0.00)(dynamics 100.00)(pitch_index 230)(duration 1)(voice 1)(type eighth)(stem down)(beam_index 222)(part_index 1))
	(Note (index 231)(default_x 190.76)(default_y -10.00)(dynamics 100.00)(pitch_index 231)(duration 1)(voice 1)(type eighth)(stem down)(beam_index 223)(part_index 1))
	(Note (index 232)(default_x 79.19)(default_y -5.00)(dynamics 100.00)(pitch_index 232)(duration 1)(voice 1)(type eighth)(stem down)(beam_index 224)(part_index 1))
	(Note (index 233)(default_x 124.70)(default_y 0.00)(dynamics 100.00)(pitch_index 233)(duration 1)(voice 1)(type eighth)(stem down)(beam_index 225)(part_index 1))
	(Note (index 234)(default_x 170.21)(default_y 5.00)(dynamics 100.00)(pitch_index 234)(duration 1)(voice 1)(type eighth)(stem down)(beam_index 226)(part_index 1))
	(Note (index 235)(default_x 215.72)(default_y 15.00)(dynamics 100.00)(pitch_index 235)(duration 1)(voice 1)(type eighth)(stem down)(beam_index 227)(part_index 1))
	(Note (index 236)(default_x 261.23)(default_y 5.00)(dynamics 100.00)(pitch_index 236)(duration 1)(voice 1)(type eighth)(stem down)(beam_index 228)(part_index 1))
	(Note (index 237)(default_x 306.73)(default_y -5.00)(dynamics 100.00)(pitch_index 237)(duration 1)(voice 1)(type eighth)(stem down)(beam_index 229)(part_index 1))
	(Note (index 238)(default_x 352.24)(default_y -10.00)(dynamics 100.00)(pitch_index 238)(duration 1)(voice 1)(type eighth)(stem down)(beam_index 230)(part_index 1))
	(Note (index 239)(default_x 397.75)(default_y -20.00)(dynamics 100.00)(pitch_index 239)(duration 1)(voice 1)(type eighth)(stem down)(beam_index 231)(part_index 1))
	(Note (index 240)(default_x 10.00)(default_y -25.00)(dynamics 100.00)(pitch_index 240)(duration 1)(voice 1)(type eighth)(stem up)(beam_index 232)(part_index 1))
	(Note (index 241)(default_x 54.23)(default_y -35.00)(dynamics 100.00)(pitch_index 241)(duration 1)(voice 1)(type eighth)(stem up)(beam_index 233)(part_index 1))
	(Note (index 242)(default_x 98.46)(default_y -30.00)(dynamics 100.00)(pitch_index 242)(duration 1)(voice 1)(type eighth)(stem up)(beam_index 234)(part_index 1))
	(Note (index 243)(default_x 142.69)(default_y -35.00)(dynamics 100.00)(pitch_index 243)(duration 1)(voice 1)(type eighth)(stem up)(beam_index 235)(part_index 1))
	(Note (index 244)(default_x 186.92)(default_y -25.00)(dynamics 100.00)(pitch_index 244)(duration 1)(voice 1)(type eighth)(stem up)(beam_index 236)(part_index 1))
	(Note (index 245)(default_x 231.15)(default_y -35.00)(dynamics 100.00)(pitch_index 245)(duration 1)(voice 1)(type eighth)(stem up)(beam_index 237)(part_index 1))
	(Note (index 246)(default_x 275.38)(default_y -30.00)(dynamics 100.00)(pitch_index 246)(duration 2)(tie_index 12)(voice 1)(type quarter)(stem up)(notations_index 12)(part_index 1))
	(Note (index 247)(default_x 10.00)(default_y -30.00)(dynamics 100.00)(pitch_index 247)(duration 2)(tie_index 13)(voice 1)(type quarter)(stem up)(notations_index 13)(part_index 1))
	(Note (index 248)(duration 2)(voice 1)(type quarter)(part_index 1))
	(Note (index 249)(duration 4)(voice 1)(type half)(part_index 1))
)

(deffacts pitchs
	(Pitch (index 0)(step B)(octave 3)(part_index 1))
	(Pitch (index 1)(step A)(octave 3)(part_index 1))
	(Pitch (index 2)(step G)(octave 3)(part_index 1))
	(Pitch (index 3)(step A)(octave 3)(part_index 1))
	(Pitch (index 4)(step B)(octave 3)(part_index 1))
	(Pitch (index 5)(step C)(octave 4)(part_index 1))
	(Pitch (index 6)(step D)(octave 4)(part_index 1))
	(Pitch (index 7)(step F)(alter 1)(octave 4)(part_index 1))
	(Pitch (index 8)(step G)(octave 4)(part_index 1))
	(Pitch (index 9)(step A)(octave 4)(part_index 1))
	(Pitch (index 10)(step B)(octave 4)(part_index 1))
	(Pitch (index 11)(step D)(octave 5)(part_index 1))
	(Pitch (index 12)(step B)(octave 4)(part_index 1))
	(Pitch (index 13)(step A)(octave 4)(part_index 1))
	(Pitch (index 14)(step G)(octave 4)(part_index 1))
	(Pitch (index 15)(step E)(octave 4)(part_index 1))
	(Pitch (index 16)(step D)(octave 4)(part_index 1))
	(Pitch (index 17)(step B)(octave 3)(part_index 1))
	(Pitch (index 18)(step C)(octave 4)(part_index 1))
	(Pitch (index 19)(step B)(octave 3)(part_index 1))
	(Pitch (index 20)(step C)(octave 4)(part_index 1))
	(Pitch (index 21)(step D)(octave 4)(part_index 1))
	(Pitch (index 22)(step E)(octave 4)(part_index 1))
	(Pitch (index 23)(step G)(octave 4)(part_index 1))
	(Pitch (index 24)(step C)(octave 5)(part_index 1))
	(Pitch (index 25)(step D)(octave 5)(part_index 1))
	(Pitch (index 26)(step E)(octave 5)(part_index 1))
	(Pitch (index 27)(step G)(octave 5)(part_index 1))
	(Pitch (index 28)(step E)(octave 5)(part_index 1))
	(Pitch (index 29)(step D)(octave 5)(part_index 1))
	(Pitch (index 30)(step C)(octave 5)(part_index 1))
	(Pitch (index 31)(step C)(octave 5)(part_index 1))
	(Pitch (index 32)(step D)(octave 4)(part_index 1))
	(Pitch (index 33)(step E)(octave 4)(part_index 1))
	(Pitch (index 34)(step F)(alter 1)(octave 4)(part_index 1))
	(Pitch (index 35)(step G)(octave 4)(part_index 1))
	(Pitch (index 36)(step A)(octave 4)(part_index 1))
	(Pitch (index 37)(step C)(alter 1)(octave 5)(part_index 1))
	(Pitch (index 38)(step D)(octave 5)(part_index 1))
	(Pitch (index 39)(step E)(octave 5)(part_index 1))
	(Pitch (index 40)(step F)(alter 1)(octave 5)(part_index 1))
	(Pitch (index 41)(step A)(octave 5)(part_index 1))
	(Pitch (index 42)(step F)(alter 1)(octave 5)(part_index 1))
	(Pitch (index 43)(step E)(octave 5)(part_index 1))
	(Pitch (index 44)(step D)(octave 5)(part_index 1))
	(Pitch (index 45)(step F)(alter 1)(octave 5)(part_index 1))
	(Pitch (index 46)(step E)(octave 5)(part_index 1))
	(Pitch (index 47)(step D)(octave 5)(part_index 1))
	(Pitch (index 48)(step G)(octave 5)(part_index 1))
	(Pitch (index 49)(step B)(octave 5)(part_index 1))
	(Pitch (index 50)(step G)(octave 5)(part_index 1))
	(Pitch (index 51)(step E)(octave 5)(part_index 1))
	(Pitch (index 52)(step D)(octave 5)(part_index 1))
	(Pitch (index 53)(step B)(octave 4)(part_index 1))
	(Pitch (index 54)(step A)(octave 4)(part_index 1))
	(Pitch (index 55)(step F)(alter 1)(octave 4)(part_index 1))
	(Pitch (index 56)(step G)(octave 4)(part_index 1))
	(Pitch (index 57)(step F)(alter 1)(octave 4)(part_index 1))
	(Pitch (index 58)(step A)(octave 4)(part_index 1))
	(Pitch (index 59)(step F)(alter 1)(octave 4)(part_index 1))
	(Pitch (index 60)(step G)(octave 4)(part_index 1))
	(Pitch (index 61)(step E)(octave 4)(part_index 1))
	(Pitch (index 62)(step D)(octave 4)(part_index 1))
	(Pitch (index 63)(step B)(octave 3)(part_index 1))
	(Pitch (index 64)(step G)(octave 3)(part_index 1))
	(Pitch (index 65)(step A)(octave 3)(part_index 1))
	(Pitch (index 66)(step B)(octave 3)(part_index 1))
	(Pitch (index 67)(step C)(octave 4)(part_index 1))
	(Pitch (index 68)(step D)(octave 4)(part_index 1))
	(Pitch (index 69)(step F)(alter 1)(octave 4)(part_index 1))
	(Pitch (index 70)(step G)(octave 4)(part_index 1))
	(Pitch (index 71)(step A)(octave 4)(part_index 1))
	(Pitch (index 72)(step B)(octave 4)(part_index 1))
	(Pitch (index 73)(step D)(octave 5)(part_index 1))
	(Pitch (index 74)(step B)(octave 4)(part_index 1))
	(Pitch (index 75)(step A)(octave 4)(part_index 1))
	(Pitch (index 76)(step G)(octave 4)(part_index 1))
	(Pitch (index 77)(step E)(octave 4)(part_index 1))
	(Pitch (index 78)(step D)(octave 4)(part_index 1))
	(Pitch (index 79)(step B)(octave 3)(part_index 1))
	(Pitch (index 80)(step C)(octave 4)(part_index 1))
	(Pitch (index 81)(step B)(octave 3)(part_index 1))
	(Pitch (index 82)(step C)(octave 4)(part_index 1))
	(Pitch (index 83)(step D)(octave 4)(part_index 1))
	(Pitch (index 84)(step E)(octave 4)(part_index 1))
	(Pitch (index 85)(step G)(octave 4)(part_index 1))
	(Pitch (index 86)(step C)(octave 5)(part_index 1))
	(Pitch (index 87)(step D)(octave 5)(part_index 1))
	(Pitch (index 88)(step E)(octave 5)(part_index 1))
	(Pitch (index 89)(step G)(octave 5)(part_index 1))
	(Pitch (index 90)(step E)(octave 5)(part_index 1))
	(Pitch (index 91)(step D)(octave 5)(part_index 1))
	(Pitch (index 92)(step C)(octave 5)(part_index 1))
	(Pitch (index 93)(step C)(octave 5)(part_index 1))
	(Pitch (index 94)(step D)(octave 4)(part_index 1))
	(Pitch (index 95)(step E)(octave 4)(part_index 1))
	(Pitch (index 96)(step F)(alter 1)(octave 4)(part_index 1))
	(Pitch (index 97)(step G)(octave 4)(part_index 1))
	(Pitch (index 98)(step A)(octave 4)(part_index 1))
	(Pitch (index 99)(step C)(alter 1)(octave 5)(part_index 1))
	(Pitch (index 100)(step D)(octave 5)(part_index 1))
	(Pitch (index 101)(step E)(octave 5)(part_index 1))
	(Pitch (index 102)(step F)(alter 1)(octave 5)(part_index 1))
	(Pitch (index 103)(step A)(octave 5)(part_index 1))
	(Pitch (index 104)(step F)(alter 1)(octave 5)(part_index 1))
	(Pitch (index 105)(step E)(octave 5)(part_index 1))
	(Pitch (index 106)(step D)(octave 5)(part_index 1))
	(Pitch (index 107)(step F)(alter 1)(octave 5)(part_index 1))
	(Pitch (index 108)(step E)(octave 5)(part_index 1))
	(Pitch (index 109)(step D)(octave 5)(part_index 1))
	(Pitch (index 110)(step G)(octave 5)(part_index 1))
	(Pitch (index 111)(step B)(octave 5)(part_index 1))
	(Pitch (index 112)(step G)(octave 5)(part_index 1))
	(Pitch (index 113)(step E)(octave 5)(part_index 1))
	(Pitch (index 114)(step D)(octave 5)(part_index 1))
	(Pitch (index 115)(step B)(octave 4)(part_index 1))
	(Pitch (index 116)(step A)(octave 4)(part_index 1))
	(Pitch (index 117)(step F)(alter 1)(octave 4)(part_index 1))
	(Pitch (index 118)(step G)(octave 4)(part_index 1))
	(Pitch (index 119)(step F)(alter 1)(octave 4)(part_index 1))
	(Pitch (index 120)(step A)(octave 4)(part_index 1))
	(Pitch (index 121)(step F)(alter 1)(octave 4)(part_index 1))
	(Pitch (index 122)(step G)(octave 4)(part_index 1))
	(Pitch (index 123)(step A)(octave 4)(part_index 1))
	(Pitch (index 124)(step B)(octave 4)(part_index 1))
	(Pitch (index 125)(step C)(octave 5)(part_index 1))
	(Pitch (index 126)(step D)(octave 5)(part_index 1))
	(Pitch (index 127)(step G)(octave 5)(part_index 1))
	(Pitch (index 128)(step G)(octave 5)(part_index 1))
	(Pitch (index 129)(step D)(octave 5)(part_index 1))
	(Pitch (index 130)(step G)(octave 5)(part_index 1))
	(Pitch (index 131)(step G)(octave 5)(part_index 1))
	(Pitch (index 132)(step B)(octave 5)(part_index 1))
	(Pitch (index 133)(step A)(octave 5)(part_index 1))
	(Pitch (index 134)(step G)(octave 5)(part_index 1))
	(Pitch (index 135)(step B)(octave 5)(part_index 1))
	(Pitch (index 136)(step A)(octave 5)(part_index 1))
	(Pitch (index 137)(step G)(octave 5)(part_index 1))
	(Pitch (index 138)(step E)(octave 5)(part_index 1))
	(Pitch (index 139)(step D)(octave 5)(part_index 1))
	(Pitch (index 140)(step C)(octave 5)(part_index 1))
	(Pitch (index 141)(step D)(octave 5)(part_index 1))
	(Pitch (index 142)(step C)(octave 5)(part_index 1))
	(Pitch (index 143)(step D)(octave 5)(part_index 1))
	(Pitch (index 144)(step E)(octave 5)(part_index 1))
	(Pitch (index 145)(step C)(octave 5)(part_index 1))
	(Pitch (index 146)(step E)(octave 5)(part_index 1))
	(Pitch (index 147)(step F)(alter 1)(octave 5)(part_index 1))
	(Pitch (index 148)(step G)(octave 5)(part_index 1))
	(Pitch (index 149)(step E)(octave 5)(part_index 1))
	(Pitch (index 150)(step F)(alter 1)(octave 5)(part_index 1))
	(Pitch (index 151)(step G)(octave 5)(part_index 1))
	(Pitch (index 152)(step A)(octave 5)(part_index 1))
	(Pitch (index 153)(step G)(octave 5)(part_index 1))
	(Pitch (index 154)(step E)(octave 5)(part_index 1))
	(Pitch (index 155)(step C)(octave 5)(part_index 1))
	(Pitch (index 156)(step D)(octave 5)(part_index 1))
	(Pitch (index 157)(step C)(octave 5)(part_index 1))
	(Pitch (index 158)(step D)(octave 5)(part_index 1))
	(Pitch (index 159)(step E)(octave 5)(part_index 1))
	(Pitch (index 160)(step F)(alter 1)(octave 5)(part_index 1))
	(Pitch (index 161)(step D)(octave 5)(part_index 1))
	(Pitch (index 162)(step F)(alter 1)(octave 5)(part_index 1))
	(Pitch (index 163)(step G)(octave 5)(part_index 1))
	(Pitch (index 164)(step A)(octave 5)(part_index 1))
	(Pitch (index 165)(step B)(octave 5)(part_index 1))
	(Pitch (index 166)(step A)(octave 5)(part_index 1))
	(Pitch (index 167)(step G)(octave 5)(part_index 1))
	(Pitch (index 168)(step F)(alter 1)(octave 5)(part_index 1))
	(Pitch (index 169)(step D)(octave 5)(part_index 1))
	(Pitch (index 170)(step E)(octave 5)(part_index 1))
	(Pitch (index 171)(step F)(alter 1)(octave 5)(part_index 1))
	(Pitch (index 172)(step G)(octave 5)(part_index 1))
	(Pitch (index 173)(step B)(octave 5)(part_index 1))
	(Pitch (index 174)(step G)(octave 5)(part_index 1))
	(Pitch (index 175)(step E)(octave 5)(part_index 1))
	(Pitch (index 176)(step D)(octave 5)(part_index 1))
	(Pitch (index 177)(step B)(octave 4)(part_index 1))
	(Pitch (index 178)(step A)(octave 4)(part_index 1))
	(Pitch (index 179)(step F)(alter 1)(octave 4)(part_index 1))
	(Pitch (index 180)(step G)(octave 4)(part_index 1))
	(Pitch (index 181)(step F)(alter 1)(octave 4)(part_index 1))
	(Pitch (index 182)(step A)(octave 4)(part_index 1))
	(Pitch (index 183)(step F)(alter 1)(octave 4)(part_index 1))
	(Pitch (index 184)(step G)(octave 4)(part_index 1))
	(Pitch (index 185)(step A)(octave 4)(part_index 1))
	(Pitch (index 186)(step B)(octave 4)(part_index 1))
	(Pitch (index 187)(step C)(octave 5)(part_index 1))
	(Pitch (index 188)(step D)(octave 5)(part_index 1))
	(Pitch (index 189)(step G)(octave 5)(part_index 1))
	(Pitch (index 190)(step G)(octave 5)(part_index 1))
	(Pitch (index 191)(step D)(octave 5)(part_index 1))
	(Pitch (index 192)(step G)(octave 5)(part_index 1))
	(Pitch (index 193)(step G)(octave 5)(part_index 1))
	(Pitch (index 194)(step B)(octave 5)(part_index 1))
	(Pitch (index 195)(step A)(octave 5)(part_index 1))
	(Pitch (index 196)(step G)(octave 5)(part_index 1))
	(Pitch (index 197)(step B)(octave 5)(part_index 1))
	(Pitch (index 198)(step A)(octave 5)(part_index 1))
	(Pitch (index 199)(step G)(octave 5)(part_index 1))
	(Pitch (index 200)(step E)(octave 5)(part_index 1))
	(Pitch (index 201)(step D)(octave 5)(part_index 1))
	(Pitch (index 202)(step C)(octave 5)(part_index 1))
	(Pitch (index 203)(step D)(octave 5)(part_index 1))
	(Pitch (index 204)(step C)(octave 5)(part_index 1))
	(Pitch (index 205)(step D)(octave 5)(part_index 1))
	(Pitch (index 206)(step E)(octave 5)(part_index 1))
	(Pitch (index 207)(step C)(octave 5)(part_index 1))
	(Pitch (index 208)(step E)(octave 5)(part_index 1))
	(Pitch (index 209)(step F)(alter 1)(octave 5)(part_index 1))
	(Pitch (index 210)(step G)(octave 5)(part_index 1))
	(Pitch (index 211)(step E)(octave 5)(part_index 1))
	(Pitch (index 212)(step F)(alter 1)(octave 5)(part_index 1))
	(Pitch (index 213)(step G)(octave 5)(part_index 1))
	(Pitch (index 214)(step A)(octave 5)(part_index 1))
	(Pitch (index 215)(step G)(octave 5)(part_index 1))
	(Pitch (index 216)(step E)(octave 5)(part_index 1))
	(Pitch (index 217)(step C)(octave 5)(part_index 1))
	(Pitch (index 218)(step D)(octave 5)(part_index 1))
	(Pitch (index 219)(step C)(octave 5)(part_index 1))
	(Pitch (index 220)(step D)(octave 5)(part_index 1))
	(Pitch (index 221)(step E)(octave 5)(part_index 1))
	(Pitch (index 222)(step F)(alter 1)(octave 5)(part_index 1))
	(Pitch (index 223)(step D)(octave 5)(part_index 1))
	(Pitch (index 224)(step F)(alter 1)(octave 5)(part_index 1))
	(Pitch (index 225)(step G)(octave 5)(part_index 1))
	(Pitch (index 226)(step A)(octave 5)(part_index 1))
	(Pitch (index 227)(step B)(octave 5)(part_index 1))
	(Pitch (index 228)(step A)(octave 5)(part_index 1))
	(Pitch (index 229)(step G)(octave 5)(part_index 1))
	(Pitch (index 230)(step F)(alter 1)(octave 5)(part_index 1))
	(Pitch (index 231)(step D)(octave 5)(part_index 1))
	(Pitch (index 232)(step E)(octave 5)(part_index 1))
	(Pitch (index 233)(step F)(alter 1)(octave 5)(part_index 1))
	(Pitch (index 234)(step G)(octave 5)(part_index 1))
	(Pitch (index 235)(step B)(octave 5)(part_index 1))
	(Pitch (index 236)(step G)(octave 5)(part_index 1))
	(Pitch (index 237)(step E)(octave 5)(part_index 1))
	(Pitch (index 238)(step D)(octave 5)(part_index 1))
	(Pitch (index 239)(step B)(octave 4)(part_index 1))
	(Pitch (index 240)(step A)(octave 4)(part_index 1))
	(Pitch (index 241)(step F)(alter 1)(octave 4)(part_index 1))
	(Pitch (index 242)(step G)(octave 4)(part_index 1))
	(Pitch (index 243)(step F)(alter 1)(octave 4)(part_index 1))
	(Pitch (index 244)(step A)(octave 4)(part_index 1))
	(Pitch (index 245)(step F)(alter 1)(octave 4)(part_index 1))
	(Pitch (index 246)(step G)(octave 4)(part_index 1))
	(Pitch (index 247)(step G)(octave 4)(part_index 1))
)

(deffacts beams
	(Beam (index 0)(data begin)(number 1)(part_index 1))
	(Beam (index 1)(data continue)(number 1)(part_index 1))
	(Beam (index 2)(data continue)(number 1)(part_index 1))
	(Beam (index 3)(data end)(number 1)(part_index 1))
	(Beam (index 4)(data begin)(number 1)(part_index 1))
	(Beam (index 5)(data continue)(number 1)(part_index 1))
	(Beam (index 6)(data continue)(number 1)(part_index 1))
	(Beam (index 7)(data end)(number 1)(part_index 1))
	(Beam (index 8)(data begin)(number 1)(part_index 1))
	(Beam (index 9)(data continue)(number 1)(part_index 1))
	(Beam (index 10)(data continue)(number 1)(part_index 1))
	(Beam (index 11)(data end)(number 1)(part_index 1))
	(Beam (index 12)(data begin)(number 1)(part_index 1))
	(Beam (index 13)(data continue)(number 1)(part_index 1))
	(Beam (index 14)(data continue)(number 1)(part_index 1))
	(Beam (index 15)(data end)(number 1)(part_index 1))
	(Beam (index 16)(data begin)(number 1)(part_index 1))
	(Beam (index 17)(data continue)(number 1)(part_index 1))
	(Beam (index 18)(data continue)(number 1)(part_index 1))
	(Beam (index 19)(data end)(number 1)(part_index 1))
	(Beam (index 20)(data begin)(number 1)(part_index 1))
	(Beam (index 21)(data continue)(number 1)(part_index 1))
	(Beam (index 22)(data continue)(number 1)(part_index 1))
	(Beam (index 23)(data end)(number 1)(part_index 1))
	(Beam (index 24)(data begin)(number 1)(part_index 1))
	(Beam (index 25)(data continue)(number 1)(part_index 1))
	(Beam (index 26)(data continue)(number 1)(part_index 1))
	(Beam (index 27)(data end)(number 1)(part_index 1))
	(Beam (index 28)(data begin)(number 1)(part_index 1))
	(Beam (index 29)(data end)(number 1)(part_index 1))
	(Beam (index 30)(data begin)(number 1)(part_index 1))
	(Beam (index 31)(data end)(number 1)(part_index 1))
	(Beam (index 32)(data begin)(number 1)(part_index 1))
	(Beam (index 33)(data continue)(number 1)(part_index 1))
	(Beam (index 34)(data continue)(number 1)(part_index 1))
	(Beam (index 35)(data end)(number 1)(part_index 1))
	(Beam (index 36)(data begin)(number 1)(part_index 1))
	(Beam (index 37)(data continue)(number 1)(part_index 1))
	(Beam (index 38)(data continue)(number 1)(part_index 1))
	(Beam (index 39)(data end)(number 1)(part_index 1))
	(Beam (index 40)(data begin)(number 1)(part_index 1))
	(Beam (index 41)(data continue)(number 1)(part_index 1))
	(Beam (index 42)(data continue)(number 1)(part_index 1))
	(Beam (index 43)(data end)(number 1)(part_index 1))
	(Beam (index 44)(data begin)(number 1)(part_index 1))
	(Beam (index 45)(data continue)(number 1)(part_index 1))
	(Beam (index 46)(data continue)(number 1)(part_index 1))
	(Beam (index 47)(data end)(number 1)(part_index 1))
	(Beam (index 48)(data begin)(number 1)(part_index 1))
	(Beam (index 49)(data continue)(number 1)(part_index 1))
	(Beam (index 50)(data continue)(number 1)(part_index 1))
	(Beam (index 51)(data end)(number 1)(part_index 1))
	(Beam (index 52)(data begin)(number 1)(part_index 1))
	(Beam (index 53)(data continue)(number 1)(part_index 1))
	(Beam (index 54)(data continue)(number 1)(part_index 1))
	(Beam (index 55)(data end)(number 1)(part_index 1))
	(Beam (index 56)(data begin)(number 1)(part_index 1))
	(Beam (index 57)(data continue)(number 1)(part_index 1))
	(Beam (index 58)(data continue)(number 1)(part_index 1))
	(Beam (index 59)(data end)(number 1)(part_index 1))
	(Beam (index 60)(data begin)(number 1)(part_index 1))
	(Beam (index 61)(data continue)(number 1)(part_index 1))
	(Beam (index 62)(data continue)(number 1)(part_index 1))
	(Beam (index 63)(data end)(number 1)(part_index 1))
	(Beam (index 64)(data begin)(number 1)(part_index 1))
	(Beam (index 65)(data continue)(number 1)(part_index 1))
	(Beam (index 66)(data continue)(number 1)(part_index 1))
	(Beam (index 67)(data end)(number 1)(part_index 1))
	(Beam (index 68)(data begin)(number 1)(part_index 1))
	(Beam (index 69)(data continue)(number 1)(part_index 1))
	(Beam (index 70)(data continue)(number 1)(part_index 1))
	(Beam (index 71)(data end)(number 1)(part_index 1))
	(Beam (index 72)(data begin)(number 1)(part_index 1))
	(Beam (index 73)(data continue)(number 1)(part_index 1))
	(Beam (index 74)(data continue)(number 1)(part_index 1))
	(Beam (index 75)(data end)(number 1)(part_index 1))
	(Beam (index 76)(data begin)(number 1)(part_index 1))
	(Beam (index 77)(data continue)(number 1)(part_index 1))
	(Beam (index 78)(data continue)(number 1)(part_index 1))
	(Beam (index 79)(data end)(number 1)(part_index 1))
	(Beam (index 80)(data begin)(number 1)(part_index 1))
	(Beam (index 81)(data continue)(number 1)(part_index 1))
	(Beam (index 82)(data continue)(number 1)(part_index 1))
	(Beam (index 83)(data end)(number 1)(part_index 1))
	(Beam (index 84)(data begin)(number 1)(part_index 1))
	(Beam (index 85)(data continue)(number 1)(part_index 1))
	(Beam (index 86)(data continue)(number 1)(part_index 1))
	(Beam (index 87)(data end)(number 1)(part_index 1))
	(Beam (index 88)(data begin)(number 1)(part_index 1))
	(Beam (index 89)(data end)(number 1)(part_index 1))
	(Beam (index 90)(data begin)(number 1)(part_index 1))
	(Beam (index 91)(data end)(number 1)(part_index 1))
	(Beam (index 92)(data begin)(number 1)(part_index 1))
	(Beam (index 93)(data continue)(number 1)(part_index 1))
	(Beam (index 94)(data continue)(number 1)(part_index 1))
	(Beam (index 95)(data end)(number 1)(part_index 1))
	(Beam (index 96)(data begin)(number 1)(part_index 1))
	(Beam (index 97)(data continue)(number 1)(part_index 1))
	(Beam (index 98)(data continue)(number 1)(part_index 1))
	(Beam (index 99)(data end)(number 1)(part_index 1))
	(Beam (index 100)(data begin)(number 1)(part_index 1))
	(Beam (index 101)(data continue)(number 1)(part_index 1))
	(Beam (index 102)(data continue)(number 1)(part_index 1))
	(Beam (index 103)(data end)(number 1)(part_index 1))
	(Beam (index 104)(data begin)(number 1)(part_index 1))
	(Beam (index 105)(data continue)(number 1)(part_index 1))
	(Beam (index 106)(data continue)(number 1)(part_index 1))
	(Beam (index 107)(data end)(number 1)(part_index 1))
	(Beam (index 108)(data begin)(number 1)(part_index 1))
	(Beam (index 109)(data continue)(number 1)(part_index 1))
	(Beam (index 110)(data continue)(number 1)(part_index 1))
	(Beam (index 111)(data end)(number 1)(part_index 1))
	(Beam (index 112)(data begin)(number 1)(part_index 1))
	(Beam (index 113)(data continue)(number 1)(part_index 1))
	(Beam (index 114)(data continue)(number 1)(part_index 1))
	(Beam (index 115)(data end)(number 1)(part_index 1))
	(Beam (index 116)(data begin)(number 1)(part_index 1))
	(Beam (index 117)(data continue)(number 1)(part_index 1))
	(Beam (index 118)(data continue)(number 1)(part_index 1))
	(Beam (index 119)(data end)(number 1)(part_index 1))
	(Beam (index 120)(data begin)(number 1)(part_index 1))
	(Beam (index 121)(data continue)(number 1)(part_index 1))
	(Beam (index 122)(data continue)(number 1)(part_index 1))
	(Beam (index 123)(data end)(number 1)(part_index 1))
	(Beam (index 124)(data begin)(number 1)(part_index 1))
	(Beam (index 125)(data end)(number 1)(part_index 1))
	(Beam (index 126)(data begin)(number 1)(part_index 1))
	(Beam (index 127)(data end)(number 1)(part_index 1))
	(Beam (index 128)(data begin)(number 1)(part_index 1))
	(Beam (index 129)(data continue)(number 1)(part_index 1))
	(Beam (index 130)(data continue)(number 1)(part_index 1))
	(Beam (index 131)(data end)(number 1)(part_index 1))
	(Beam (index 132)(data begin)(number 1)(part_index 1))
	(Beam (index 133)(data continue)(number 1)(part_index 1))
	(Beam (index 134)(data continue)(number 1)(part_index 1))
	(Beam (index 135)(data end)(number 1)(part_index 1))
	(Beam (index 136)(data begin)(number 1)(part_index 1))
	(Beam (index 137)(data continue)(number 1)(part_index 1))
	(Beam (index 138)(data continue)(number 1)(part_index 1))
	(Beam (index 139)(data end)(number 1)(part_index 1))
	(Beam (index 140)(data begin)(number 1)(part_index 1))
	(Beam (index 141)(data continue)(number 1)(part_index 1))
	(Beam (index 142)(data continue)(number 1)(part_index 1))
	(Beam (index 143)(data end)(number 1)(part_index 1))
	(Beam (index 144)(data begin)(number 1)(part_index 1))
	(Beam (index 145)(data continue)(number 1)(part_index 1))
	(Beam (index 146)(data continue)(number 1)(part_index 1))
	(Beam (index 147)(data end)(number 1)(part_index 1))
	(Beam (index 148)(data begin)(number 1)(part_index 1))
	(Beam (index 149)(data continue)(number 1)(part_index 1))
	(Beam (index 150)(data continue)(number 1)(part_index 1))
	(Beam (index 151)(data end)(number 1)(part_index 1))
	(Beam (index 152)(data begin)(number 1)(part_index 1))
	(Beam (index 153)(data continue)(number 1)(part_index 1))
	(Beam (index 154)(data continue)(number 1)(part_index 1))
	(Beam (index 155)(data end)(number 1)(part_index 1))
	(Beam (index 156)(data begin)(number 1)(part_index 1))
	(Beam (index 157)(data continue)(number 1)(part_index 1))
	(Beam (index 158)(data continue)(number 1)(part_index 1))
	(Beam (index 159)(data end)(number 1)(part_index 1))
	(Beam (index 160)(data begin)(number 1)(part_index 1))
	(Beam (index 161)(data continue)(number 1)(part_index 1))
	(Beam (index 162)(data continue)(number 1)(part_index 1))
	(Beam (index 163)(data end)(number 1)(part_index 1))
	(Beam (index 164)(data begin)(number 1)(part_index 1))
	(Beam (index 165)(data continue)(number 1)(part_index 1))
	(Beam (index 166)(data continue)(number 1)(part_index 1))
	(Beam (index 167)(data end)(number 1)(part_index 1))
	(Beam (index 168)(data begin)(number 1)(part_index 1))
	(Beam (index 169)(data continue)(number 1)(part_index 1))
	(Beam (index 170)(data continue)(number 1)(part_index 1))
	(Beam (index 171)(data end)(number 1)(part_index 1))
	(Beam (index 172)(data begin)(number 1)(part_index 1))
	(Beam (index 173)(data continue)(number 1)(part_index 1))
	(Beam (index 174)(data continue)(number 1)(part_index 1))
	(Beam (index 175)(data end)(number 1)(part_index 1))
	(Beam (index 176)(data begin)(number 1)(part_index 1))
	(Beam (index 177)(data continue)(number 1)(part_index 1))
	(Beam (index 178)(data continue)(number 1)(part_index 1))
	(Beam (index 179)(data end)(number 1)(part_index 1))
	(Beam (index 180)(data begin)(number 1)(part_index 1))
	(Beam (index 181)(data continue)(number 1)(part_index 1))
	(Beam (index 182)(data continue)(number 1)(part_index 1))
	(Beam (index 183)(data end)(number 1)(part_index 1))
	(Beam (index 184)(data begin)(number 1)(part_index 1))
	(Beam (index 185)(data end)(number 1)(part_index 1))
	(Beam (index 186)(data begin)(number 1)(part_index 1))
	(Beam (index 187)(data end)(number 1)(part_index 1))
	(Beam (index 188)(data begin)(number 1)(part_index 1))
	(Beam (index 189)(data continue)(number 1)(part_index 1))
	(Beam (index 190)(data continue)(number 1)(part_index 1))
	(Beam (index 191)(data end)(number 1)(part_index 1))
	(Beam (index 192)(data begin)(number 1)(part_index 1))
	(Beam (index 193)(data continue)(number 1)(part_index 1))
	(Beam (index 194)(data continue)(number 1)(part_index 1))
	(Beam (index 195)(data end)(number 1)(part_index 1))
	(Beam (index 196)(data begin)(number 1)(part_index 1))
	(Beam (index 197)(data continue)(number 1)(part_index 1))
	(Beam (index 198)(data continue)(number 1)(part_index 1))
	(Beam (index 199)(data end)(number 1)(part_index 1))
	(Beam (index 200)(data begin)(number 1)(part_index 1))
	(Beam (index 201)(data continue)(number 1)(part_index 1))
	(Beam (index 202)(data continue)(number 1)(part_index 1))
	(Beam (index 203)(data end)(number 1)(part_index 1))
	(Beam (index 204)(data begin)(number 1)(part_index 1))
	(Beam (index 205)(data continue)(number 1)(part_index 1))
	(Beam (index 206)(data continue)(number 1)(part_index 1))
	(Beam (index 207)(data end)(number 1)(part_index 1))
	(Beam (index 208)(data begin)(number 1)(part_index 1))
	(Beam (index 209)(data continue)(number 1)(part_index 1))
	(Beam (index 210)(data continue)(number 1)(part_index 1))
	(Beam (index 211)(data end)(number 1)(part_index 1))
	(Beam (index 212)(data begin)(number 1)(part_index 1))
	(Beam (index 213)(data continue)(number 1)(part_index 1))
	(Beam (index 214)(data continue)(number 1)(part_index 1))
	(Beam (index 215)(data end)(number 1)(part_index 1))
	(Beam (index 216)(data begin)(number 1)(part_index 1))
	(Beam (index 217)(data continue)(number 1)(part_index 1))
	(Beam (index 218)(data continue)(number 1)(part_index 1))
	(Beam (index 219)(data end)(number 1)(part_index 1))
	(Beam (index 220)(data begin)(number 1)(part_index 1))
	(Beam (index 221)(data continue)(number 1)(part_index 1))
	(Beam (index 222)(data continue)(number 1)(part_index 1))
	(Beam (index 223)(data end)(number 1)(part_index 1))
	(Beam (index 224)(data begin)(number 1)(part_index 1))
	(Beam (index 225)(data continue)(number 1)(part_index 1))
	(Beam (index 226)(data continue)(number 1)(part_index 1))
	(Beam (index 227)(data end)(number 1)(part_index 1))
	(Beam (index 228)(data begin)(number 1)(part_index 1))
	(Beam (index 229)(data continue)(number 1)(part_index 1))
	(Beam (index 230)(data continue)(number 1)(part_index 1))
	(Beam (index 231)(data end)(number 1)(part_index 1))
	(Beam (index 232)(data begin)(number 1)(part_index 1))
	(Beam (index 233)(data continue)(number 1)(part_index 1))
	(Beam (index 234)(data continue)(number 1)(part_index 1))
	(Beam (index 235)(data end)(number 1)(part_index 1))
	(Beam (index 236)(data begin)(number 1)(part_index 1))
	(Beam (index 237)(data end)(number 1)(part_index 1))
)

(deffacts keys
	(Key (index 0)(fifths 1)(part_index 1))
)

(deffacts times
	(Time (index 0)(beats 4)(beat_type 4)(part_index 1))
)

(deffacts transposes
)

(deffacts directions
	(Direction (index 0)(placement above)(direction_type_index 0)(sound_index 0)(part_index 1))
)

(deffacts direction_types
	(Direction_Type (index 0)(metronome_index 0)(part_index 1))
)

(deffacts metronomes
	(Metronome (index 0)(parentheses no)(default_x -39.76)(relative_y 20.00)(beat_unit quarter)(per_minute 120)(part_index 1))
)

(deffacts sounds
	(Sound (index 0)(tempo 120)(part_index 1))
)

(deffacts clefs
	(Clef (index 0)(sign G)(line 2)(part_index 1))
)

(deffacts barlines
	(Barline (index 0)(location right)(bar_style light-heavy)(part_index 1))
)

(deffacts ties
	(Tie (index 0)(type start)(part_index 1))
	(Tie (index 1)(type stop)(part_index 1))
	(Tie (index 2)(type start)(part_index 1))
	(Tie (index 3)(type stop)(part_index 1))
	(Tie (index 4)(type start)(part_index 1))
	(Tie (index 5)(type stop)(part_index 1))
	(Tie (index 6)(type start)(part_index 1))
	(Tie (index 7)(type stop)(part_index 1))
	(Tie (index 8)(type start)(part_index 1))
	(Tie (index 9)(type stop)(part_index 1))
	(Tie (index 10)(type start)(part_index 1))
	(Tie (index 11)(type stop)(part_index 1))
	(Tie (index 12)(type start)(part_index 1))
	(Tie (index 13)(type stop)(part_index 1))
)

(deffacts instruments
)

(deffacts prints
)

(deffacts notationss
	(Notations (index 0)(tied_index 0)(part_index 1))
	(Notations (index 1)(tied_index 1)(part_index 1))
	(Notations (index 2)(tied_index 2)(part_index 1))
	(Notations (index 3)(tied_index 3)(part_index 1))
	(Notations (index 4)(tied_index 4)(part_index 1))
	(Notations (index 5)(tied_index 5)(part_index 1))
	(Notations (index 6)(tied_index 6)(part_index 1))
	(Notations (index 7)(tied_index 7)(part_index 1))
	(Notations (index 8)(tied_index 8)(part_index 1))
	(Notations (index 9)(tied_index 9)(part_index 1))
	(Notations (index 10)(tied_index 10)(part_index 1))
	(Notations (index 11)(tied_index 11)(part_index 1))
	(Notations (index 12)(tied_index 12)(part_index 1))
	(Notations (index 13)(tied_index 13)(part_index 1))
)

(deffacts backups
)

(deffacts unpitcheds
	(Unpitched (index 0)(part_index -1)(display_step A))
)

(deffacts articulationss
)

(deffacts repeats
)

(deffacts staff_layouts
)

(deffacts tieds
	(Tied (index 0)(type start)(part_index 1))
	(Tied (index 1)(type stop)(part_index 1))
	(Tied (index 2)(type start)(part_index 1))
	(Tied (index 3)(type stop)(part_index 1))
	(Tied (index 4)(type start)(part_index 1))
	(Tied (index 5)(type stop)(part_index 1))
	(Tied (index 6)(type start)(part_index 1))
	(Tied (index 7)(type stop)(part_index 1))
	(Tied (index 8)(type start)(part_index 1))
	(Tied (index 9)(type stop)(part_index 1))
	(Tied (index 10)(type start)(part_index 1))
	(Tied (index 11)(type stop)(part_index 1))
	(Tied (index 12)(type start)(part_index 1))
	(Tied (index 13)(type stop)(part_index 1))
)

(deffacts system_layouts
)

(deffacts system_marginss
)

