(deftemplate Part
	(slot id)
	(slot index)
	(slot part_index)
	(multislot measure)
)

(deftemplate Attributes
	(slot divisions)
	(slot clef_index)
	(slot index)
	(slot part_index)
	(slot time_index)
	(slot key_index)
)

(deftemplate Measure
	(slot barline_index)
	(slot width)
	(slot direction_index)
	(slot index)
	(slot number)
	(slot part_index)
	(slot attributes_index)
	(multislot note)
)

(deftemplate Note
	(slot dynamics)
	(slot index)
	(slot default_y)
	(slot duration)
	(slot lyric_index)
	(slot stem)
	(slot voice)
	(slot type)
	(slot notations_index)
	(slot beam_index)
	(slot pitch_index)
	(slot default_x)
	(slot part_index)
	(multislot beam)
)

(deftemplate Pitch
	(slot step)
	(slot octave)
	(slot index)
	(slot part_index)
)

(deftemplate Beam
	(slot number)
	(slot index)
	(slot data)
	(slot part_index)
)

(deftemplate Key
	(slot fifths)
	(slot index)
	(slot part_index)
)

(deftemplate Time
	(slot beat_type)
	(slot index)
	(slot beats)
	(slot part_index)
)

(deftemplate Transpose
)

(deftemplate Direction
	(slot index)
	(slot placement)
	(slot part_index)
	(slot direction_type_index)
	(slot sound_index)
)

(deftemplate Direction_Type
	(slot metronome_index)
	(slot index)
	(slot part_index)
)

(deftemplate Metronome
	(slot per_minute)
	(slot index)
	(slot default_x)
	(slot part_index)
	(slot parentheses)
	(slot relative_y)
	(slot beat_unit)
)

(deftemplate Sound
	(slot tempo)
	(slot index)
	(slot part_index)
)

(deftemplate Clef
	(slot sign)
	(slot line)
	(slot index)
	(slot part_index)
)

(deftemplate Barline
	(slot bar_style)
	(slot location)
	(slot index)
	(slot part_index)
)

(deftemplate Tie
)

(deftemplate Instrument
)

(deftemplate Print
)

(deftemplate Notations
	(slot articulations_index)
	(slot index)
	(slot part_index)
)

(deftemplate Backup
)

(deftemplate Unpitched
	(slot display_step)
	(slot index)
	(slot part_index)
)

(deftemplate Articulations
	(slot index)
	(slot part_index)
)

(deftemplate Repeat
)

(deftemplate Staff_layout
)

(deftemplate Tied
)

(deftemplate System_layout
)

(deftemplate System_margins
)

(deffacts parts
	(Part (index 0)(id P1)(measure 0 1 2 3 4 5 6 7 8 9 10 11 12 13 14 15 16 17 18 19 20 21 22 23 24 25 26 27 28 29 30 31 32 33 34 35 36 37 38 39 40 41 42 43 44 45 46 47 48)(part_index 1))
)

(deffacts attributess
	(Attributes (index 0)(divisions 8)(key_index 0)(time_index 0)(clef_index 0)(part_index 1))
)

(deffacts measures
	(Measure (index 0)(number 1)(width 153.47)(attributes_index 0)(direction_index 0)(note 0 1 2)(part_index 1))
	(Measure (index 1)(number 2)(width 80.40)(note 3 4 5)(part_index 1))
	(Measure (index 2)(number 3)(width 62.39)(note 6 7)(part_index 1))
	(Measure (index 3)(number 4)(width 80.47)(note 8 9 10)(part_index 1))
	(Measure (index 4)(number 5)(width 62.46)(note 11 12)(part_index 1))
	(Measure (index 5)(number 6)(width 81.41)(note 13 14 15)(part_index 1))
	(Measure (index 6)(number 7)(width 97.97)(note 16 17 18 19)(part_index 1))
	(Measure (index 7)(number 8)(width 62.46)(note 20 21)(part_index 1))
	(Measure (index 8)(number 9)(width 116.77)(note 22 23 24 25 26)(part_index 1))
	(Measure (index 9)(number 10)(width 144.69)(note 27 28 29 30 31 32)(part_index 1))
	(Measure (index 10)(number 11)(width 135.01)(note 33 34 35 36 37)(part_index 1))
	(Measure (index 11)(number 12)(width 202.79)(note 38 39 40 41 42)(part_index 1))
	(Measure (index 12)(number 13)(width 122.49)(note 43 44 45 46)(part_index 1))
	(Measure (index 13)(number 14)(width 77.43)(note 47 48 49)(part_index 1))
	(Measure (index 14)(number 15)(width 105.01)(note 50 51 52 53)(part_index 1))
	(Measure (index 15)(number 16)(width 69.50)(note 54 55)(part_index 1))
	(Measure (index 16)(number 17)(width 133.44)(note 56 57 58 59 60)(part_index 1))
	(Measure (index 17)(number 18)(width 91.31)(note 61 62 63)(part_index 1))
	(Measure (index 18)(number 19)(width 123.81)(note 64 65 66 67 68)(part_index 1))
	(Measure (index 19)(number 20)(width 151.72)(note 69 70 71 72 73 74)(part_index 1))
	(Measure (index 20)(number 21)(width 190.99)(note 75 76 77 78 79)(part_index 1))
	(Measure (index 21)(number 22)(width 155.38)(note 80 81 82 83 84)(part_index 1))
	(Measure (index 22)(number 23)(width 147.13)(note 85 86 87 88 89)(part_index 1))
	(Measure (index 23)(number 24)(width 78.20)(note 90 91 92)(part_index 1))
	(Measure (index 24)(number 25)(width 105.78)(note 93 94 95 96)(part_index 1))
	(Measure (index 25)(number 26)(width 116.64)(note 97 98 99 100)(part_index 1))
	(Measure (index 26)(number 27)(width 88.20)(note 101 102 103)(part_index 1))
	(Measure (index 27)(number 28)(width 88.28)(note 104 105 106)(part_index 1))
	(Measure (index 28)(number 29)(width 106.90)(note 107 108 109 110)(part_index 1))
	(Measure (index 29)(number 30)(width 154.41)(note 111 112 113 114)(part_index 1))
	(Measure (index 30)(number 31)(width 125.97)(note 115 116 117 118 119)(part_index 1))
	(Measure (index 31)(number 32)(width 143.27)(note 120 121 122 123 124)(part_index 1))
	(Measure (index 32)(number 33)(width 172.75)(note 125 126 127 128 129 130 131)(part_index 1))
	(Measure (index 33)(number 34)(width 181.67)(note 132 133 134 135 136 137 138 139)(part_index 1))
	(Measure (index 34)(number 35)(width 136.80)(note 140 141 142 143 144)(part_index 1))
	(Measure (index 35)(number 36)(width 162.63)(note 145 146 147 148 149 150 151)(part_index 1))
	(Measure (index 36)(number 37)(width 251.04)(note 152 153 154 155 156 157 158)(part_index 1))
	(Measure (index 37)(number 38)(width 175.16)(note 159 160 161 162 163 164)(part_index 1))
	(Measure (index 38)(number 39)(width 210.37)(note 165 166 167 168 169 170 171 172)(part_index 1))
	(Measure (index 39)(number 40)(width 158.87)(note 173 174 175 176 177 178)(part_index 1))
	(Measure (index 40)(number 41)(width 151.60)(note 179 180 181 182 183)(part_index 1))
	(Measure (index 41)(number 42)(width 130.44)(note 184 185 186 187 188)(part_index 1))
	(Measure (index 42)(number 43)(width 230.08)(note 189 190 191 192 193 194 195)(part_index 1))
	(Measure (index 43)(number 44)(width 155.24)(note 196 197 198 199 200)(part_index 1))
	(Measure (index 44)(number 45)(width 125.51)(note 201 202 203 204)(part_index 1))
	(Measure (index 45)(number 46)(width 210.30)(note 205 206 207 208 209 210 211)(part_index 1))
	(Measure (index 46)(number 47)(width 120.93)(note 212 213 214)(part_index 1))
	(Measure (index 47)(number 48)(width 136.44)(note 215 216 217 218)(part_index 1))
	(Measure (index 48)(number 49)(width 99.00)(note 219 220)(barline_index 0)(part_index 1))
)

(deffacts notes
	(Note (index 0)(default_x 83.07)(default_y -55.00)(dynamics 100.00)(pitch_index 0)(duration 16)(voice 1)(type half)(stem up)(lyric_index 875)(part_index 1))
	(Note (index 1)(default_x 111.29)(default_y -40.00)(dynamics 100.00)(pitch_index 1)(duration 8)(voice 1)(type quarter)(stem up)(part_index 1))
	(Note (index 2)(default_x 128.70)(default_y -55.00)(dynamics 100.00)(pitch_index 2)(duration 8)(voice 1)(type quarter)(stem up)(part_index 1))
	(Note (index 3)(default_x 10.00)(default_y -25.00)(dynamics 100.00)(pitch_index 3)(duration 16)(voice 1)(type half)(stem up)(part_index 1))
	(Note (index 4)(default_x 38.22)(default_y -25.00)(dynamics 100.00)(pitch_index 4)(duration 8)(voice 1)(type quarter)(stem up)(part_index 1))
	(Note (index 5)(default_x 55.63)(default_y -20.00)(dynamics 100.00)(pitch_index 5)(duration 8)(voice 1)(type quarter)(stem down)(part_index 1))
	(Note (index 6)(default_x 10.36)(default_y -15.00)(dynamics 100.00)(pitch_index 6)(duration 16)(voice 1)(type half)(stem down)(part_index 1))
	(Note (index 7)(default_x 35.40)(default_y -20.00)(dynamics 100.00)(pitch_index 7)(duration 16)(voice 1)(type half)(stem down)(part_index 1))
	(Note (index 8)(default_x 10.00)(default_y -15.00)(dynamics 100.00)(pitch_index 8)(duration 8)(voice 1)(type quarter)(stem down)(part_index 1))
	(Note (index 9)(default_x 29.13)(default_y -20.00)(dynamics 100.00)(pitch_index 9)(duration 8)(voice 1)(type quarter)(stem down)(part_index 1))
	(Note (index 10)(default_x 47.90)(default_y -25.00)(dynamics 100.00)(pitch_index 10)(duration 16)(voice 1)(type half)(stem up)(part_index 1))
	(Note (index 11)(default_x 10.00)(default_y -35.00)(dynamics 100.00)(pitch_index 11)(duration 16)(voice 1)(type half)(stem up)(part_index 1))
	(Note (index 12)(default_x 35.25)(default_y -35.00)(dynamics 100.00)(pitch_index 12)(duration 16)(voice 1)(type half)(stem up)(part_index 1))
	(Note (index 13)(duration 8)(voice 1)(type quarter)(part_index 1))
	(Note (index 14)(default_x 30.07)(default_y -35.00)(dynamics 100.00)(pitch_index 13)(duration 8)(voice 1)(type quarter)(stem up)(part_index 1))
	(Note (index 15)(default_x 48.84)(default_y -35.00)(dynamics 100.00)(pitch_index 14)(duration 16)(voice 1)(type half)(stem up)(part_index 1))
	(Note (index 16)(default_x 10.00)(default_y -40.00)(dynamics 100.00)(pitch_index 15)(duration 8)(voice 1)(type quarter)(stem up)(part_index 1))
	(Note (index 17)(default_x 31.07)(default_y -45.00)(dynamics 100.00)(pitch_index 16)(duration 8)(voice 1)(type quarter)(stem up)(part_index 1))
	(Note (index 18)(default_x 52.14)(default_y -40.00)(dynamics 100.00)(pitch_index 17)(duration 8)(voice 1)(type quarter)(stem up)(part_index 1))
	(Note (index 19)(default_x 73.20)(default_y -40.00)(dynamics 100.00)(pitch_index 18)(duration 8)(voice 1)(type quarter)(stem up)(part_index 1))
	(Note (index 20)(default_x 10.00)(default_y -40.00)(dynamics 100.00)(pitch_index 19)(duration 16)(voice 1)(type half)(stem up)(part_index 1))
	(Note (index 21)(default_x 35.25)(default_y -35.00)(dynamics 100.00)(pitch_index 20)(duration 16)(voice 1)(type half)(stem up)(part_index 1))
	(Note (index 22)(default_x 10.00)(default_y -25.00)(dynamics 100.00)(pitch_index 21)(duration 8)(voice 1)(type quarter)(stem up)(part_index 1))
	(Note (index 23)(default_x 32.11)(default_y -35.00)(dynamics 100.00)(pitch_index 22)(duration 8)(voice 1)(type quarter)(stem up)(part_index 1))
	(Note (index 24)(default_x 54.22)(default_y -40.00)(dynamics 100.00)(pitch_index 23)(duration 8)(voice 1)(type quarter)(stem up)(part_index 1))
	(Note (index 25)(default_x 76.34)(default_y -45.00)(dynamics 100.00)(pitch_index 24)(duration 4)(voice 1)(type eighth)(stem up)(beam_index 0)(part_index 1))
	(Note (index 26)(default_x 92.00)(default_y -40.00)(dynamics 100.00)(pitch_index 25)(duration 4)(voice 1)(type eighth)(stem up)(beam_index 1)(part_index 1))
	(Note (index 27)(default_x 10.00)(default_y -35.00)(dynamics 100.00)(pitch_index 26)(duration 8)(voice 1)(type quarter)(stem up)(part_index 1))
	(Note (index 28)(default_x 36.66)(default_y -25.00)(dynamics 100.00)(pitch_index 27)(duration 4)(voice 1)(type eighth)(stem up)(beam_index 2)(part_index 1))
	(Note (index 29)(default_x 53.33)(default_y -35.00)(dynamics 100.00)(pitch_index 28)(duration 4)(voice 1)(type eighth)(stem up)(beam_index 3)(part_index 1))
	(Note (index 30)(default_x 69.99)(default_y -40.00)(dynamics 100.00)(pitch_index 29)(duration 8)(voice 1)(type quarter)(stem up)(part_index 1))
	(Note (index 31)(default_x 96.66)(default_y -50.00)(dynamics 100.00)(pitch_index 30)(duration 4)(voice 1)(type eighth)(stem up)(beam_index 4)(part_index 1))
	(Note (index 32)(default_x 119.92)(default_y -55.00)(dynamics 100.00)(pitch_index 31)(duration 4)(voice 1)(type eighth)(stem up)(beam_index 5)(part_index 1))
	(Note (index 33)(default_x 10.00)(default_y -25.00)(dynamics 100.00)(pitch_index 32)(duration 8)(voice 1)(type quarter)(stem up)(part_index 1))
	(Note (index 34)(default_x 37.63)(default_y 10.00)(dynamics 100.00)(pitch_index 33)(duration 8)(voice 1)(type quarter)(stem down)(part_index 1))
	(Note (index 35)(default_x 65.25)(default_y 10.00)(dynamics 100.00)(pitch_index 34)(duration 4)(voice 1)(type eighth)(stem down)(beam_index 6)(part_index 1))
	(Note (index 36)(default_x 88.52)(default_y 10.00)(dynamics 100.00)(pitch_index 35)(duration 4)(voice 1)(type eighth)(stem down)(beam_index 7)(part_index 1))
	(Note (index 37)(default_x 105.78)(default_y -5.00)(dynamics 100.00)(pitch_index 36)(duration 8)(voice 1)(type quarter)(stem down)(part_index 1))
	(Note (index 38)(default_x 58.17)(default_y -5.00)(dynamics 100.00)(pitch_index 37)(duration 6)(voice 1)(type eighth)(stem down)(beam_index 8)(part_index 1))
	(Note (index 39)(default_x 85.71)(default_y -15.00)(dynamics 100.00)(pitch_index 38)(duration 2)(voice 1)(type 16th)(stem down)(beam 9 10)(part_index 1))
	(Note (index 40)(default_x 101.37)(default_y -20.00)(dynamics 100.00)(pitch_index 39)(duration 8)(voice 1)(type quarter)(stem down)(part_index 1))
	(Note (index 41)(default_x 132.42)(default_y -20.00)(dynamics 100.00)(pitch_index 40)(duration 12)(voice 1)(type quarter)(stem down)(part_index 1))
	(Note (index 42)(default_x 168.41)(default_y -40.00)(dynamics 100.00)(pitch_index 41)(duration 4)(voice 1)(type eighth)(stem up)(part_index 1))
	(Note (index 43)(default_x 13.80)(default_y -55.00)(dynamics 100.00)(pitch_index 42)(duration 8)(voice 1)(type quarter)(stem up)(part_index 1))
	(Note (index 44)(default_x 40.57)(default_y -55.00)(dynamics 100.00)(pitch_index 43)(duration 8)(voice 1)(type quarter)(stem up)(part_index 1))
	(Note (index 45)(default_x 67.34)(default_y -20.00)(dynamics 100.00)(pitch_index 44)(duration 8)(voice 1)(type quarter)(stem down)(part_index 1))
	(Note (index 46)(default_x 94.12)(default_y -40.00)(dynamics 100.00)(pitch_index 45)(duration 8)(voice 1)(type quarter)(stem up)(part_index 1))
	(Note (index 47)(default_x 13.80)(default_y -55.00)(dynamics 100.00)(pitch_index 46)(duration 16)(voice 1)(type half)(stem up)(part_index 1))
	(Note (index 48)(default_x 13.80)(default_y -20.00)(dynamics 100.00)(pitch_index 47)(duration 16)(voice 1)(type half)(stem up)(part_index 1))
	(Note (index 49)(default_x 44.63)(default_y -20.00)(dynamics 100.00)(pitch_index 48)(duration 16)(voice 1)(type half)(stem down)(part_index 1))
	(Note (index 50)(default_x 10.00)(default_y -15.00)(dynamics 100.00)(pitch_index 49)(duration 8)(voice 1)(type quarter)(stem down)(part_index 1))
	(Note (index 51)(default_x 33.35)(default_y -20.00)(dynamics 100.00)(pitch_index 50)(duration 8)(voice 1)(type quarter)(stem down)(part_index 1))
	(Note (index 52)(default_x 56.70)(default_y -25.00)(dynamics 100.00)(pitch_index 51)(duration 8)(voice 1)(type quarter)(stem up)(part_index 1))
	(Note (index 53)(default_x 80.06)(default_y -35.00)(dynamics 100.00)(pitch_index 52)(duration 8)(voice 1)(type quarter)(stem up)(part_index 1))
	(Note (index 54)(default_x 10.00)(default_y -35.00)(dynamics 100.00)(pitch_index 53)(duration 16)(voice 1)(type half)(stem up)(part_index 1))
	(Note (index 55)(default_x 38.77)(default_y -35.00)(dynamics 100.00)(pitch_index 54)(duration 16)(voice 1)(type half)(stem up)(part_index 1))
	(Note (index 56)(default_x 10.00)(default_y -20.00)(dynamics 100.00)(pitch_index 55)(duration 6)(voice 1)(type eighth)(stem up)(beam_index 11)(part_index 1))
	(Note (index 57)(default_x 34.23)(default_y -25.00)(dynamics 100.00)(pitch_index 56)(duration 2)(voice 1)(type 16th)(stem up)(beam 12 13)(part_index 1))
	(Note (index 58)(default_x 49.89)(default_y -35.00)(dynamics 100.00)(pitch_index 57)(duration 8)(voice 1)(type quarter)(stem up)(part_index 1))
	(Note (index 59)(default_x 77.21)(default_y -40.00)(dynamics 100.00)(pitch_index 58)(duration 8)(voice 1)(type quarter)(stem up)(part_index 1))
	(Note (index 60)(default_x 104.53)(default_y -45.00)(dynamics 100.00)(pitch_index 59)(duration 8)(voice 1)(type quarter)(stem up)(part_index 1))
	(Note (index 61)(default_x 13.80)(default_y -75.00)(dynamics 100.00)(pitch_index 60)(duration 8)(voice 1)(type quarter)(stem up)(part_index 1))
	(Note (index 62)(default_x 34.89)(default_y -40.00)(dynamics 100.00)(pitch_index 61)(duration 8)(voice 1)(type quarter)(stem up)(part_index 1))
	(Note (index 63)(default_x 55.61)(default_y -35.00)(dynamics 100.00)(pitch_index 62)(duration 16)(voice 1)(type half)(stem up)(part_index 1))
	(Note (index 64)(default_x 10.00)(default_y -25.00)(dynamics 100.00)(pitch_index 63)(duration 8)(voice 1)(type quarter)(stem up)(part_index 1))
	(Note (index 65)(default_x 34.46)(default_y -35.00)(dynamics 100.00)(pitch_index 64)(duration 8)(voice 1)(type quarter)(stem up)(part_index 1))
	(Note (index 66)(default_x 58.92)(default_y -40.00)(dynamics 100.00)(pitch_index 65)(duration 8)(voice 1)(type quarter)(stem up)(part_index 1))
	(Note (index 67)(default_x 83.37)(default_y -45.00)(dynamics 100.00)(pitch_index 66)(duration 4)(voice 1)(type eighth)(stem up)(beam_index 14)(part_index 1))
	(Note (index 68)(default_x 99.04)(default_y -40.00)(dynamics 100.00)(pitch_index 67)(duration 4)(voice 1)(type eighth)(stem up)(beam_index 15)(part_index 1))
	(Note (index 69)(default_x 10.00)(default_y -35.00)(dynamics 100.00)(pitch_index 68)(duration 8)(voice 1)(type quarter)(stem up)(part_index 1))
	(Note (index 70)(default_x 38.83)(default_y -25.00)(dynamics 100.00)(pitch_index 69)(duration 4)(voice 1)(type eighth)(stem up)(beam_index 16)(part_index 1))
	(Note (index 71)(default_x 56.85)(default_y -35.00)(dynamics 100.00)(pitch_index 70)(duration 4)(voice 1)(type eighth)(stem up)(beam_index 17)(part_index 1))
	(Note (index 72)(default_x 74.86)(default_y -40.00)(dynamics 100.00)(pitch_index 71)(duration 8)(voice 1)(type quarter)(stem up)(part_index 1))
	(Note (index 73)(default_x 103.69)(default_y -50.00)(dynamics 100.00)(pitch_index 72)(duration 4)(voice 1)(type eighth)(stem up)(beam_index 18)(part_index 1))
	(Note (index 74)(default_x 126.96)(default_y -55.00)(dynamics 100.00)(pitch_index 73)(duration 4)(voice 1)(type eighth)(stem up)(beam_index 19)(part_index 1))
	(Note (index 75)(default_x 58.17)(default_y -25.00)(dynamics 100.00)(pitch_index 74)(duration 8)(voice 1)(type quarter)(stem up)(part_index 1))
	(Note (index 76)(default_x 87.95)(default_y 10.00)(dynamics 100.00)(pitch_index 75)(duration 8)(voice 1)(type quarter)(stem down)(part_index 1))
	(Note (index 77)(default_x 117.73)(default_y 10.00)(dynamics 100.00)(pitch_index 76)(duration 4)(voice 1)(type eighth)(stem down)(beam_index 20)(part_index 1))
	(Note (index 78)(default_x 141.00)(default_y 10.00)(dynamics 100.00)(pitch_index 77)(duration 4)(voice 1)(type eighth)(stem down)(beam_index 21)(part_index 1))
	(Note (index 79)(default_x 159.61)(default_y -5.00)(dynamics 100.00)(pitch_index 78)(duration 8)(voice 1)(type quarter)(stem down)(part_index 1))
	(Note (index 80)(default_x 10.00)(default_y -5.00)(dynamics 100.00)(pitch_index 79)(duration 6)(voice 1)(type eighth)(stem down)(beam_index 22)(part_index 1))
	(Note (index 81)(default_x 37.75)(default_y -15.00)(dynamics 100.00)(pitch_index 80)(duration 2)(voice 1)(type 16th)(stem down)(beam 23 24)(part_index 1))
	(Note (index 82)(default_x 53.42)(default_y -20.00)(dynamics 100.00)(pitch_index 81)(duration 8)(voice 1)(type quarter)(stem down)(part_index 1))
	(Note (index 83)(default_x 84.72)(default_y -20.00)(dynamics 100.00)(pitch_index 82)(duration 12)(voice 1)(type quarter)(stem down)(part_index 1))
	(Note (index 84)(default_x 121.01)(default_y -40.00)(dynamics 100.00)(pitch_index 83)(duration 4)(voice 1)(type eighth)(stem up)(part_index 1))
	(Note (index 85)(default_x 13.80)(default_y -55.00)(dynamics 100.00)(pitch_index 84)(duration 8)(voice 1)(type quarter)(stem up)(part_index 1))
	(Note (index 86)(default_x 43.66)(default_y -55.00)(dynamics 100.00)(pitch_index 85)(duration 6)(voice 1)(type eighth)(stem up)(beam_index 25)(part_index 1))
	(Note (index 87)(default_x 70.14)(default_y -25.00)(dynamics 100.00)(pitch_index 86)(duration 2)(voice 1)(type 16th)(stem up)(beam 26 27)(part_index 1))
	(Note (index 88)(default_x 85.81)(default_y -20.00)(dynamics 100.00)(pitch_index 87)(duration 8)(voice 1)(type quarter)(stem down)(part_index 1))
	(Note (index 89)(default_x 115.67)(default_y -40.00)(dynamics 100.00)(pitch_index 88)(duration 8)(voice 1)(type quarter)(stem up)(part_index 1))
	(Note (index 90)(default_x 13.80)(default_y -55.00)(dynamics 100.00)(pitch_index 89)(duration 16)(voice 1)(type half)(stem up)(part_index 1))
	(Note (index 91)(default_x 13.80)(default_y -20.00)(dynamics 100.00)(pitch_index 90)(duration 16)(voice 1)(type half)(stem up)(part_index 1))
	(Note (index 92)(default_x 45.02)(default_y -20.00)(dynamics 100.00)(pitch_index 91)(duration 16)(voice 1)(type half)(stem down)(part_index 1))
	(Note (index 93)(default_x 10.00)(default_y -15.00)(dynamics 100.00)(pitch_index 92)(duration 8)(voice 1)(type quarter)(stem down)(part_index 1))
	(Note (index 94)(default_x 33.54)(default_y -20.00)(dynamics 100.00)(pitch_index 93)(duration 8)(voice 1)(type quarter)(stem down)(part_index 1))
	(Note (index 95)(default_x 57.09)(default_y -25.00)(dynamics 100.00)(pitch_index 94)(duration 8)(voice 1)(type quarter)(stem up)(part_index 1))
	(Note (index 96)(default_x 80.63)(default_y -35.00)(dynamics 100.00)(pitch_index 95)(duration 8)(voice 1)(type quarter)(stem up)(part_index 1))
	(Note (index 97)(default_x 10.00)(default_y -35.00)(dynamics 100.00)(pitch_index 96)(duration 16)(voice 1)(type half)(stem up)(part_index 1))
	(Note (index 98)(default_x 46.22)(default_y -20.00)(dynamics 100.00)(pitch_index 97)(duration 6)(voice 1)(type eighth)(stem up)(beam_index 28)(part_index 1))
	(Note (index 99)(default_x 71.20)(default_y -25.00)(dynamics 100.00)(pitch_index 98)(duration 2)(voice 1)(type 16th)(stem up)(beam 29 30)(part_index 1))
	(Note (index 100)(default_x 86.87)(default_y -35.00)(dynamics 100.00)(pitch_index 99)(duration 8)(voice 1)(type quarter)(stem up)(part_index 1))
	(Note (index 101)(default_x 10.00)(default_y -35.00)(dynamics 100.00)(pitch_index 100)(duration 16)(voice 1)(type half)(stem up)(part_index 1))
	(Note (index 102)(default_x 43.02)(default_y -35.00)(dynamics 100.00)(pitch_index 101)(duration 8)(voice 1)(type quarter)(stem up)(part_index 1))
	(Note (index 103)(default_x 63.44)(default_y -40.00)(dynamics 100.00)(pitch_index 102)(duration 8)(voice 1)(type quarter)(stem up)(part_index 1))
	(Note (index 104)(default_x 10.00)(default_y -35.00)(dynamics 100.00)(pitch_index 103)(duration 8)(voice 1)(type quarter)(stem up)(part_index 1))
	(Note (index 105)(default_x 30.22)(default_y -45.00)(dynamics 100.00)(pitch_index 104)(duration 16)(voice 1)(type half)(stem up)(part_index 1))
	(Note (index 106)(default_x 63.51)(default_y -40.00)(dynamics 100.00)(pitch_index 105)(duration 8)(voice 1)(type quarter)(stem up)(part_index 1))
	(Note (index 107)(default_x 10.00)(default_y -35.00)(dynamics 100.00)(pitch_index 106)(duration 8)(voice 1)(type quarter)(stem up)(part_index 1))
	(Note (index 108)(duration 8)(voice 1)(type quarter)(part_index 1))
	(Note (index 109)(default_x 57.65)(default_y -35.00)(dynamics 100.00)(pitch_index 107)(duration 8)(voice 1)(type quarter)(stem up)(part_index 1))
	(Note (index 110)(default_x 81.48)(default_y -40.00)(dynamics 100.00)(pitch_index 108)(duration 8)(voice 1)(type quarter)(stem up)(part_index 1))
	(Note (index 111)(default_x 58.17)(default_y -35.00)(dynamics 100.00)(pitch_index 109)(duration 8)(voice 1)(type quarter)(stem up)(part_index 1))
	(Note (index 112)(default_x 81.83)(default_y -25.00)(dynamics 100.00)(pitch_index 110)(duration 8)(voice 1)(type quarter)(stem up)(part_index 1))
	(Note (index 113)(default_x 105.49)(default_y -35.00)(dynamics 100.00)(pitch_index 111)(duration 8)(voice 1)(type quarter)(stem up)(part_index 1))
	(Note (index 114)(default_x 129.15)(default_y -40.00)(dynamics 100.00)(pitch_index 112)(duration 8)(voice 1)(type quarter)(stem up)(part_index 1))
	(Note (index 115)(duration 8)(voice 1)(type quarter)(part_index 1))
	(Note (index 116)(default_x 35.80)(default_y -35.00)(dynamics 100.00)(pitch_index 113)(duration 8)(voice 1)(type quarter)(stem up)(part_index 1))
	(Note (index 117)(default_x 60.67)(default_y -40.00)(dynamics 100.00)(pitch_index 114)(duration 8)(voice 1)(type quarter)(stem up)(part_index 1))
	(Note (index 118)(default_x 85.54)(default_y -45.00)(dynamics 100.00)(pitch_index 115)(duration 4)(voice 1)(type eighth)(stem up)(beam_index 31)(part_index 1))
	(Note (index 119)(default_x 101.20)(default_y -40.00)(dynamics 100.00)(pitch_index 116)(duration 4)(voice 1)(type eighth)(stem up)(beam_index 32)(part_index 1))
	(Note (index 120)(default_x 10.00)(default_y -35.00)(dynamics 100.00)(pitch_index 117)(duration 8)(voice 1)(type quarter)(stem up)(part_index 1))
	(Note (index 121)(default_x 38.41)(default_y -40.00)(dynamics 100.00)(pitch_index 118)(duration 8)(voice 1)(type quarter)(stem up)(part_index 1))
	(Note (index 122)(default_x 66.83)(default_y -50.00)(dynamics 100.00)(pitch_index 119)(duration 8)(voice 1)(type quarter)(stem up)(part_index 1))
	(Note (index 123)(default_x 95.24)(default_y -50.00)(dynamics 100.00)(pitch_index 120)(duration 4)(voice 1)(type eighth)(stem up)(beam_index 33)(part_index 1))
	(Note (index 124)(default_x 118.51)(default_y -55.00)(dynamics 100.00)(pitch_index 121)(duration 4)(voice 1)(type eighth)(stem up)(beam_index 34)(part_index 1))
	(Note (index 125)(default_x 10.00)(default_y -25.00)(dynamics 100.00)(pitch_index 122)(duration 8)(voice 1)(type quarter)(stem up)(part_index 1))
	(Note (index 126)(duration 4)(voice 1)(type eighth)(part_index 1))
	(Note (index 127)(default_x 61.84)(default_y -15.00)(dynamics 100.00)(pitch_index 123)(duration 4)(voice 1)(type eighth)(stem down)(part_index 1))
	(Note (index 128)(default_x 83.67)(default_y -25.00)(dynamics 100.00)(pitch_index 124)(duration 6)(voice 1)(type eighth)(stem up)(beam_index 35)(part_index 1))
	(Note (index 129)(default_x 110.29)(default_y -25.00)(dynamics 100.00)(pitch_index 125)(duration 2)(voice 1)(type 16th)(stem up)(beam 36 37)(part_index 1))
	(Note (index 130)(duration 4)(voice 1)(type eighth)(part_index 1))
	(Note (index 131)(default_x 147.98)(default_y -15.00)(dynamics 100.00)(pitch_index 126)(duration 4)(voice 1)(type eighth)(stem down)(part_index 1))
	(Note (index 132)(default_x 10.00)(default_y -25.00)(dynamics 100.00)(pitch_index 127)(duration 4)(voice 1)(type eighth)(stem up)(beam_index 38)(part_index 1))
	(Note (index 133)(default_x 30.99)(default_y -25.00)(dynamics 100.00)(pitch_index 128)(duration 4)(voice 1)(type eighth)(stem up)(beam_index 39)(part_index 1))
	(Note (index 134)(duration 4)(voice 1)(type eighth)(part_index 1))
	(Note (index 135)(default_x 72.96)(default_y -15.00)(dynamics 100.00)(pitch_index 129)(duration 4)(voice 1)(type eighth)(stem down)(part_index 1))
	(Note (index 136)(default_x 93.94)(default_y -25.00)(dynamics 100.00)(pitch_index 130)(duration 4)(voice 1)(type eighth)(stem up)(beam_index 40)(part_index 1))
	(Note (index 137)(default_x 114.93)(default_y -20.00)(dynamics 100.00)(pitch_index 131)(duration 4)(voice 1)(type eighth)(stem up)(beam_index 41)(part_index 1))
	(Note (index 138)(default_x 135.92)(default_y -25.00)(dynamics 100.00)(pitch_index 132)(duration 4)(voice 1)(type eighth)(stem up)(beam_index 42)(part_index 1))
	(Note (index 139)(default_x 156.90)(default_y -35.00)(dynamics 100.00)(pitch_index 133)(duration 4)(voice 1)(type eighth)(stem up)(beam_index 43)(part_index 1))
	(Note (index 140)(default_x 10.00)(default_y -35.00)(dynamics 100.00)(pitch_index 134)(duration 8)(voice 1)(type quarter)(stem up)(part_index 1))
	(Note (index 141)(duration 4)(voice 1)(type eighth)(part_index 1))
	(Note (index 142)(default_x 54.80)(default_y -25.00)(dynamics 100.00)(pitch_index 135)(duration 4)(voice 1)(type eighth)(stem up)(part_index 1))
	(Note (index 143)(default_x 80.07)(default_y -35.00)(dynamics 100.00)(pitch_index 136)(duration 8)(voice 1)(type quarter)(stem up)(part_index 1))
	(Note (index 144)(default_x 107.64)(default_y -40.00)(dynamics 100.00)(pitch_index 137)(duration 8)(voice 1)(type quarter)(stem up)(part_index 1))
	(Note (index 145)(default_x 10.00)(default_y -40.00)(dynamics 100.00)(pitch_index 138)(duration 4)(voice 1)(type eighth)(stem up)(beam_index 44)(part_index 1))
	(Note (index 146)(default_x 29.37)(default_y -20.00)(dynamics 100.00)(pitch_index 139)(duration 4)(voice 1)(type eighth)(stem up)(beam_index 45)(part_index 1))
	(Note (index 147)(default_x 48.75)(default_y -15.00)(dynamics 100.00)(pitch_index 140)(duration 8)(voice 1)(type quarter)(stem down)(part_index 1))
	(Note (index 148)(default_x 79.74)(default_y -20.00)(dynamics 100.00)(pitch_index 141)(duration 4)(voice 1)(type eighth)(stem up)(beam_index 46)(part_index 1))
	(Note (index 149)(default_x 99.12)(default_y -25.00)(dynamics 100.00)(pitch_index 142)(duration 4)(voice 1)(type eighth)(stem up)(beam_index 47)(part_index 1))
	(Note (index 150)(default_x 118.49)(default_y -35.00)(dynamics 100.00)(pitch_index 143)(duration 4)(voice 1)(type eighth)(stem up)(beam_index 48)(part_index 1))
	(Note (index 151)(default_x 137.86)(default_y -40.00)(dynamics 100.00)(pitch_index 144)(duration 4)(voice 1)(type eighth)(stem up)(beam_index 49)(part_index 1))
	(Note (index 152)(default_x 58.17)(default_y -45.00)(dynamics 100.00)(pitch_index 145)(duration 4)(voice 1)(type eighth)(stem up)(part_index 1))
	(Note (index 153)(default_x 83.45)(default_y -45.00)(dynamics 100.00)(pitch_index 146)(duration 8)(voice 1)(type quarter)(stem up)(part_index 1))
	(Note (index 154)(default_x 121.00)(default_y -40.00)(dynamics 100.00)(pitch_index 147)(duration 4)(voice 1)(type eighth)(stem up)(part_index 1))
	(Note (index 155)(default_x 146.27)(default_y -35.00)(dynamics 100.00)(pitch_index 148)(duration 4)(voice 1)(type eighth)(stem up)(beam_index 50)(part_index 1))
	(Note (index 156)(default_x 169.74)(default_y -35.00)(dynamics 100.00)(pitch_index 149)(duration 4)(voice 1)(type eighth)(stem up)(beam_index 51)(part_index 1))
	(Note (index 157)(duration 4)(voice 1)(type eighth)(part_index 1))
	(Note (index 158)(default_x 216.67)(default_y -35.00)(dynamics 100.00)(pitch_index 150)(duration 4)(voice 1)(type eighth)(stem up)(part_index 1))
	(Note (index 159)(duration 4)(voice 1)(type eighth)(part_index 1))
	(Note (index 160)(default_x 32.14)(default_y -35.00)(dynamics 100.00)(pitch_index 151)(duration 4)(voice 1)(type eighth)(stem up)(beam_index 52)(part_index 1))
	(Note (index 161)(default_x 54.09)(default_y -75.00)(dynamics 100.00)(pitch_index 152)(duration 4)(voice 1)(type eighth)(stem up)(beam_index 53)(part_index 1))
	(Note (index 162)(default_x 76.03)(default_y -45.00)(dynamics 100.00)(pitch_index 153)(duration 4)(voice 1)(type eighth)(stem up)(beam_index 54)(part_index 1))
	(Note (index 163)(default_x 97.98)(default_y -45.00)(dynamics 100.00)(pitch_index 154)(duration 12)(voice 1)(type quarter)(stem up)(part_index 1))
	(Note (index 164)(default_x 140.79)(default_y -35.00)(dynamics 100.00)(pitch_index 155)(duration 4)(voice 1)(type eighth)(stem up)(part_index 1))
	(Note (index 165)(default_x 10.00)(default_y -45.00)(dynamics 100.00)(pitch_index 156)(duration 4)(voice 1)(type eighth)(stem up)(beam_index 55)(part_index 1))
	(Note (index 166)(default_x 33.45)(default_y -45.00)(dynamics 100.00)(pitch_index 157)(duration 4)(voice 1)(type eighth)(stem up)(beam_index 56)(part_index 1))
	(Note (index 167)(duration 4)(voice 1)(type eighth)(part_index 1))
	(Note (index 168)(default_x 80.36)(default_y -35.00)(dynamics 100.00)(pitch_index 158)(duration 4)(voice 1)(type eighth)(stem up)(part_index 1))
	(Note (index 169)(default_x 105.64)(default_y -45.00)(dynamics 100.00)(pitch_index 159)(duration 4)(voice 1)(type eighth)(stem up)(beam_index 57)(part_index 1))
	(Note (index 170)(default_x 129.09)(default_y -45.00)(dynamics 100.00)(pitch_index 160)(duration 4)(voice 1)(type eighth)(stem up)(beam_index 58)(part_index 1))
	(Note (index 171)(duration 4)(voice 1)(type eighth)(part_index 1))
	(Note (index 172)(default_x 176.00)(default_y -35.00)(dynamics 100.00)(pitch_index 161)(duration 4)(voice 1)(type eighth)(stem up)(part_index 1))
	(Note (index 173)(default_x 10.00)(default_y -45.00)(dynamics 100.00)(pitch_index 162)(duration 4)(voice 1)(type eighth)(stem up)(beam_index 59)(part_index 1))
	(Note (index 174)(default_x 32.05)(default_y -40.00)(dynamics 100.00)(pitch_index 163)(duration 4)(voice 1)(type eighth)(stem up)(beam_index 60)(part_index 1))
	(Note (index 175)(default_x 54.09)(default_y -35.00)(dynamics 100.00)(pitch_index 164)(duration 6)(voice 1)(type eighth)(stem up)(beam_index 61)(part_index 1))
	(Note (index 176)(default_x 80.98)(default_y -25.00)(dynamics 100.00)(pitch_index 165)(duration 2)(voice 1)(type 16th)(stem up)(beam 62 63)(part_index 1))
	(Note (index 177)(default_x 96.64)(default_y -20.00)(dynamics 100.00)(pitch_index 166)(duration 8)(voice 1)(type quarter)(stem down)(part_index 1))
	(Note (index 178)(default_x 126.96)(default_y -40.00)(dynamics 100.00)(pitch_index 167)(duration 8)(voice 1)(type quarter)(stem up)(part_index 1))
	(Note (index 179)(default_x 10.00)(default_y -20.00)(dynamics 100.00)(pitch_index 168)(duration 12)(voice 1)(type quarter)(stem down)(part_index 1))
	(Note (index 180)(default_x 49.25)(default_y -25.00)(dynamics 100.00)(pitch_index 169)(duration 4)(voice 1)(type eighth)(stem up)(part_index 1))
	(Note (index 181)(default_x 74.53)(default_y -20.00)(dynamics 100.00)(pitch_index 170)(duration 8)(voice 1)(type quarter)(stem down)(part_index 1))
	(Note (index 182)(default_x 106.72)(default_y -5.00)(dynamics 100.00)(pitch_index 171)(duration 4)(voice 1)(type eighth)(stem down)(beam_index 64)(part_index 1))
	(Note (index 183)(default_x 126.84)(default_y -15.00)(dynamics 100.00)(pitch_index 172)(duration 4)(voice 1)(type eighth)(stem down)(beam_index 65)(part_index 1))
	(Note (index 184)(default_x 10.00)(default_y -20.00)(dynamics 100.00)(pitch_index 173)(duration 4)(voice 1)(type eighth)(stem up)(beam_index 66)(part_index 1))
	(Note (index 185)(default_x 27.48)(default_y -25.00)(dynamics 100.00)(pitch_index 174)(duration 4)(voice 1)(type eighth)(stem up)(beam_index 67)(part_index 1))
	(Note (index 186)(default_x 44.95)(default_y -35.00)(dynamics 100.00)(pitch_index 175)(duration 8)(voice 1)(type quarter)(stem up)(part_index 1))
	(Note (index 187)(default_x 72.91)(default_y -35.00)(dynamics 100.00)(pitch_index 176)(duration 8)(voice 1)(type quarter)(stem up)(part_index 1))
	(Note (index 188)(default_x 100.87)(default_y -25.00)(dynamics 100.00)(pitch_index 177)(duration 8)(voice 1)(type quarter)(stem up)(part_index 1))
	(Note (index 189)(default_x 58.17)(default_y -35.00)(dynamics 100.00)(pitch_index 178)(duration 4)(voice 1)(type eighth)(stem up)(beam_index 68)(part_index 1))
	(Note (index 190)(default_x 80.47)(default_y -40.00)(dynamics 100.00)(pitch_index 179)(duration 4)(voice 1)(type eighth)(stem up)(beam_index 69)(part_index 1))
	(Note (index 191)(default_x 102.76)(default_y -25.00)(dynamics 100.00)(pitch_index 180)(duration 4)(voice 1)(type eighth)(stem up)(beam_index 70)(part_index 1))
	(Note (index 192)(default_x 125.06)(default_y -20.00)(dynamics 100.00)(pitch_index 181)(duration 4)(voice 1)(type eighth)(stem up)(beam_index 71)(part_index 1))
	(Note (index 193)(default_x 147.35)(default_y -15.00)(dynamics 100.00)(pitch_index 182)(duration 8)(voice 1)(type quarter)(stem down)(notations_index 0)(part_index 1))
	(Note (index 194)(default_x 183.02)(default_y -20.00)(dynamics 100.00)(pitch_index 183)(duration 4)(voice 1)(type eighth)(stem up)(beam_index 72)(part_index 1))
	(Note (index 195)(default_x 205.31)(default_y -25.00)(dynamics 100.00)(pitch_index 184)(duration 4)(voice 1)(type eighth)(stem up)(beam_index 73)(part_index 1))
	(Note (index 196)(default_x 10.00)(default_y -35.00)(dynamics 100.00)(pitch_index 185)(duration 4)(voice 1)(type eighth)(stem up)(beam_index 74)(part_index 1))
	(Note (index 197)(default_x 37.20)(default_y -35.00)(dynamics 100.00)(pitch_index 186)(duration 3)(voice 1)(type 16th)(stem up)(beam 75 76)(part_index 1))
	(Note (index 198)(default_x 61.32)(default_y -20.00)(dynamics 100.00)(pitch_index 187)(duration 1)(voice 1)(type 32nd)(stem up)(beam 77 78 79)(part_index 1))
	(Note (index 199)(default_x 76.99)(default_y -35.00)(dynamics 100.00)(pitch_index 188)(duration 8)(voice 1)(type quarter)(stem up)(part_index 1))
	(Note (index 200)(default_x 111.24)(default_y -40.00)(dynamics 100.00)(pitch_index 189)(duration 16)(voice 1)(type half)(stem up)(part_index 1))
	(Note (index 201)(default_x 10.00)(default_y -35.00)(dynamics 100.00)(pitch_index 190)(duration 8)(voice 1)(type quarter)(stem up)(part_index 1))
	(Note (index 202)(default_x 38.48)(default_y -40.00)(dynamics 100.00)(pitch_index 191)(duration 8)(voice 1)(type quarter)(stem up)(part_index 1))
	(Note (index 203)(default_x 66.95)(default_y -35.00)(dynamics 100.00)(pitch_index 192)(duration 8)(voice 1)(type quarter)(stem up)(part_index 1))
	(Note (index 204)(default_x 95.43)(default_y -40.00)(dynamics 100.00)(pitch_index 193)(duration 8)(voice 1)(type quarter)(stem up)(part_index 1))
	(Note (index 205)(default_x 10.00)(default_y -25.00)(dynamics 100.00)(pitch_index 194)(duration 4)(voice 1)(type eighth)(stem up)(beam_index 80)(part_index 1))
	(Note (index 206)(default_x 36.19)(default_y -35.00)(dynamics 100.00)(pitch_index 195)(duration 4)(voice 1)(type eighth)(stem up)(beam_index 81)(part_index 1))
	(Note (index 207)(default_x 62.38)(default_y -40.00)(dynamics 100.00)(pitch_index 196)(duration 6)(voice 1)(type eighth)(stem up)(beam_index 82)(part_index 1))
	(Note (index 208)(default_x 94.32)(default_y -50.00)(dynamics 100.00)(pitch_index 197)(duration 2)(voice 1)(type 16th)(stem up)(beam 83 84)(part_index 1))
	(Note (index 209)(default_x 117.58)(default_y -55.00)(dynamics 100.00)(pitch_index 198)(duration 8)(voice 1)(type quarter)(stem up)(part_index 1))
	(Note (index 210)(default_x 153.60)(default_y -40.00)(dynamics 100.00)(pitch_index 199)(duration 6)(voice 1)(type eighth)(stem up)(beam_index 85)(part_index 1))
	(Note (index 211)(default_x 185.53)(default_y -50.00)(dynamics 100.00)(pitch_index 200)(duration 2)(voice 1)(type 16th)(stem up)(beam 86 87)(part_index 1))
	(Note (index 212)(default_x 13.80)(default_y -55.00)(dynamics 100.00)(pitch_index 201)(duration 8)(voice 1)(type quarter)(stem up)(part_index 1))
	(Note (index 213)(default_x 42.75)(default_y -55.00)(dynamics 100.00)(pitch_index 202)(duration 16)(voice 1)(type half)(stem up)(part_index 1))
	(Note (index 214)(default_x 90.01)(default_y -15.00)(dynamics 100.00)(pitch_index 203)(duration 8)(voice 1)(type quarter)(stem down)(part_index 1))
	(Note (index 215)(default_x 10.00)(default_y -20.00)(dynamics 100.00)(pitch_index 204)(duration 6)(voice 1)(type eighth)(stem up)(beam_index 88)(part_index 1))
	(Note (index 216)(default_x 40.63)(default_y -25.00)(dynamics 100.00)(pitch_index 205)(duration 2)(voice 1)(type 16th)(stem up)(beam 89 90)(part_index 1))
	(Note (index 217)(default_x 56.34)(default_y -35.00)(dynamics 100.00)(pitch_index 206)(duration 8)(voice 1)(type quarter)(stem up)(part_index 1))
	(Note (index 218)(default_x 90.52)(default_y -40.00)(dynamics 100.00)(pitch_index 207)(duration 16)(voice 1)(type half)(stem up)(part_index 1))
	(Note (index 219)(default_x 10.00)(default_y -45.00)(dynamics 100.00)(pitch_index 208)(duration 16)(voice 1)(type half)(stem up)(part_index 1))
	(Note (index 220)(default_x 49.02)(default_y -40.00)(dynamics 100.00)(pitch_index 209)(duration 16)(voice 1)(type half)(stem up)(part_index 1))
)

(deffacts pitchs
	(Pitch (index 0)(step B)(octave 3)(part_index 1))
	(Pitch (index 1)(step E)(octave 4)(part_index 1))
	(Pitch (index 2)(step B)(octave 3)(part_index 1))
	(Pitch (index 3)(step A)(octave 4)(part_index 1))
	(Pitch (index 4)(step A)(octave 4)(part_index 1))
	(Pitch (index 5)(step B)(octave 4)(part_index 1))
	(Pitch (index 6)(step C)(octave 5)(part_index 1))
	(Pitch (index 7)(step B)(octave 4)(part_index 1))
	(Pitch (index 8)(step C)(octave 5)(part_index 1))
	(Pitch (index 9)(step B)(octave 4)(part_index 1))
	(Pitch (index 10)(step A)(octave 4)(part_index 1))
	(Pitch (index 11)(step F)(octave 4)(part_index 1))
	(Pitch (index 12)(step F)(octave 4)(part_index 1))
	(Pitch (index 13)(step F)(octave 4)(part_index 1))
	(Pitch (index 14)(step F)(octave 4)(part_index 1))
	(Pitch (index 15)(step E)(octave 4)(part_index 1))
	(Pitch (index 16)(step D)(octave 4)(part_index 1))
	(Pitch (index 17)(step E)(octave 4)(part_index 1))
	(Pitch (index 18)(step E)(octave 4)(part_index 1))
	(Pitch (index 19)(step E)(octave 4)(part_index 1))
	(Pitch (index 20)(step F)(octave 4)(part_index 1))
	(Pitch (index 21)(step A)(octave 4)(part_index 1))
	(Pitch (index 22)(step F)(octave 4)(part_index 1))
	(Pitch (index 23)(step E)(octave 4)(part_index 1))
	(Pitch (index 24)(step D)(octave 4)(part_index 1))
	(Pitch (index 25)(step E)(octave 4)(part_index 1))
	(Pitch (index 26)(step F)(octave 4)(part_index 1))
	(Pitch (index 27)(step A)(octave 4)(part_index 1))
	(Pitch (index 28)(step F)(octave 4)(part_index 1))
	(Pitch (index 29)(step E)(octave 4)(part_index 1))
	(Pitch (index 30)(step C)(octave 4)(part_index 1))
	(Pitch (index 31)(step B)(octave 3)(part_index 1))
	(Pitch (index 32)(step A)(octave 4)(part_index 1))
	(Pitch (index 33)(step A)(octave 5)(part_index 1))
	(Pitch (index 34)(step A)(octave 5)(part_index 1))
	(Pitch (index 35)(step A)(octave 5)(part_index 1))
	(Pitch (index 36)(step E)(octave 5)(part_index 1))
	(Pitch (index 37)(step E)(octave 5)(part_index 1))
	(Pitch (index 38)(step C)(octave 5)(part_index 1))
	(Pitch (index 39)(step B)(octave 4)(part_index 1))
	(Pitch (index 40)(step B)(octave 4)(part_index 1))
	(Pitch (index 41)(step E)(octave 4)(part_index 1))
	(Pitch (index 42)(step B)(octave 3)(part_index 1))
	(Pitch (index 43)(step B)(octave 3)(part_index 1))
	(Pitch (index 44)(step B)(octave 4)(part_index 1))
	(Pitch (index 45)(step E)(octave 4)(part_index 1))
	(Pitch (index 46)(step B)(octave 3)(part_index 1))
	(Pitch (index 47)(step B)(octave 4)(part_index 1))
	(Pitch (index 48)(step B)(octave 4)(part_index 1))
	(Pitch (index 49)(step C)(octave 5)(part_index 1))
	(Pitch (index 50)(step B)(octave 4)(part_index 1))
	(Pitch (index 51)(step A)(octave 4)(part_index 1))
	(Pitch (index 52)(step F)(octave 4)(part_index 1))
	(Pitch (index 53)(step F)(octave 4)(part_index 1))
	(Pitch (index 54)(step F)(octave 4)(part_index 1))
	(Pitch (index 55)(step B)(octave 4)(part_index 1))
	(Pitch (index 56)(step A)(octave 4)(part_index 1))
	(Pitch (index 57)(step F)(octave 4)(part_index 1))
	(Pitch (index 58)(step E)(octave 4)(part_index 1))
	(Pitch (index 59)(step D)(octave 4)(part_index 1))
	(Pitch (index 60)(step E)(octave 3)(part_index 1))
	(Pitch (index 61)(step E)(octave 4)(part_index 1))
	(Pitch (index 62)(step F)(octave 4)(part_index 1))
	(Pitch (index 63)(step A)(octave 4)(part_index 1))
	(Pitch (index 64)(step F)(octave 4)(part_index 1))
	(Pitch (index 65)(step E)(octave 4)(part_index 1))
	(Pitch (index 66)(step D)(octave 4)(part_index 1))
	(Pitch (index 67)(step E)(octave 4)(part_index 1))
	(Pitch (index 68)(step F)(octave 4)(part_index 1))
	(Pitch (index 69)(step A)(octave 4)(part_index 1))
	(Pitch (index 70)(step F)(octave 4)(part_index 1))
	(Pitch (index 71)(step E)(octave 4)(part_index 1))
	(Pitch (index 72)(step C)(octave 4)(part_index 1))
	(Pitch (index 73)(step B)(octave 3)(part_index 1))
	(Pitch (index 74)(step A)(octave 4)(part_index 1))
	(Pitch (index 75)(step A)(octave 5)(part_index 1))
	(Pitch (index 76)(step A)(octave 5)(part_index 1))
	(Pitch (index 77)(step A)(octave 5)(part_index 1))
	(Pitch (index 78)(step E)(octave 5)(part_index 1))
	(Pitch (index 79)(step E)(octave 5)(part_index 1))
	(Pitch (index 80)(step C)(octave 5)(part_index 1))
	(Pitch (index 81)(step B)(octave 4)(part_index 1))
	(Pitch (index 82)(step B)(octave 4)(part_index 1))
	(Pitch (index 83)(step E)(octave 4)(part_index 1))
	(Pitch (index 84)(step B)(octave 3)(part_index 1))
	(Pitch (index 85)(step B)(octave 3)(part_index 1))
	(Pitch (index 86)(step A)(octave 4)(part_index 1))
	(Pitch (index 87)(step B)(octave 4)(part_index 1))
	(Pitch (index 88)(step E)(octave 4)(part_index 1))
	(Pitch (index 89)(step B)(octave 3)(part_index 1))
	(Pitch (index 90)(step B)(octave 4)(part_index 1))
	(Pitch (index 91)(step B)(octave 4)(part_index 1))
	(Pitch (index 92)(step C)(octave 5)(part_index 1))
	(Pitch (index 93)(step B)(octave 4)(part_index 1))
	(Pitch (index 94)(step A)(octave 4)(part_index 1))
	(Pitch (index 95)(step F)(octave 4)(part_index 1))
	(Pitch (index 96)(step F)(octave 4)(part_index 1))
	(Pitch (index 97)(step B)(octave 4)(part_index 1))
	(Pitch (index 98)(step A)(octave 4)(part_index 1))
	(Pitch (index 99)(step F)(octave 4)(part_index 1))
	(Pitch (index 100)(step F)(octave 4)(part_index 1))
	(Pitch (index 101)(step F)(octave 4)(part_index 1))
	(Pitch (index 102)(step E)(octave 4)(part_index 1))
	(Pitch (index 103)(step F)(octave 4)(part_index 1))
	(Pitch (index 104)(step D)(octave 4)(part_index 1))
	(Pitch (index 105)(step E)(octave 4)(part_index 1))
	(Pitch (index 106)(step F)(octave 4)(part_index 1))
	(Pitch (index 107)(step F)(octave 4)(part_index 1))
	(Pitch (index 108)(step E)(octave 4)(part_index 1))
	(Pitch (index 109)(step F)(octave 4)(part_index 1))
	(Pitch (index 110)(step A)(octave 4)(part_index 1))
	(Pitch (index 111)(step F)(octave 4)(part_index 1))
	(Pitch (index 112)(step E)(octave 4)(part_index 1))
	(Pitch (index 113)(step F)(octave 4)(part_index 1))
	(Pitch (index 114)(step E)(octave 4)(part_index 1))
	(Pitch (index 115)(step D)(octave 4)(part_index 1))
	(Pitch (index 116)(step E)(octave 4)(part_index 1))
	(Pitch (index 117)(step F)(octave 4)(part_index 1))
	(Pitch (index 118)(step E)(octave 4)(part_index 1))
	(Pitch (index 119)(step C)(octave 4)(part_index 1))
	(Pitch (index 120)(step C)(octave 4)(part_index 1))
	(Pitch (index 121)(step B)(octave 3)(part_index 1))
	(Pitch (index 122)(step A)(octave 4)(part_index 1))
	(Pitch (index 123)(step C)(octave 5)(part_index 1))
	(Pitch (index 124)(step A)(octave 4)(part_index 1))
	(Pitch (index 125)(step A)(octave 4)(part_index 1))
	(Pitch (index 126)(step C)(octave 5)(part_index 1))
	(Pitch (index 127)(step A)(octave 4)(part_index 1))
	(Pitch (index 128)(step A)(octave 4)(part_index 1))
	(Pitch (index 129)(step C)(octave 5)(part_index 1))
	(Pitch (index 130)(step A)(octave 4)(part_index 1))
	(Pitch (index 131)(step B)(octave 4)(part_index 1))
	(Pitch (index 132)(step A)(octave 4)(part_index 1))
	(Pitch (index 133)(step F)(octave 4)(part_index 1))
	(Pitch (index 134)(step F)(octave 4)(part_index 1))
	(Pitch (index 135)(step A)(octave 4)(part_index 1))
	(Pitch (index 136)(step F)(octave 4)(part_index 1))
	(Pitch (index 137)(step E)(octave 4)(part_index 1))
	(Pitch (index 138)(step E)(octave 4)(part_index 1))
	(Pitch (index 139)(step B)(octave 4)(part_index 1))
	(Pitch (index 140)(step C)(octave 5)(part_index 1))
	(Pitch (index 141)(step B)(octave 4)(part_index 1))
	(Pitch (index 142)(step A)(octave 4)(part_index 1))
	(Pitch (index 143)(step F)(octave 4)(part_index 1))
	(Pitch (index 144)(step E)(octave 4)(part_index 1))
	(Pitch (index 145)(step D)(octave 4)(part_index 1))
	(Pitch (index 146)(step D)(octave 4)(part_index 1))
	(Pitch (index 147)(step E)(octave 4)(part_index 1))
	(Pitch (index 148)(step F)(octave 4)(part_index 1))
	(Pitch (index 149)(step F)(octave 4)(part_index 1))
	(Pitch (index 150)(step F)(octave 4)(part_index 1))
	(Pitch (index 151)(step F)(octave 4)(part_index 1))
	(Pitch (index 152)(step E)(octave 3)(part_index 1))
	(Pitch (index 153)(step D)(octave 4)(part_index 1))
	(Pitch (index 154)(step D)(octave 4)(part_index 1))
	(Pitch (index 155)(step F)(octave 4)(part_index 1))
	(Pitch (index 156)(step D)(octave 4)(part_index 1))
	(Pitch (index 157)(step D)(octave 4)(part_index 1))
	(Pitch (index 158)(step F)(octave 4)(part_index 1))
	(Pitch (index 159)(step D)(octave 4)(part_index 1))
	(Pitch (index 160)(step D)(octave 4)(part_index 1))
	(Pitch (index 161)(step F)(octave 4)(part_index 1))
	(Pitch (index 162)(step D)(octave 4)(part_index 1))
	(Pitch (index 163)(step E)(octave 4)(part_index 1))
	(Pitch (index 164)(step F)(octave 4)(part_index 1))
	(Pitch (index 165)(step A)(octave 4)(part_index 1))
	(Pitch (index 166)(step B)(octave 4)(part_index 1))
	(Pitch (index 167)(step E)(octave 4)(part_index 1))
	(Pitch (index 168)(step B)(octave 4)(part_index 1))
	(Pitch (index 169)(step A)(octave 4)(part_index 1))
	(Pitch (index 170)(step B)(octave 4)(part_index 1))
	(Pitch (index 171)(step E)(octave 5)(part_index 1))
	(Pitch (index 172)(step C)(octave 5)(part_index 1))
	(Pitch (index 173)(step B)(octave 4)(part_index 1))
	(Pitch (index 174)(step A)(octave 4)(part_index 1))
	(Pitch (index 175)(step F)(octave 4)(part_index 1))
	(Pitch (index 176)(step F)(octave 4)(part_index 1))
	(Pitch (index 177)(step A)(octave 4)(part_index 1))
	(Pitch (index 178)(step F)(octave 4)(part_index 1))
	(Pitch (index 179)(step E)(octave 4)(part_index 1))
	(Pitch (index 180)(step A)(octave 4)(part_index 1))
	(Pitch (index 181)(step B)(octave 4)(part_index 1))
	(Pitch (index 182)(step C)(octave 5)(part_index 1))
	(Pitch (index 183)(step B)(octave 4)(part_index 1))
	(Pitch (index 184)(step A)(octave 4)(part_index 1))
	(Pitch (index 185)(step F)(octave 4)(part_index 1))
	(Pitch (index 186)(step F)(octave 4)(part_index 1))
	(Pitch (index 187)(step B)(octave 4)(part_index 1))
	(Pitch (index 188)(step F)(octave 4)(part_index 1))
	(Pitch (index 189)(step E)(octave 4)(part_index 1))
	(Pitch (index 190)(step F)(octave 4)(part_index 1))
	(Pitch (index 191)(step E)(octave 4)(part_index 1))
	(Pitch (index 192)(step F)(octave 4)(part_index 1))
	(Pitch (index 193)(step E)(octave 4)(part_index 1))
	(Pitch (index 194)(step A)(octave 4)(part_index 1))
	(Pitch (index 195)(step F)(octave 4)(part_index 1))
	(Pitch (index 196)(step E)(octave 4)(part_index 1))
	(Pitch (index 197)(step C)(octave 4)(part_index 1))
	(Pitch (index 198)(step B)(octave 3)(part_index 1))
	(Pitch (index 199)(step E)(octave 4)(part_index 1))
	(Pitch (index 200)(step C)(octave 4)(part_index 1))
	(Pitch (index 201)(step B)(octave 3)(part_index 1))
	(Pitch (index 202)(step B)(octave 3)(part_index 1))
	(Pitch (index 203)(step C)(octave 5)(part_index 1))
	(Pitch (index 204)(step B)(octave 4)(part_index 1))
	(Pitch (index 205)(step A)(octave 4)(part_index 1))
	(Pitch (index 206)(step F)(octave 4)(part_index 1))
	(Pitch (index 207)(step E)(octave 4)(part_index 1))
	(Pitch (index 208)(step D)(octave 4)(part_index 1))
	(Pitch (index 209)(step E)(octave 4)(part_index 1))
)

(deffacts beams
	(Beam (index 0)(data begin)(number 1)(part_index 1))
	(Beam (index 1)(data end)(number 1)(part_index 1))
	(Beam (index 2)(data begin)(number 1)(part_index 1))
	(Beam (index 3)(data end)(number 1)(part_index 1))
	(Beam (index 4)(data begin)(number 1)(part_index 1))
	(Beam (index 5)(data end)(number 1)(part_index 1))
	(Beam (index 6)(data begin)(number 1)(part_index 1))
	(Beam (index 7)(data end)(number 1)(part_index 1))
	(Beam (index 8)(data begin)(number 1)(part_index 1))
	(Beam (index 9)(data end)(number 1)(part_index 1))
	(Beam (index 10)(data backward-hook)(number 2)(part_index 1))
	(Beam (index 11)(data begin)(number 1)(part_index 1))
	(Beam (index 12)(data end)(number 1)(part_index 1))
	(Beam (index 13)(data backward-hook)(number 2)(part_index 1))
	(Beam (index 14)(data begin)(number 1)(part_index 1))
	(Beam (index 15)(data end)(number 1)(part_index 1))
	(Beam (index 16)(data begin)(number 1)(part_index 1))
	(Beam (index 17)(data end)(number 1)(part_index 1))
	(Beam (index 18)(data begin)(number 1)(part_index 1))
	(Beam (index 19)(data end)(number 1)(part_index 1))
	(Beam (index 20)(data begin)(number 1)(part_index 1))
	(Beam (index 21)(data end)(number 1)(part_index 1))
	(Beam (index 22)(data begin)(number 1)(part_index 1))
	(Beam (index 23)(data end)(number 1)(part_index 1))
	(Beam (index 24)(data backward-hook)(number 2)(part_index 1))
	(Beam (index 25)(data begin)(number 1)(part_index 1))
	(Beam (index 26)(data end)(number 1)(part_index 1))
	(Beam (index 27)(data backward-hook)(number 2)(part_index 1))
	(Beam (index 28)(data begin)(number 1)(part_index 1))
	(Beam (index 29)(data end)(number 1)(part_index 1))
	(Beam (index 30)(data backward-hook)(number 2)(part_index 1))
	(Beam (index 31)(data begin)(number 1)(part_index 1))
	(Beam (index 32)(data end)(number 1)(part_index 1))
	(Beam (index 33)(data begin)(number 1)(part_index 1))
	(Beam (index 34)(data end)(number 1)(part_index 1))
	(Beam (index 35)(data begin)(number 1)(part_index 1))
	(Beam (index 36)(data end)(number 1)(part_index 1))
	(Beam (index 37)(data backward-hook)(number 2)(part_index 1))
	(Beam (index 38)(data begin)(number 1)(part_index 1))
	(Beam (index 39)(data end)(number 1)(part_index 1))
	(Beam (index 40)(data begin)(number 1)(part_index 1))
	(Beam (index 41)(data continue)(number 1)(part_index 1))
	(Beam (index 42)(data continue)(number 1)(part_index 1))
	(Beam (index 43)(data end)(number 1)(part_index 1))
	(Beam (index 44)(data begin)(number 1)(part_index 1))
	(Beam (index 45)(data end)(number 1)(part_index 1))
	(Beam (index 46)(data begin)(number 1)(part_index 1))
	(Beam (index 47)(data continue)(number 1)(part_index 1))
	(Beam (index 48)(data continue)(number 1)(part_index 1))
	(Beam (index 49)(data end)(number 1)(part_index 1))
	(Beam (index 50)(data begin)(number 1)(part_index 1))
	(Beam (index 51)(data end)(number 1)(part_index 1))
	(Beam (index 52)(data begin)(number 1)(part_index 1))
	(Beam (index 53)(data continue)(number 1)(part_index 1))
	(Beam (index 54)(data end)(number 1)(part_index 1))
	(Beam (index 55)(data begin)(number 1)(part_index 1))
	(Beam (index 56)(data end)(number 1)(part_index 1))
	(Beam (index 57)(data begin)(number 1)(part_index 1))
	(Beam (index 58)(data end)(number 1)(part_index 1))
	(Beam (index 59)(data begin)(number 1)(part_index 1))
	(Beam (index 60)(data end)(number 1)(part_index 1))
	(Beam (index 61)(data begin)(number 1)(part_index 1))
	(Beam (index 62)(data end)(number 1)(part_index 1))
	(Beam (index 63)(data backward-hook)(number 2)(part_index 1))
	(Beam (index 64)(data begin)(number 1)(part_index 1))
	(Beam (index 65)(data end)(number 1)(part_index 1))
	(Beam (index 66)(data begin)(number 1)(part_index 1))
	(Beam (index 67)(data end)(number 1)(part_index 1))
	(Beam (index 68)(data begin)(number 1)(part_index 1))
	(Beam (index 69)(data continue)(number 1)(part_index 1))
	(Beam (index 70)(data continue)(number 1)(part_index 1))
	(Beam (index 71)(data end)(number 1)(part_index 1))
	(Beam (index 72)(data begin)(number 1)(part_index 1))
	(Beam (index 73)(data end)(number 1)(part_index 1))
	(Beam (index 74)(data begin)(number 1)(part_index 1))
	(Beam (index 75)(data continue)(number 1)(part_index 1))
	(Beam (index 76)(data begin)(number 2)(part_index 1))
	(Beam (index 77)(data end)(number 1)(part_index 1))
	(Beam (index 78)(data end)(number 2)(part_index 1))
	(Beam (index 79)(data backward-hook)(number 3)(part_index 1))
	(Beam (index 80)(data begin)(number 1)(part_index 1))
	(Beam (index 81)(data end)(number 1)(part_index 1))
	(Beam (index 82)(data begin)(number 1)(part_index 1))
	(Beam (index 83)(data end)(number 1)(part_index 1))
	(Beam (index 84)(data backward-hook)(number 2)(part_index 1))
	(Beam (index 85)(data begin)(number 1)(part_index 1))
	(Beam (index 86)(data end)(number 1)(part_index 1))
	(Beam (index 87)(data backward-hook)(number 2)(part_index 1))
	(Beam (index 88)(data begin)(number 1)(part_index 1))
	(Beam (index 89)(data end)(number 1)(part_index 1))
	(Beam (index 90)(data backward-hook)(number 2)(part_index 1))
)

(deffacts keys
	(Key (index 0)(fifths 0)(part_index 1))
)

(deffacts times
	(Time (index 0)(beats 4)(beat_type 4)(part_index 1))
)

(deffacts transposes
)

(deffacts directions
	(Direction (index 0)(placement above)(direction_type_index 0)(sound_index 0)(part_index 1))
)

(deffacts direction_types
	(Direction_Type (index 0)(metronome_index 0)(part_index 1))
)

(deffacts metronomes
	(Metronome (index 0)(parentheses no)(default_x -40.12)(relative_y 20.00)(beat_unit quarter)(per_minute 110)(part_index 1))
)

(deffacts sounds
	(Sound (index 0)(tempo 110)(part_index 1))
)

(deffacts clefs
	(Clef (index 0)(sign G)(line 2)(part_index 1))
)

(deffacts barlines
	(Barline (index 0)(location right)(bar_style light-heavy)(part_index 1))
)

(deffacts ties
)

(deffacts instruments
)

(deffacts prints
)

(deffacts notationss
	(Notations (index 0)(articulations_index 0)(part_index 1))
)

(deffacts backups
)

(deffacts unpitcheds
	(Unpitched (index 0)(part_index -1)(display_step A))
)

(deffacts articulationss
	(Articulations (index 0)(part_index 1))
)

(deffacts repeats
)

(deffacts staff_layouts
)

(deffacts tieds
)

(deffacts system_layouts
)

(deffacts system_marginss
)

