(deftemplate Part
	(slot id)
	(slot index)
	(slot part_index)
	(multislot measure)
)

(deftemplate Attributes
	(slot divisions)
	(slot clef_index)
	(slot index)
	(slot part_index)
	(slot time_index)
	(slot key_index)
)

(deftemplate Measure
	(slot barline_index)
	(slot width)
	(slot direction_index)
	(slot index)
	(slot number)
	(slot part_index)
	(slot attributes_index)
	(multislot note)
)

(deftemplate Note
	(slot tie_index)
	(slot dynamics)
	(slot index)
	(slot default_y)
	(slot duration)
	(slot lyric_index)
	(slot stem)
	(slot voice)
	(slot type)
	(slot notations_index)
	(slot beam_index)
	(slot pitch_index)
	(slot default_x)
	(slot part_index)
	(multislot beam)
)

(deftemplate Pitch
	(slot step)
	(slot octave)
	(slot index)
	(slot part_index)
)

(deftemplate Beam
	(slot number)
	(slot index)
	(slot data)
	(slot part_index)
)

(deftemplate Key
	(slot fifths)
	(slot index)
	(slot part_index)
)

(deftemplate Time
	(slot beat_type)
	(slot index)
	(slot beats)
	(slot part_index)
)

(deftemplate Transpose
)

(deftemplate Direction
	(slot index)
	(slot placement)
	(slot part_index)
	(slot direction_type_index)
	(slot sound_index)
)

(deftemplate Direction_Type
	(slot metronome_index)
	(slot index)
	(slot part_index)
)

(deftemplate Metronome
	(slot per_minute)
	(slot index)
	(slot default_x)
	(slot part_index)
	(slot parentheses)
	(slot relative_y)
	(slot beat_unit)
)

(deftemplate Sound
	(slot tempo)
	(slot index)
	(slot part_index)
)

(deftemplate Clef
	(slot sign)
	(slot line)
	(slot index)
	(slot part_index)
)

(deftemplate Barline
	(slot bar_style)
	(slot location)
	(slot index)
	(slot part_index)
)

(deftemplate Tie
	(slot type)
	(slot index)
	(slot part_index)
)

(deftemplate Instrument
)

(deftemplate Print
)

(deftemplate Notations
	(slot tied_index)
	(slot index)
	(slot part_index)
)

(deftemplate Backup
)

(deftemplate Unpitched
	(slot display_step)
	(slot index)
	(slot part_index)
)

(deftemplate Articulations
)

(deftemplate Repeat
)

(deftemplate Staff_layout
)

(deftemplate Tied
	(slot type)
	(slot index)
	(slot part_index)
)

(deftemplate System_layout
)

(deftemplate System_margins
)

(deffacts parts
	(Part (index 0)(id P1)(measure 0 1 2 3 4 5 6 7 8 9 10 11 12 13 14 15 16 17 18 19 20 21 22 23 24 25 26 27 28 29 30 31 32 33 34 35 36 37 38 39 40 41 42 43 44 45 46 47 48 49 50 51 52 53 54 55 56 57 58 59 60 61 62 63 64 65 66)(part_index 1))
)

(deffacts attributess
	(Attributes (index 0)(divisions 16)(key_index 0)(time_index 0)(clef_index 0)(part_index 1))
)

(deffacts measures
	(Measure (index 0)(number 1)(width 151.96)(attributes_index 0)(direction_index 0)(note 0 1 2 3)(part_index 1))
	(Measure (index 1)(number 2)(width 96.13)(note 4 5 6 7)(part_index 1))
	(Measure (index 2)(number 3)(width 78.56)(note 8 9 10)(part_index 1))
	(Measure (index 3)(number 4)(width 69.39)(note 11 12)(part_index 1))
	(Measure (index 4)(number 5)(width 96.13)(note 13 14 15 16)(part_index 1))
	(Measure (index 5)(number 6)(width 78.56)(note 17 18 19)(part_index 1))
	(Measure (index 6)(number 7)(width 96.13)(note 20 21 22 23)(part_index 1))
	(Measure (index 7)(number 8)(width 117.30)(note 24 25 26 27)(part_index 1))
	(Measure (index 8)(number 9)(width 78.63)(note 28 29 30)(part_index 1))
	(Measure (index 9)(number 10)(width 136.10)(note 31 32 33 34 35)(part_index 1))
	(Measure (index 10)(number 11)(width 78.63)(note 36 37 38)(part_index 1))
	(Measure (index 11)(number 12)(width 152.93)(note 39 40 41 42)(part_index 1))
	(Measure (index 12)(number 13)(width 86.13)(note 43 44 45)(part_index 1))
	(Measure (index 13)(number 14)(width 122.43)(note 46 47 48 49 50)(part_index 1))
	(Measure (index 14)(number 15)(width 122.43)(note 51 52 53 54 55)(part_index 1))
	(Measure (index 15)(number 16)(width 114.57)(note 56 57 58 59)(part_index 1))
	(Measure (index 16)(number 17)(width 124.80)(note 60 61 62 63)(part_index 1))
	(Measure (index 17)(number 18)(width 103.63)(note 64 65 66 67)(part_index 1))
	(Measure (index 18)(number 19)(width 123.56)(note 68 69 70 71 72)(part_index 1))
	(Measure (index 19)(number 20)(width 126.99)(note 73 74 75 76 77)(part_index 1))
	(Measure (index 20)(number 21)(width 130.51)(note 78 79 80)(part_index 1))
	(Measure (index 21)(number 22)(width 136.38)(note 81 82 83 84 85 86)(part_index 1))
	(Measure (index 22)(number 23)(width 167.14)(note 87 88 89 90 91 92 93)(part_index 1))
	(Measure (index 23)(number 24)(width 82.27)(note 94 95 96)(part_index 1))
	(Measure (index 24)(number 25)(width 108.42)(note 97 98 99 100)(part_index 1))
	(Measure (index 25)(number 26)(width 136.38)(note 101 102 103 104 105 106)(part_index 1))
	(Measure (index 26)(number 27)(width 117.58)(note 107 108 109 110 111)(part_index 1))
	(Measure (index 27)(number 28)(width 81.21)(note 112 113 114)(part_index 1))
	(Measure (index 28)(number 29)(width 117.58)(note 115 116 117 118 119)(part_index 1))
	(Measure (index 29)(number 30)(width 165.51)(note 120 121 122 123 124)(part_index 1))
	(Measure (index 30)(number 31)(width 80.89)(note 125 126 127)(part_index 1))
	(Measure (index 31)(number 32)(width 108.17)(note 128 129 130 131)(part_index 1))
	(Measure (index 32)(number 33)(width 98.54)(note 132 133 134 135)(part_index 1))
	(Measure (index 33)(number 34)(width 108.17)(note 136 137 138 139)(part_index 1))
	(Measure (index 34)(number 35)(width 98.54)(note 140 141 142 143)(part_index 1))
	(Measure (index 35)(number 36)(width 98.54)(note 144 145 146 147)(part_index 1))
	(Measure (index 36)(number 37)(width 80.97)(note 148 149 150)(part_index 1))
	(Measure (index 37)(number 38)(width 138.50)(note 151 152 153 154 155)(part_index 1))
	(Measure (index 38)(number 39)(width 99.66)(note 156 157 158 159)(part_index 1))
	(Measure (index 39)(number 40)(width 159.72)(note 160 161 162 163)(part_index 1))
	(Measure (index 40)(number 41)(width 83.11)(note 164 165 166)(part_index 1))
	(Measure (index 41)(number 42)(width 92.68)(note 167 168 169)(part_index 1))
	(Measure (index 42)(number 43)(width 100.68)(note 170 171 172 173)(part_index 1))
	(Measure (index 43)(number 44)(width 128.60)(note 174 175 176 177 178)(part_index 1))
	(Measure (index 44)(number 45)(width 141.76)(note 179 180 181 182 183)(part_index 1))
	(Measure (index 45)(number 46)(width 101.84)(note 184 185 186 187)(part_index 1))
	(Measure (index 46)(number 47)(width 101.81)(note 188 189 190 191)(part_index 1))
	(Measure (index 47)(number 48)(width 83.18)(note 192 193 194)(part_index 1))
	(Measure (index 48)(number 49)(width 84.12)(note 195 196 197)(part_index 1))
	(Measure (index 49)(number 50)(width 162.20)(note 198 199 200 201)(part_index 1))
	(Measure (index 50)(number 51)(width 99.29)(note 202 203 204 205)(part_index 1))
	(Measure (index 51)(number 52)(width 119.24)(note 206 207 208 209 210)(part_index 1))
	(Measure (index 52)(number 53)(width 100.42)(note 211 212 213 214)(part_index 1))
	(Measure (index 53)(number 54)(width 146.01)(note 215 216 217 218 219 220)(part_index 1))
	(Measure (index 54)(number 55)(width 152.46)(note 221 222 223 224 225 226 227)(part_index 1))
	(Measure (index 55)(number 56)(width 99.29)(note 228 229 230 231)(part_index 1))
	(Measure (index 56)(number 57)(width 99.29)(note 232 233 234 235)(part_index 1))
	(Measure (index 57)(number 58)(width 99.29)(note 236 237 238 239)(part_index 1))
	(Measure (index 58)(number 59)(width 147.10)(note 240 241 242)(part_index 1))
	(Measure (index 59)(number 60)(width 119.73)(note 243 244 245)(part_index 1))
	(Measure (index 60)(number 61)(width 116.50)(note 246 247 248 249)(part_index 1))
	(Measure (index 61)(number 62)(width 80.99)(note 250 251)(part_index 1))
	(Measure (index 62)(number 63)(width 117.62)(note 252 253 254 255 256)(part_index 1))
	(Measure (index 63)(number 64)(width 98.85)(note 257 258 259)(part_index 1))
	(Measure (index 64)(number 65)(width 216.24)(note 260 261 262 263 264 265 266 267 268 269 270)(part_index 1))
	(Measure (index 65)(number 66)(width 80.99)(note 271 272)(part_index 1))
	(Measure (index 66)(number 67)(width 99.46)(note 273 274)(barline_index 0)(part_index 1))
)

(deffacts notes
	(Note (index 0)(default_x 83.07)(default_y -55.00)(dynamics 105.56)(pitch_index 0)(duration 16)(voice 1)(type quarter)(stem up)(lyric_index 864)(part_index 1))
	(Note (index 1)(default_x 83.07)(default_y -20.00)(dynamics 105.56)(pitch_index 1)(duration 16)(voice 1)(type quarter)(stem up)(part_index 1))
	(Note (index 2)(duration 16)(voice 1)(type quarter)(part_index 1))
	(Note (index 3)(default_x 120.09)(default_y -20.00)(dynamics 105.56)(pitch_index 2)(duration 32)(voice 1)(type half)(stem down)(part_index 1))
	(Note (index 4)(default_x 10.00)(default_y -15.00)(dynamics 105.56)(pitch_index 3)(duration 16)(voice 1)(type quarter)(stem down)(part_index 1))
	(Note (index 5)(default_x 30.45)(default_y -20.00)(dynamics 105.56)(pitch_index 4)(duration 16)(voice 1)(type quarter)(stem down)(part_index 1))
	(Note (index 6)(default_x 50.91)(default_y -25.00)(dynamics 105.56)(pitch_index 5)(duration 16)(voice 1)(type quarter)(stem up)(part_index 1))
	(Note (index 7)(default_x 71.36)(default_y -35.00)(dynamics 105.56)(pitch_index 6)(duration 16)(voice 1)(type quarter)(stem up)(part_index 1))
	(Note (index 8)(default_x 10.00)(default_y -40.00)(dynamics 105.56)(pitch_index 7)(duration 32)(voice 1)(type half)(stem up)(part_index 1))
	(Note (index 9)(default_x 37.09)(default_y -45.00)(dynamics 105.56)(pitch_index 8)(duration 16)(voice 1)(type quarter)(stem up)(part_index 1))
	(Note (index 10)(default_x 53.79)(default_y -40.00)(dynamics 105.56)(pitch_index 9)(duration 16)(voice 1)(type quarter)(stem up)(part_index 1))
	(Note (index 11)(default_x 10.00)(default_y -35.00)(dynamics 105.56)(pitch_index 10)(duration 48)(voice 1)(type half)(stem up)(part_index 1))
	(Note (index 12)(default_x 44.63)(default_y -35.00)(dynamics 105.56)(pitch_index 11)(duration 16)(tie_index 0)(voice 1)(type quarter)(stem up)(notations_index 0)(part_index 1))
	(Note (index 13)(default_x 10.00)(default_y -35.00)(dynamics 105.56)(pitch_index 12)(duration 16)(tie_index 1)(voice 1)(type quarter)(stem up)(notations_index 1)(part_index 1))
	(Note (index 14)(default_x 30.45)(default_y -25.00)(dynamics 105.56)(pitch_index 13)(duration 16)(voice 1)(type quarter)(stem up)(part_index 1))
	(Note (index 15)(default_x 50.91)(default_y -20.00)(dynamics 105.56)(pitch_index 14)(duration 16)(voice 1)(type quarter)(stem down)(part_index 1))
	(Note (index 16)(default_x 71.36)(default_y -25.00)(dynamics 105.56)(pitch_index 15)(duration 16)(voice 1)(type quarter)(stem up)(part_index 1))
	(Note (index 17)(default_x 10.00)(default_y -35.00)(dynamics 105.56)(pitch_index 16)(duration 32)(voice 1)(type half)(stem up)(part_index 1))
	(Note (index 18)(default_x 37.09)(default_y -40.00)(dynamics 105.56)(pitch_index 17)(duration 16)(voice 1)(type quarter)(stem up)(part_index 1))
	(Note (index 19)(default_x 53.79)(default_y -45.00)(dynamics 105.56)(pitch_index 18)(duration 16)(voice 1)(type quarter)(stem up)(part_index 1))
	(Note (index 20)(default_x 10.00)(default_y -40.00)(dynamics 105.56)(pitch_index 19)(duration 16)(voice 1)(type quarter)(stem up)(part_index 1))
	(Note (index 21)(default_x 30.45)(default_y -35.00)(dynamics 105.56)(pitch_index 20)(duration 16)(voice 1)(type quarter)(stem up)(part_index 1))
	(Note (index 22)(default_x 50.91)(default_y -25.00)(dynamics 105.56)(pitch_index 21)(duration 16)(voice 1)(type quarter)(stem up)(part_index 1))
	(Note (index 23)(default_x 71.36)(default_y -35.00)(dynamics 105.56)(pitch_index 22)(duration 16)(voice 1)(type quarter)(stem up)(part_index 1))
	(Note (index 24)(default_x 10.00)(default_y -40.00)(dynamics 105.56)(pitch_index 23)(duration 24)(voice 1)(type quarter)(stem up)(part_index 1))
	(Note (index 25)(default_x 40.46)(default_y -50.00)(dynamics 105.56)(pitch_index 24)(duration 8)(voice 1)(type eighth)(stem up)(part_index 1))
	(Note (index 26)(default_x 65.74)(default_y -55.00)(dynamics 105.56)(pitch_index 25)(duration 16)(voice 1)(type quarter)(stem up)(part_index 1))
	(Note (index 27)(default_x 90.72)(default_y -25.00)(dynamics 105.56)(pitch_index 26)(duration 16)(voice 1)(type quarter)(stem up)(part_index 1))
	(Note (index 28)(default_x 10.00)(default_y -20.00)(dynamics 105.56)(pitch_index 27)(duration 16)(voice 1)(type quarter)(stem down)(part_index 1))
	(Note (index 29)(default_x 28.62)(default_y -20.00)(dynamics 105.56)(pitch_index 28)(duration 16)(voice 1)(type quarter)(stem down)(part_index 1))
	(Note (index 30)(default_x 46.88)(default_y -20.00)(dynamics 105.56)(pitch_index 29)(duration 32)(voice 1)(type half)(stem down)(part_index 1))
	(Note (index 31)(default_x 10.00)(default_y -35.00)(dynamics 105.56)(pitch_index 30)(duration 24)(voice 1)(type quarter)(stem up)(part_index 1))
	(Note (index 32)(default_x 42.60)(default_y -25.00)(dynamics 105.56)(pitch_index 31)(duration 8)(voice 1)(type eighth)(stem up)(part_index 1))
	(Note (index 33)(default_x 67.88)(default_y -20.00)(dynamics 105.56)(pitch_index 32)(duration 16)(voice 1)(type quarter)(stem down)(part_index 1))
	(Note (index 34)(default_x 94.62)(default_y -15.00)(dynamics 105.56)(pitch_index 33)(duration 8)(voice 1)(type eighth)(stem down)(beam_index 0)(part_index 1))
	(Note (index 35)(default_x 111.33)(default_y -20.00)(dynamics 105.56)(pitch_index 34)(duration 8)(voice 1)(type eighth)(stem down)(beam_index 1)(part_index 1))
	(Note (index 36)(default_x 10.00)(default_y -25.00)(dynamics 105.56)(pitch_index 35)(duration 16)(voice 1)(type quarter)(stem up)(part_index 1))
	(Note (index 37)(default_x 28.62)(default_y -20.00)(dynamics 105.56)(pitch_index 36)(duration 16)(voice 1)(type quarter)(stem down)(part_index 1))
	(Note (index 38)(default_x 46.88)(default_y -15.00)(dynamics 105.56)(pitch_index 37)(duration 32)(voice 1)(type half)(stem down)(part_index 1))
	(Note (index 39)(default_x 58.17)(default_y -40.00)(dynamics 105.56)(pitch_index 38)(duration 16)(voice 1)(type quarter)(stem up)(part_index 1))
	(Note (index 40)(default_x 81.46)(default_y -15.00)(dynamics 105.56)(pitch_index 39)(duration 16)(voice 1)(type quarter)(stem down)(part_index 1))
	(Note (index 41)(default_x 104.75)(default_y -15.00)(dynamics 105.56)(pitch_index 40)(duration 16)(voice 1)(type quarter)(stem down)(part_index 1))
	(Note (index 42)(duration 16)(voice 1)(type quarter)(part_index 1))
	(Note (index 43)(default_x 10.00)(default_y -5.00)(dynamics 105.56)(pitch_index 41)(duration 16)(voice 1)(type quarter)(stem down)(part_index 1))
	(Note (index 44)(default_x 30.70)(default_y -15.00)(dynamics 105.56)(pitch_index 42)(duration 16)(voice 1)(type quarter)(stem down)(part_index 1))
	(Note (index 45)(default_x 51.05)(default_y -20.00)(dynamics 105.56)(pitch_index 43)(duration 32)(voice 1)(type half)(stem down)(part_index 1))
	(Note (index 46)(default_x 10.00)(default_y -20.00)(dynamics 105.56)(pitch_index 44)(duration 16)(voice 1)(type quarter)(stem down)(part_index 1))
	(Note (index 47)(default_x 36.08)(default_y -25.00)(dynamics 105.56)(pitch_index 45)(duration 8)(voice 1)(type eighth)(stem up)(beam_index 2)(part_index 1))
	(Note (index 48)(default_x 52.38)(default_y -20.00)(dynamics 105.56)(pitch_index 46)(duration 8)(voice 1)(type eighth)(stem up)(beam_index 3)(part_index 1))
	(Note (index 49)(default_x 68.68)(default_y -55.00)(dynamics 105.56)(pitch_index 47)(duration 16)(voice 1)(type quarter)(stem up)(part_index 1))
	(Note (index 50)(default_x 94.75)(default_y -15.00)(dynamics 105.56)(pitch_index 48)(duration 16)(voice 1)(type quarter)(stem down)(part_index 1))
	(Note (index 51)(default_x 10.00)(default_y -5.00)(dynamics 105.56)(pitch_index 49)(duration 16)(voice 1)(type quarter)(stem down)(part_index 1))
	(Note (index 52)(default_x 34.00)(default_y -15.00)(dynamics 105.56)(pitch_index 50)(duration 16)(voice 1)(type quarter)(stem down)(part_index 1))
	(Note (index 53)(default_x 58.00)(default_y -20.00)(dynamics 105.56)(pitch_index 51)(duration 16)(voice 1)(type quarter)(stem down)(part_index 1))
	(Note (index 54)(default_x 82.00)(default_y -5.00)(dynamics 105.56)(pitch_index 52)(duration 8)(voice 1)(type eighth)(stem down)(beam_index 4)(part_index 1))
	(Note (index 55)(default_x 97.67)(default_y -15.00)(dynamics 105.56)(pitch_index 53)(duration 8)(voice 1)(type eighth)(stem down)(beam_index 5)(part_index 1))
	(Note (index 56)(default_x 10.00)(default_y -20.00)(dynamics 105.56)(pitch_index 54)(duration 12)(voice 1)(type eighth)(stem up)(beam_index 6)(part_index 1))
	(Note (index 57)(default_x 34.50)(default_y -25.00)(dynamics 105.56)(pitch_index 55)(duration 4)(voice 1)(type 16th)(stem up)(beam 7 8)(part_index 1))
	(Note (index 58)(default_x 50.17)(default_y -35.00)(dynamics 105.56)(pitch_index 56)(duration 16)(voice 1)(type quarter)(stem up)(part_index 1))
	(Note (index 59)(default_x 77.44)(default_y -40.00)(dynamics 105.56)(pitch_index 57)(duration 32)(voice 1)(type half)(stem up)(part_index 1))
	(Note (index 60)(default_x 10.00)(default_y -45.00)(dynamics 105.56)(pitch_index 58)(duration 16)(voice 1)(type quarter)(stem up)(part_index 1))
	(Note (index 61)(default_x 34.98)(default_y -40.00)(dynamics 105.56)(pitch_index 59)(duration 16)(voice 1)(type quarter)(stem up)(part_index 1))
	(Note (index 62)(default_x 59.97)(default_y -35.00)(dynamics 105.56)(pitch_index 60)(duration 24)(voice 1)(type quarter)(stem up)(part_index 1))
	(Note (index 63)(default_x 90.43)(default_y -25.00)(dynamics 105.56)(pitch_index 61)(duration 8)(voice 1)(type eighth)(stem up)(part_index 1))
	(Note (index 64)(default_x 10.00)(default_y -20.00)(dynamics 105.56)(pitch_index 62)(duration 16)(voice 1)(type quarter)(stem down)(part_index 1))
	(Note (index 65)(default_x 32.96)(default_y -25.00)(dynamics 105.56)(pitch_index 63)(duration 16)(voice 1)(type quarter)(stem up)(part_index 1))
	(Note (index 66)(default_x 55.91)(default_y -35.00)(dynamics 105.56)(pitch_index 64)(duration 16)(voice 1)(type quarter)(stem up)(part_index 1))
	(Note (index 67)(default_x 78.87)(default_y -40.00)(dynamics 105.56)(pitch_index 65)(duration 16)(voice 1)(type quarter)(stem up)(part_index 1))
	(Note (index 68)(default_x 10.00)(default_y -45.00)(dynamics 105.56)(pitch_index 66)(duration 16)(voice 1)(type quarter)(stem up)(part_index 1))
	(Note (index 69)(duration 16)(voice 1)(type quarter)(part_index 1))
	(Note (index 70)(default_x 58.75)(default_y -40.00)(dynamics 105.56)(pitch_index 67)(duration 16)(voice 1)(type quarter)(stem up)(part_index 1))
	(Note (index 71)(default_x 83.13)(default_y -40.00)(dynamics 105.56)(pitch_index 68)(duration 8)(voice 1)(type eighth)(stem up)(beam_index 9)(part_index 1))
	(Note (index 72)(default_x 98.79)(default_y -35.00)(dynamics 105.56)(pitch_index 69)(duration 8)(voice 1)(type eighth)(stem up)(beam_index 10)(part_index 1))
	(Note (index 73)(default_x 10.00)(default_y -25.00)(dynamics 105.56)(pitch_index 70)(duration 16)(voice 1)(type quarter)(stem up)(part_index 1))
	(Note (index 74)(default_x 34.25)(default_y -35.00)(dynamics 105.56)(pitch_index 71)(duration 16)(voice 1)(type quarter)(stem up)(part_index 1))
	(Note (index 75)(default_x 58.51)(default_y -40.00)(dynamics 105.56)(pitch_index 72)(duration 16)(voice 1)(type quarter)(stem up)(part_index 1))
	(Note (index 76)(default_x 82.76)(default_y -55.00)(dynamics 105.56)(pitch_index 73)(duration 8)(voice 1)(type eighth)(stem up)(beam_index 11)(part_index 1))
	(Note (index 77)(default_x 102.23)(default_y -45.00)(dynamics 105.56)(pitch_index 74)(duration 8)(voice 1)(type eighth)(stem up)(beam_index 12)(part_index 1))
	(Note (index 78)(default_x 58.17)(default_y -40.00)(dynamics 105.56)(pitch_index 75)(duration 32)(voice 1)(type half)(stem up)(part_index 1))
	(Note (index 79)(default_x 87.59)(default_y -40.00)(dynamics 105.56)(pitch_index 76)(duration 16)(voice 1)(type quarter)(stem up)(part_index 1))
	(Note (index 80)(duration 16)(voice 1)(type quarter)(part_index 1))
	(Note (index 81)(default_x 10.00)(default_y -10.00)(dynamics 105.56)(pitch_index 77)(duration 8)(voice 1)(type eighth)(stem down)(beam_index 13)(part_index 1))
	(Note (index 82)(default_x 27.33)(default_y -10.00)(dynamics 105.56)(pitch_index 78)(duration 8)(voice 1)(type eighth)(stem down)(beam_index 14)(part_index 1))
	(Note (index 83)(default_x 44.66)(default_y -10.00)(dynamics 105.56)(pitch_index 79)(duration 8)(voice 1)(type eighth)(stem down)(beam_index 15)(part_index 1))
	(Note (index 84)(default_x 61.99)(default_y -10.00)(dynamics 105.56)(pitch_index 80)(duration 8)(voice 1)(type eighth)(stem down)(beam_index 16)(part_index 1))
	(Note (index 85)(default_x 79.32)(default_y -5.00)(dynamics 105.56)(pitch_index 81)(duration 16)(voice 1)(type quarter)(stem down)(part_index 1))
	(Note (index 86)(default_x 107.05)(default_y -15.00)(dynamics 105.56)(pitch_index 82)(duration 16)(voice 1)(type quarter)(stem down)(part_index 1))
	(Note (index 87)(default_x 10.00)(default_y -20.00)(dynamics 105.56)(pitch_index 83)(duration 16)(voice 1)(type quarter)(stem down)(part_index 1))
	(Note (index 88)(duration 8)(voice 1)(type eighth)(part_index 1))
	(Note (index 89)(duration 4)(voice 1)(type 16th)(part_index 1))
	(Note (index 90)(duration 2)(voice 1)(type 32nd)(part_index 1))
	(Note (index 91)(default_x 93.56)(default_y 15.00)(dynamics 105.56)(pitch_index 84)(duration 1)(voice 1)(type 64th)(stem down)(beam 17 18 19 20)(part_index 1))
	(Note (index 92)(default_x 116.82)(default_y 10.00)(dynamics 105.56)(pitch_index 85)(duration 1)(voice 1)(type 64th)(stem down)(beam 21 22 23 24)(part_index 1))
	(Note (index 93)(default_x 132.85)(default_y 0.00)(dynamics 105.56)(pitch_index 86)(duration 32)(voice 1)(type half)(stem down)(part_index 1))
	(Note (index 94)(default_x 10.36)(default_y -5.00)(dynamics 105.56)(pitch_index 87)(duration 32)(voice 1)(type half)(stem down)(part_index 1))
	(Note (index 95)(default_x 39.51)(default_y -5.00)(dynamics 105.56)(pitch_index 88)(duration 16)(voice 1)(type quarter)(stem down)(part_index 1))
	(Note (index 96)(duration 16)(voice 1)(type quarter)(part_index 1))
	(Note (index 97)(default_x 10.00)(default_y 0.00)(dynamics 105.56)(pitch_index 89)(duration 24)(voice 1)(type quarter)(stem down)(part_index 1))
	(Note (index 98)(default_x 40.71)(default_y 10.00)(dynamics 105.56)(pitch_index 90)(duration 8)(voice 1)(type eighth)(stem down)(part_index 1))
	(Note (index 99)(default_x 56.45)(default_y 0.00)(dynamics 105.56)(pitch_index 91)(duration 16)(voice 1)(type quarter)(stem down)(part_index 1))
	(Note (index 100)(default_x 81.64)(default_y -5.00)(dynamics 105.56)(pitch_index 92)(duration 16)(voice 1)(type quarter)(stem down)(part_index 1))
	(Note (index 101)(default_x 10.00)(default_y -10.00)(dynamics 105.56)(pitch_index 93)(duration 8)(voice 1)(type eighth)(stem down)(beam_index 25)(part_index 1))
	(Note (index 102)(default_x 26.39)(default_y -5.00)(dynamics 105.56)(pitch_index 94)(duration 8)(voice 1)(type eighth)(stem down)(beam_index 26)(part_index 1))
	(Note (index 103)(default_x 42.78)(default_y 0.00)(dynamics 105.56)(pitch_index 95)(duration 16)(voice 1)(type quarter)(stem down)(part_index 1))
	(Note (index 104)(default_x 69.00)(default_y -5.00)(dynamics 105.56)(pitch_index 96)(duration 8)(voice 1)(type eighth)(stem down)(part_index 1))
	(Note (index 105)(default_x 85.39)(default_y -5.00)(dynamics 105.56)(pitch_index 97)(duration 16)(voice 1)(type quarter)(stem down)(part_index 1))
	(Note (index 106)(default_x 111.62)(default_y -15.00)(dynamics 105.56)(pitch_index 98)(duration 8)(voice 1)(type eighth)(stem down)(part_index 1))
	(Note (index 107)(default_x 10.00)(default_y -20.00)(dynamics 105.56)(pitch_index 99)(duration 16)(voice 1)(type quarter)(stem down)(part_index 1))
	(Note (index 108)(default_x 34.88)(default_y -15.00)(dynamics 105.56)(pitch_index 100)(duration 8)(voice 1)(type eighth)(stem down)(beam_index 27)(part_index 1))
	(Note (index 109)(default_x 50.55)(default_y -20.00)(dynamics 105.56)(pitch_index 101)(duration 8)(voice 1)(type eighth)(stem down)(beam_index 28)(part_index 1))
	(Note (index 110)(default_x 66.22)(default_y -25.00)(dynamics 105.56)(pitch_index 102)(duration 16)(voice 1)(type quarter)(stem up)(part_index 1))
	(Note (index 111)(default_x 91.10)(default_y -35.00)(dynamics 105.56)(pitch_index 103)(duration 16)(voice 1)(type quarter)(stem up)(part_index 1))
	(Note (index 112)(default_x 10.00)(default_y -35.00)(dynamics 105.56)(pitch_index 104)(duration 32)(voice 1)(type half)(stem up)(part_index 1))
	(Note (index 113)(default_x 38.72)(default_y -25.00)(dynamics 105.56)(pitch_index 105)(duration 16)(voice 1)(type quarter)(stem up)(part_index 1))
	(Note (index 114)(default_x 56.45)(default_y -35.00)(dynamics 105.56)(pitch_index 106)(duration 16)(voice 1)(type quarter)(stem up)(part_index 1))
	(Note (index 115)(default_x 10.00)(default_y -25.00)(dynamics 105.56)(pitch_index 107)(duration 16)(voice 1)(type quarter)(stem up)(part_index 1))
	(Note (index 116)(default_x 34.88)(default_y -20.00)(dynamics 105.56)(pitch_index 108)(duration 16)(voice 1)(type quarter)(stem down)(part_index 1))
	(Note (index 117)(default_x 59.77)(default_y -20.00)(dynamics 105.56)(pitch_index 109)(duration 8)(voice 1)(type eighth)(stem down)(beam_index 29)(part_index 1))
	(Note (index 118)(default_x 75.43)(default_y -15.00)(dynamics 105.56)(pitch_index 110)(duration 8)(voice 1)(type eighth)(stem down)(beam_index 30)(part_index 1))
	(Note (index 119)(default_x 91.10)(default_y -5.00)(dynamics 105.56)(pitch_index 111)(duration 16)(voice 1)(type quarter)(stem down)(part_index 1))
	(Note (index 120)(default_x 58.17)(default_y -20.00)(dynamics 105.56)(pitch_index 112)(duration 16)(voice 1)(type quarter)(stem down)(part_index 1))
	(Note (index 121)(default_x 82.98)(default_y -15.00)(dynamics 105.56)(pitch_index 113)(duration 8)(voice 1)(type eighth)(stem down)(beam_index 31)(part_index 1))
	(Note (index 122)(default_x 98.64)(default_y -25.00)(dynamics 105.56)(pitch_index 114)(duration 8)(voice 1)(type eighth)(stem down)(beam_index 32)(part_index 1))
	(Note (index 123)(default_x 114.31)(default_y -20.00)(dynamics 105.56)(pitch_index 115)(duration 16)(voice 1)(type quarter)(stem down)(part_index 1))
	(Note (index 124)(default_x 139.11)(default_y -20.00)(dynamics 105.56)(pitch_index 116)(duration 16)(voice 1)(type quarter)(stem down)(part_index 1))
	(Note (index 125)(default_x 10.36)(default_y -20.00)(dynamics 105.56)(pitch_index 117)(duration 32)(voice 1)(type half)(stem down)(part_index 1))
	(Note (index 126)(default_x 38.66)(default_y -25.00)(dynamics 105.56)(pitch_index 118)(duration 16)(voice 1)(type quarter)(stem up)(part_index 1))
	(Note (index 127)(default_x 56.13)(default_y -20.00)(dynamics 105.56)(pitch_index 119)(duration 16)(voice 1)(type quarter)(stem down)(part_index 1))
	(Note (index 128)(default_x 10.00)(default_y -15.00)(dynamics 105.56)(pitch_index 120)(duration 24)(voice 1)(type quarter)(stem down)(part_index 1))
	(Note (index 129)(default_x 40.63)(default_y -20.00)(dynamics 105.56)(pitch_index 121)(duration 8)(voice 1)(type eighth)(stem down)(part_index 1))
	(Note (index 130)(default_x 56.33)(default_y -40.00)(dynamics 105.56)(pitch_index 122)(duration 16)(voice 1)(type quarter)(stem up)(part_index 1))
	(Note (index 131)(default_x 81.45)(default_y -15.00)(dynamics 105.56)(pitch_index 123)(duration 16)(tie_index 2)(voice 1)(type quarter)(stem down)(notations_index 2)(part_index 1))
	(Note (index 132)(default_x 10.00)(default_y -15.00)(dynamics 105.56)(pitch_index 124)(duration 16)(tie_index 3)(voice 1)(type quarter)(stem down)(notations_index 3)(part_index 1))
	(Note (index 133)(default_x 31.26)(default_y 0.00)(dynamics 105.56)(pitch_index 125)(duration 16)(voice 1)(type quarter)(stem down)(part_index 1))
	(Note (index 134)(default_x 52.51)(default_y -5.00)(dynamics 105.56)(pitch_index 126)(duration 16)(voice 1)(type quarter)(stem down)(part_index 1))
	(Note (index 135)(default_x 73.77)(default_y -15.00)(dynamics 105.56)(pitch_index 127)(duration 16)(voice 1)(type quarter)(stem down)(part_index 1))
	(Note (index 136)(default_x 10.00)(default_y -15.00)(dynamics 105.56)(pitch_index 128)(duration 24)(voice 1)(type quarter)(stem down)(part_index 1))
	(Note (index 137)(default_x 40.63)(default_y -5.00)(dynamics 105.56)(pitch_index 129)(duration 8)(voice 1)(type eighth)(stem down)(part_index 1))
	(Note (index 138)(default_x 56.33)(default_y -15.00)(dynamics 105.56)(pitch_index 130)(duration 16)(voice 1)(type quarter)(stem down)(part_index 1))
	(Note (index 139)(default_x 81.45)(default_y -20.00)(dynamics 105.56)(pitch_index 131)(duration 16)(voice 1)(type quarter)(stem down)(part_index 1))
	(Note (index 140)(default_x 10.00)(default_y -25.00)(dynamics 105.56)(pitch_index 132)(duration 16)(voice 1)(type quarter)(stem up)(part_index 1))
	(Note (index 141)(default_x 31.26)(default_y -35.00)(dynamics 105.56)(pitch_index 133)(duration 16)(voice 1)(type quarter)(stem up)(part_index 1))
	(Note (index 142)(default_x 52.51)(default_y -25.00)(dynamics 105.56)(pitch_index 134)(duration 16)(voice 1)(type quarter)(stem up)(part_index 1))
	(Note (index 143)(default_x 73.77)(default_y -20.00)(dynamics 105.56)(pitch_index 135)(duration 16)(voice 1)(type quarter)(stem down)(part_index 1))
	(Note (index 144)(default_x 10.00)(default_y -15.00)(dynamics 105.56)(pitch_index 136)(duration 16)(voice 1)(type quarter)(stem down)(part_index 1))
	(Note (index 145)(default_x 31.26)(default_y -20.00)(dynamics 105.56)(pitch_index 137)(duration 16)(voice 1)(type quarter)(stem down)(part_index 1))
	(Note (index 146)(default_x 52.51)(default_y -25.00)(dynamics 105.56)(pitch_index 138)(duration 16)(voice 1)(type quarter)(stem up)(part_index 1))
	(Note (index 147)(default_x 73.77)(default_y -35.00)(dynamics 105.56)(pitch_index 139)(duration 16)(voice 1)(type quarter)(stem up)(part_index 1))
	(Note (index 148)(default_x 10.00)(default_y -40.00)(dynamics 105.56)(pitch_index 140)(duration 32)(voice 1)(type half)(stem up)(part_index 1))
	(Note (index 149)(default_x 38.57)(default_y -40.00)(dynamics 105.56)(pitch_index 141)(duration 16)(voice 1)(type quarter)(stem up)(part_index 1))
	(Note (index 150)(default_x 56.20)(default_y -35.00)(dynamics 105.56)(pitch_index 142)(duration 16)(voice 1)(type quarter)(stem up)(part_index 1))
	(Note (index 151)(default_x 10.00)(default_y -40.00)(dynamics 105.56)(pitch_index 143)(duration 24)(voice 1)(type quarter)(stem up)(part_index 1))
	(Note (index 152)(default_x 43.64)(default_y -50.00)(dynamics 105.56)(pitch_index 144)(duration 8)(voice 1)(type eighth)(stem up)(part_index 1))
	(Note (index 153)(default_x 68.91)(default_y -55.00)(dynamics 105.56)(pitch_index 145)(duration 16)(voice 1)(type quarter)(stem up)(part_index 1))
	(Note (index 154)(default_x 96.50)(default_y -35.00)(dynamics 105.56)(pitch_index 146)(duration 8)(voice 1)(type eighth)(stem up)(beam_index 33)(part_index 1))
	(Note (index 155)(default_x 113.74)(default_y -40.00)(dynamics 105.56)(pitch_index 147)(duration 8)(voice 1)(type eighth)(stem up)(beam_index 34)(part_index 1))
	(Note (index 156)(default_x 10.00)(default_y -45.00)(dynamics 105.56)(pitch_index 148)(duration 16)(voice 1)(type quarter)(stem up)(part_index 1))
	(Note (index 157)(duration 16)(voice 1)(type quarter)(part_index 1))
	(Note (index 158)(default_x 53.26)(default_y -45.00)(dynamics 105.56)(pitch_index 149)(duration 16)(voice 1)(type quarter)(stem up)(part_index 1))
	(Note (index 159)(default_x 74.90)(default_y -40.00)(dynamics 105.56)(pitch_index 150)(duration 16)(voice 1)(type quarter)(stem up)(part_index 1))
	(Note (index 160)(default_x 58.17)(default_y -35.00)(dynamics 105.56)(pitch_index 151)(duration 32)(voice 1)(type half)(stem up)(part_index 1))
	(Note (index 161)(default_x 92.26)(default_y -20.00)(dynamics 105.56)(pitch_index 152)(duration 12)(voice 1)(type eighth)(stem up)(beam_index 35)(part_index 1))
	(Note (index 162)(default_x 115.96)(default_y -25.00)(dynamics 105.56)(pitch_index 153)(duration 4)(voice 1)(type 16th)(stem up)(beam 36 37)(part_index 1))
	(Note (index 163)(default_x 131.62)(default_y -35.00)(dynamics 105.56)(pitch_index 154)(duration 16)(voice 1)(type quarter)(stem up)(part_index 1))
	(Note (index 164)(default_x 10.00)(default_y -40.00)(dynamics 105.56)(pitch_index 155)(duration 32)(voice 1)(type half)(stem up)(part_index 1))
	(Note (index 165)(default_x 39.89)(default_y -10.00)(dynamics 105.56)(pitch_index 156)(duration 16)(voice 1)(type quarter)(stem down)(part_index 1))
	(Note (index 166)(default_x 58.34)(default_y -5.00)(dynamics 105.56)(pitch_index 157)(duration 16)(voice 1)(type quarter)(stem down)(part_index 1))
	(Note (index 167)(default_x 10.36)(default_y 0.00)(dynamics 105.56)(pitch_index 158)(duration 32)(voice 1)(type half)(stem down)(part_index 1))
	(Note (index 168)(default_x 41.03)(default_y -5.00)(dynamics 105.56)(pitch_index 159)(duration 24)(voice 1)(type quarter)(stem down)(part_index 1))
	(Note (index 169)(default_x 67.91)(default_y -15.00)(dynamics 105.56)(pitch_index 160)(duration 8)(voice 1)(type eighth)(stem down)(part_index 1))
	(Note (index 170)(default_x 10.00)(default_y -20.00)(dynamics 105.56)(pitch_index 161)(duration 16)(voice 1)(type quarter)(stem down)(part_index 1))
	(Note (index 171)(default_x 31.97)(default_y -25.00)(dynamics 105.56)(pitch_index 162)(duration 16)(voice 1)(type quarter)(stem up)(part_index 1))
	(Note (index 172)(default_x 53.94)(default_y -20.00)(dynamics 105.56)(pitch_index 163)(duration 16)(voice 1)(type quarter)(stem down)(part_index 1))
	(Note (index 173)(default_x 75.92)(default_y -20.00)(dynamics 105.56)(pitch_index 164)(duration 16)(voice 1)(type quarter)(stem down)(part_index 1))
	(Note (index 174)(default_x 10.00)(default_y -20.00)(dynamics 105.56)(pitch_index 165)(duration 16)(voice 1)(type quarter)(stem down)(part_index 1))
	(Note (index 175)(default_x 35.89)(default_y -50.00)(dynamics 105.56)(pitch_index 166)(duration 16)(voice 1)(type quarter)(stem up)(part_index 1))
	(Note (index 176)(default_x 61.77)(default_y -55.00)(dynamics 105.56)(pitch_index 167)(duration 16)(voice 1)(type quarter)(stem up)(part_index 1))
	(Note (index 177)(default_x 87.66)(default_y -25.00)(dynamics 105.56)(pitch_index 168)(duration 8)(voice 1)(type eighth)(stem up)(beam_index 38)(part_index 1))
	(Note (index 178)(default_x 103.83)(default_y -20.00)(dynamics 105.56)(pitch_index 169)(duration 8)(voice 1)(type eighth)(stem up)(beam_index 39)(part_index 1))
	(Note (index 179)(default_x 13.80)(default_y -55.00)(dynamics 105.56)(pitch_index 170)(duration 16)(voice 1)(type quarter)(stem up)(part_index 1))
	(Note (index 180)(duration 8)(voice 1)(type eighth)(part_index 1))
	(Note (index 181)(default_x 60.01)(default_y 10.00)(dynamics 105.56)(pitch_index 171)(duration 8)(voice 1)(type eighth)(stem down)(part_index 1))
	(Note (index 182)(default_x 83.28)(default_y 15.00)(dynamics 105.56)(pitch_index 172)(duration 16)(voice 1)(type quarter)(stem down)(part_index 1))
	(Note (index 183)(default_x 111.72)(default_y 10.00)(dynamics 105.56)(pitch_index 173)(duration 16)(voice 1)(type quarter)(stem down)(part_index 1))
	(Note (index 184)(default_x 10.36)(default_y 0.00)(dynamics 105.56)(pitch_index 174)(duration 32)(voice 1)(type half)(stem down)(part_index 1))
	(Note (index 185)(default_x 40.06)(default_y -5.00)(dynamics 105.56)(pitch_index 175)(duration 16)(voice 1)(type quarter)(stem down)(part_index 1))
	(Note (index 186)(default_x 61.41)(default_y -10.00)(dynamics 105.56)(pitch_index 176)(duration 8)(voice 1)(type eighth)(stem down)(beam_index 40)(part_index 1))
	(Note (index 187)(default_x 77.07)(default_y -5.00)(dynamics 105.56)(pitch_index 177)(duration 8)(voice 1)(type eighth)(stem down)(beam_index 41)(part_index 1))
	(Note (index 188)(default_x 10.00)(default_y 0.00)(dynamics 105.56)(pitch_index 178)(duration 16)(voice 1)(type quarter)(stem down)(part_index 1))
	(Note (index 189)(default_x 32.35)(default_y -5.00)(dynamics 105.56)(pitch_index 179)(duration 16)(voice 1)(type quarter)(stem down)(part_index 1))
	(Note (index 190)(default_x 54.69)(default_y 0.00)(dynamics 105.56)(pitch_index 180)(duration 16)(voice 1)(type quarter)(stem down)(part_index 1))
	(Note (index 191)(duration 16)(voice 1)(type quarter)(part_index 1))
	(Note (index 192)(default_x 10.00)(default_y -10.00)(dynamics 105.56)(pitch_index 181)(duration 16)(voice 1)(type quarter)(stem down)(part_index 1))
	(Note (index 193)(default_x 29.88)(default_y -5.00)(dynamics 105.56)(pitch_index 182)(duration 16)(voice 1)(type quarter)(stem down)(part_index 1))
	(Note (index 194)(default_x 49.41)(default_y 0.00)(dynamics 105.56)(pitch_index 183)(duration 32)(voice 1)(type half)(stem down)(part_index 1))
	(Note (index 195)(duration 16)(voice 1)(type quarter)(part_index 1))
	(Note (index 196)(default_x 30.82)(default_y 0.00)(dynamics 105.56)(pitch_index 184)(duration 16)(voice 1)(type quarter)(stem down)(part_index 1))
	(Note (index 197)(default_x 50.34)(default_y 0.00)(dynamics 105.56)(pitch_index 185)(duration 32)(voice 1)(type half)(stem down)(part_index 1))
	(Note (index 198)(default_x 61.97)(default_y 15.00)(dynamics 105.56)(pitch_index 186)(duration 12)(voice 1)(type eighth)(stem down)(beam_index 42)(part_index 1))
	(Note (index 199)(default_x 85.67)(default_y 10.00)(dynamics 105.56)(pitch_index 187)(duration 4)(voice 1)(type 16th)(stem down)(beam 43 44)(part_index 1))
	(Note (index 200)(default_x 101.34)(default_y 0.00)(dynamics 105.56)(pitch_index 188)(duration 16)(voice 1)(type quarter)(stem down)(part_index 1))
	(Note (index 201)(default_x 127.05)(default_y 0.00)(dynamics 105.56)(pitch_index 189)(duration 32)(voice 1)(type half)(stem down)(part_index 1))
	(Note (index 202)(default_x 10.00)(default_y -5.00)(dynamics 105.56)(pitch_index 190)(duration 16)(voice 1)(type quarter)(stem down)(part_index 1))
	(Note (index 203)(default_x 31.51)(default_y -20.00)(dynamics 105.56)(pitch_index 191)(duration 16)(voice 1)(type quarter)(stem down)(part_index 1))
	(Note (index 204)(default_x 53.02)(default_y -10.00)(dynamics 105.56)(pitch_index 192)(duration 16)(voice 1)(type quarter)(stem down)(part_index 1))
	(Note (index 205)(default_x 74.53)(default_y -5.00)(dynamics 105.56)(pitch_index 193)(duration 16)(voice 1)(type quarter)(stem down)(part_index 1))
	(Note (index 206)(default_x 10.36)(default_y 0.00)(dynamics 105.56)(pitch_index 194)(duration 32)(voice 1)(type half)(stem down)(part_index 1))
	(Note (index 207)(default_x 46.16)(default_y -5.00)(dynamics 105.56)(pitch_index 195)(duration 8)(voice 1)(type eighth)(stem down)(beam_index 45)(part_index 1))
	(Note (index 208)(default_x 62.26)(default_y -15.00)(dynamics 105.56)(pitch_index 196)(duration 8)(voice 1)(type eighth)(stem down)(beam_index 46)(part_index 1))
	(Note (index 209)(default_x 78.37)(default_y -20.00)(dynamics 105.56)(pitch_index 197)(duration 8)(voice 1)(type eighth)(stem down)(beam_index 47)(part_index 1))
	(Note (index 210)(default_x 94.48)(default_y -25.00)(dynamics 105.56)(pitch_index 198)(duration 8)(voice 1)(type eighth)(stem down)(beam_index 48)(part_index 1))
	(Note (index 211)(default_x 10.00)(default_y -35.00)(dynamics 105.56)(pitch_index 199)(duration 16)(voice 1)(type quarter)(stem up)(part_index 1))
	(Note (index 212)(default_x 31.88)(default_y -40.00)(dynamics 105.56)(pitch_index 200)(duration 16)(voice 1)(type quarter)(stem up)(part_index 1))
	(Note (index 213)(default_x 53.77)(default_y -70.00)(dynamics 105.56)(pitch_index 201)(duration 16)(voice 1)(type quarter)(stem up)(part_index 1))
	(Note (index 214)(duration 16)(voice 1)(type quarter)(part_index 1))
	(Note (index 215)(default_x 10.00)(default_y -40.00)(dynamics 105.56)(pitch_index 202)(duration 16)(voice 1)(type quarter)(stem up)(part_index 1))
	(Note (index 216)(default_x 37.07)(default_y -15.00)(dynamics 105.56)(pitch_index 203)(duration 8)(voice 1)(type eighth)(stem down)(beam_index 49)(part_index 1))
	(Note (index 217)(default_x 53.99)(default_y -20.00)(dynamics 105.56)(pitch_index 204)(duration 8)(voice 1)(type eighth)(stem down)(beam_index 50)(part_index 1))
	(Note (index 218)(default_x 70.91)(default_y -25.00)(dynamics 105.56)(pitch_index 205)(duration 16)(voice 1)(type quarter)(stem up)(part_index 1))
	(Note (index 219)(default_x 97.98)(default_y 10.00)(dynamics 105.56)(pitch_index 206)(duration 8)(voice 1)(type eighth)(stem down)(beam_index 51)(part_index 1))
	(Note (index 220)(default_x 121.24)(default_y 10.00)(dynamics 105.56)(pitch_index 207)(duration 8)(voice 1)(type eighth)(stem down)(beam_index 52)(part_index 1))
	(Note (index 221)(default_x 13.80)(default_y -20.00)(dynamics 105.56)(pitch_index 208)(duration 16)(voice 1)(type quarter)(stem down)(part_index 1))
	(Note (index 222)(default_x 13.80)(default_y 15.00)(dynamics 105.56)(pitch_index 209)(duration 16)(voice 1)(type quarter)(stem down)(part_index 1))
	(Note (index 223)(duration 8)(voice 1)(type eighth)(part_index 1))
	(Note (index 224)(default_x 58.11)(default_y -25.00)(dynamics 105.56)(pitch_index 210)(duration 8)(voice 1)(type eighth)(stem up)(part_index 1))
	(Note (index 225)(default_x 83.38)(default_y -20.00)(dynamics 105.56)(pitch_index 211)(duration 16)(voice 1)(type quarter)(stem down)(part_index 1))
	(Note (index 226)(default_x 110.65)(default_y -20.00)(dynamics 105.56)(pitch_index 212)(duration 8)(voice 1)(type eighth)(stem up)(beam_index 53)(part_index 1))
	(Note (index 227)(default_x 127.69)(default_y -40.00)(dynamics 105.56)(pitch_index 213)(duration 8)(voice 1)(type eighth)(stem up)(beam_index 54)(part_index 1))
	(Note (index 228)(default_x 10.00)(default_y -10.00)(dynamics 105.56)(pitch_index 214)(duration 16)(voice 1)(type quarter)(stem down)(part_index 1))
	(Note (index 229)(default_x 31.51)(default_y -5.00)(dynamics 105.56)(pitch_index 215)(duration 16)(voice 1)(type quarter)(stem down)(part_index 1))
	(Note (index 230)(default_x 53.02)(default_y 0.00)(dynamics 105.56)(pitch_index 216)(duration 16)(voice 1)(type quarter)(stem down)(part_index 1))
	(Note (index 231)(default_x 74.53)(default_y -5.00)(dynamics 105.56)(pitch_index 217)(duration 16)(voice 1)(type quarter)(stem down)(part_index 1))
	(Note (index 232)(default_x 10.00)(default_y -35.00)(dynamics 105.56)(pitch_index 218)(duration 16)(voice 1)(type quarter)(stem up)(part_index 1))
	(Note (index 233)(default_x 31.51)(default_y -25.00)(dynamics 105.56)(pitch_index 219)(duration 16)(voice 1)(type quarter)(stem up)(part_index 1))
	(Note (index 234)(default_x 53.02)(default_y -20.00)(dynamics 105.56)(pitch_index 220)(duration 16)(voice 1)(type quarter)(stem down)(part_index 1))
	(Note (index 235)(default_x 74.53)(default_y -5.00)(dynamics 105.56)(pitch_index 221)(duration 16)(voice 1)(type quarter)(stem down)(part_index 1))
	(Note (index 236)(default_x 10.00)(default_y -15.00)(dynamics 105.56)(pitch_index 222)(duration 16)(voice 1)(type quarter)(stem down)(part_index 1))
	(Note (index 237)(default_x 31.51)(default_y -20.00)(dynamics 105.56)(pitch_index 223)(duration 16)(voice 1)(type quarter)(stem down)(part_index 1))
	(Note (index 238)(default_x 53.02)(default_y -25.00)(dynamics 105.56)(pitch_index 224)(duration 16)(voice 1)(type quarter)(stem up)(part_index 1))
	(Note (index 239)(default_x 74.53)(default_y -35.00)(dynamics 105.56)(pitch_index 225)(duration 16)(voice 1)(type quarter)(stem up)(part_index 1))
	(Note (index 240)(default_x 58.17)(default_y -40.00)(dynamics 105.56)(pitch_index 226)(duration 32)(voice 1)(type half)(stem up)(part_index 1))
	(Note (index 241)(default_x 97.19)(default_y -35.00)(dynamics 105.56)(pitch_index 227)(duration 16)(voice 1)(type quarter)(stem up)(part_index 1))
	(Note (index 242)(default_x 121.34)(default_y -25.00)(dynamics 105.56)(pitch_index 228)(duration 16)(voice 1)(type quarter)(stem up)(part_index 1))
	(Note (index 243)(default_x 10.00)(default_y -20.00)(dynamics 105.56)(pitch_index 229)(duration 24)(voice 1)(type quarter)(stem down)(part_index 1))
	(Note (index 244)(default_x 48.94)(default_y -25.00)(dynamics 105.56)(pitch_index 230)(duration 8)(voice 1)(type eighth)(stem up)(part_index 1))
	(Note (index 245)(default_x 73.86)(default_y -35.00)(dynamics 105.56)(pitch_index 231)(duration 32)(voice 1)(type half)(stem up)(part_index 1))
	(Note (index 246)(default_x 10.00)(default_y -20.00)(dynamics 105.56)(pitch_index 232)(duration 16)(voice 1)(type quarter)(stem down)(part_index 1))
	(Note (index 247)(default_x 36.22)(default_y -35.00)(dynamics 105.56)(pitch_index 233)(duration 16)(voice 1)(type quarter)(stem up)(part_index 1))
	(Note (index 248)(default_x 62.45)(default_y -40.00)(dynamics 105.56)(pitch_index 234)(duration 16)(voice 1)(type quarter)(stem up)(part_index 1))
	(Note (index 249)(default_x 88.67)(default_y -45.00)(dynamics 105.56)(pitch_index 235)(duration 16)(voice 1)(type quarter)(stem up)(part_index 1))
	(Note (index 250)(default_x 10.00)(default_y -40.00)(dynamics 105.56)(pitch_index 236)(duration 32)(voice 1)(type half)(stem up)(part_index 1))
	(Note (index 251)(default_x 44.52)(default_y -55.00)(dynamics 105.56)(pitch_index 237)(duration 32)(voice 1)(type half)(stem up)(part_index 1))
	(Note (index 252)(default_x 10.00)(default_y -20.00)(dynamics 105.56)(pitch_index 238)(duration 16)(voice 1)(type quarter)(stem down)(part_index 1))
	(Note (index 253)(default_x 36.51)(default_y -40.00)(dynamics 105.56)(pitch_index 239)(duration 16)(voice 1)(type quarter)(stem up)(part_index 1))
	(Note (index 254)(default_x 63.01)(default_y -55.00)(dynamics 105.56)(pitch_index 240)(duration 16)(voice 1)(type quarter)(stem up)(part_index 1))
	(Note (index 255)(default_x 63.01)(default_y -20.00)(dynamics 105.56)(pitch_index 241)(duration 16)(voice 1)(type quarter)(stem up)(part_index 1))
	(Note (index 256)(duration 16)(voice 1)(type quarter)(part_index 1))
	(Note (index 257)(default_x 10.36)(default_y -20.00)(dynamics 105.56)(pitch_index 242)(duration 32)(voice 1)(type half)(stem down)(part_index 1))
	(Note (index 258)(default_x 49.18)(default_y -5.00)(dynamics 105.56)(pitch_index 243)(duration 16)(voice 1)(type quarter)(stem down)(part_index 1))
	(Note (index 259)(default_x 73.22)(default_y -15.00)(dynamics 105.56)(pitch_index 244)(duration 16)(voice 1)(type quarter)(stem down)(part_index 1))
	(Note (index 260)(default_x 10.94)(default_y -20.00)(dynamics 105.56)(pitch_index 245)(duration 12)(voice 1)(type eighth)(stem up)(beam_index 55)(part_index 1))
	(Note (index 261)(default_x 41.57)(default_y -25.00)(dynamics 105.56)(pitch_index 246)(duration 4)(voice 1)(type 16th)(stem up)(beam 56 57)(part_index 1))
	(Note (index 262)(duration 16)(voice 1)(type quarter)(part_index 1))
	(Note (index 263)(duration 8)(voice 1)(type eighth)(part_index 1))
	(Note (index 264)(duration 4)(voice 1)(type 16th)(part_index 1))
	(Note (index 265)(duration 2)(voice 1)(type 32nd)(part_index 1))
	(Note (index 266)(default_x 155.72)(default_y -20.00)(dynamics 105.56)(pitch_index 247)(duration 2)(voice 1)(type 32nd)(stem up)(part_index 1))
	(Note (index 267)(default_x 181.01)(default_y -40.00)(dynamics 105.56)(pitch_index 248)(duration 16)(voice 1)(type quarter)(stem up)(part_index 1))
	(Note (index 268)(duration 16)(voice 2)(type quarter)(part_index 1))
	(Note (index 269)(default_x 60.43)(default_y -35.00)(dynamics 105.56)(pitch_index 249)(duration 32)(voice 2)(type half)(stem down)(part_index 1))
	(Note (index 270)(duration 16)(voice 2)(type quarter)(part_index 1))
	(Note (index 271)(default_x 10.00)(default_y -45.00)(dynamics 105.56)(pitch_index 250)(duration 32)(voice 1)(type half)(stem up)(part_index 1))
	(Note (index 272)(default_x 44.52)(default_y -40.00)(dynamics 105.56)(pitch_index 251)(duration 32)(voice 1)(type half)(stem up)(part_index 1))
	(Note (index 273)(default_x 10.00)(default_y -40.00)(dynamics 105.56)(pitch_index 252)(duration 48)(voice 1)(type half)(stem up)(part_index 1))
	(Note (index 274)(duration 16)(voice 1)(type quarter)(part_index 1))
)

(deffacts pitchs
	(Pitch (index 0)(step B)(octave 3)(part_index 1))
	(Pitch (index 1)(step B)(octave 4)(part_index 1))
	(Pitch (index 2)(step B)(octave 4)(part_index 1))
	(Pitch (index 3)(step C)(octave 5)(part_index 1))
	(Pitch (index 4)(step B)(octave 4)(part_index 1))
	(Pitch (index 5)(step A)(octave 4)(part_index 1))
	(Pitch (index 6)(step F)(octave 4)(part_index 1))
	(Pitch (index 7)(step E)(octave 4)(part_index 1))
	(Pitch (index 8)(step D)(octave 4)(part_index 1))
	(Pitch (index 9)(step E)(octave 4)(part_index 1))
	(Pitch (index 10)(step F)(octave 4)(part_index 1))
	(Pitch (index 11)(step F)(octave 4)(part_index 1))
	(Pitch (index 12)(step F)(octave 4)(part_index 1))
	(Pitch (index 13)(step A)(octave 4)(part_index 1))
	(Pitch (index 14)(step B)(octave 4)(part_index 1))
	(Pitch (index 15)(step A)(octave 4)(part_index 1))
	(Pitch (index 16)(step F)(octave 4)(part_index 1))
	(Pitch (index 17)(step E)(octave 4)(part_index 1))
	(Pitch (index 18)(step D)(octave 4)(part_index 1))
	(Pitch (index 19)(step E)(octave 4)(part_index 1))
	(Pitch (index 20)(step F)(octave 4)(part_index 1))
	(Pitch (index 21)(step A)(octave 4)(part_index 1))
	(Pitch (index 22)(step F)(octave 4)(part_index 1))
	(Pitch (index 23)(step E)(octave 4)(part_index 1))
	(Pitch (index 24)(step C)(octave 4)(part_index 1))
	(Pitch (index 25)(step B)(octave 3)(part_index 1))
	(Pitch (index 26)(step A)(octave 4)(part_index 1))
	(Pitch (index 27)(step B)(octave 4)(part_index 1))
	(Pitch (index 28)(step B)(octave 4)(part_index 1))
	(Pitch (index 29)(step B)(octave 4)(part_index 1))
	(Pitch (index 30)(step F)(octave 4)(part_index 1))
	(Pitch (index 31)(step A)(octave 4)(part_index 1))
	(Pitch (index 32)(step B)(octave 4)(part_index 1))
	(Pitch (index 33)(step C)(octave 5)(part_index 1))
	(Pitch (index 34)(step B)(octave 4)(part_index 1))
	(Pitch (index 35)(step A)(octave 4)(part_index 1))
	(Pitch (index 36)(step B)(octave 4)(part_index 1))
	(Pitch (index 37)(step C)(octave 5)(part_index 1))
	(Pitch (index 38)(step E)(octave 4)(part_index 1))
	(Pitch (index 39)(step C)(octave 5)(part_index 1))
	(Pitch (index 40)(step C)(octave 5)(part_index 1))
	(Pitch (index 41)(step E)(octave 5)(part_index 1))
	(Pitch (index 42)(step C)(octave 5)(part_index 1))
	(Pitch (index 43)(step B)(octave 4)(part_index 1))
	(Pitch (index 44)(step B)(octave 4)(part_index 1))
	(Pitch (index 45)(step A)(octave 4)(part_index 1))
	(Pitch (index 46)(step B)(octave 4)(part_index 1))
	(Pitch (index 47)(step B)(octave 3)(part_index 1))
	(Pitch (index 48)(step C)(octave 5)(part_index 1))
	(Pitch (index 49)(step E)(octave 5)(part_index 1))
	(Pitch (index 50)(step C)(octave 5)(part_index 1))
	(Pitch (index 51)(step B)(octave 4)(part_index 1))
	(Pitch (index 52)(step E)(octave 5)(part_index 1))
	(Pitch (index 53)(step C)(octave 5)(part_index 1))
	(Pitch (index 54)(step B)(octave 4)(part_index 1))
	(Pitch (index 55)(step A)(octave 4)(part_index 1))
	(Pitch (index 56)(step F)(octave 4)(part_index 1))
	(Pitch (index 57)(step E)(octave 4)(part_index 1))
	(Pitch (index 58)(step D)(octave 4)(part_index 1))
	(Pitch (index 59)(step E)(octave 4)(part_index 1))
	(Pitch (index 60)(step F)(octave 4)(part_index 1))
	(Pitch (index 61)(step A)(octave 4)(part_index 1))
	(Pitch (index 62)(step B)(octave 4)(part_index 1))
	(Pitch (index 63)(step A)(octave 4)(part_index 1))
	(Pitch (index 64)(step F)(octave 4)(part_index 1))
	(Pitch (index 65)(step E)(octave 4)(part_index 1))
	(Pitch (index 66)(step D)(octave 4)(part_index 1))
	(Pitch (index 67)(step E)(octave 4)(part_index 1))
	(Pitch (index 68)(step E)(octave 4)(part_index 1))
	(Pitch (index 69)(step F)(octave 4)(part_index 1))
	(Pitch (index 70)(step A)(octave 4)(part_index 1))
	(Pitch (index 71)(step F)(octave 4)(part_index 1))
	(Pitch (index 72)(step E)(octave 4)(part_index 1))
	(Pitch (index 73)(step B)(octave 3)(part_index 1))
	(Pitch (index 74)(step D)(octave 4)(part_index 1))
	(Pitch (index 75)(step E)(octave 4)(part_index 1))
	(Pitch (index 76)(step E)(octave 4)(part_index 1))
	(Pitch (index 77)(step D)(octave 5)(part_index 1))
	(Pitch (index 78)(step D)(octave 5)(part_index 1))
	(Pitch (index 79)(step D)(octave 5)(part_index 1))
	(Pitch (index 80)(step D)(octave 5)(part_index 1))
	(Pitch (index 81)(step E)(octave 5)(part_index 1))
	(Pitch (index 82)(step C)(octave 5)(part_index 1))
	(Pitch (index 83)(step B)(octave 4)(part_index 1))
	(Pitch (index 84)(step B)(octave 5)(part_index 1))
	(Pitch (index 85)(step A)(octave 5)(part_index 1))
	(Pitch (index 86)(step F)(octave 5)(part_index 1))
	(Pitch (index 87)(step E)(octave 5)(part_index 1))
	(Pitch (index 88)(step E)(octave 5)(part_index 1))
	(Pitch (index 89)(step F)(octave 5)(part_index 1))
	(Pitch (index 90)(step A)(octave 5)(part_index 1))
	(Pitch (index 91)(step F)(octave 5)(part_index 1))
	(Pitch (index 92)(step E)(octave 5)(part_index 1))
	(Pitch (index 93)(step D)(octave 5)(part_index 1))
	(Pitch (index 94)(step E)(octave 5)(part_index 1))
	(Pitch (index 95)(step F)(octave 5)(part_index 1))
	(Pitch (index 96)(step E)(octave 5)(part_index 1))
	(Pitch (index 97)(step E)(octave 5)(part_index 1))
	(Pitch (index 98)(step C)(octave 5)(part_index 1))
	(Pitch (index 99)(step B)(octave 4)(part_index 1))
	(Pitch (index 100)(step C)(octave 5)(part_index 1))
	(Pitch (index 101)(step B)(octave 4)(part_index 1))
	(Pitch (index 102)(step A)(octave 4)(part_index 1))
	(Pitch (index 103)(step F)(octave 4)(part_index 1))
	(Pitch (index 104)(step F)(octave 4)(part_index 1))
	(Pitch (index 105)(step A)(octave 4)(part_index 1))
	(Pitch (index 106)(step F)(octave 4)(part_index 1))
	(Pitch (index 107)(step A)(octave 4)(part_index 1))
	(Pitch (index 108)(step B)(octave 4)(part_index 1))
	(Pitch (index 109)(step B)(octave 4)(part_index 1))
	(Pitch (index 110)(step C)(octave 5)(part_index 1))
	(Pitch (index 111)(step E)(octave 5)(part_index 1))
	(Pitch (index 112)(step B)(octave 4)(part_index 1))
	(Pitch (index 113)(step C)(octave 5)(part_index 1))
	(Pitch (index 114)(step A)(octave 4)(part_index 1))
	(Pitch (index 115)(step B)(octave 4)(part_index 1))
	(Pitch (index 116)(step B)(octave 4)(part_index 1))
	(Pitch (index 117)(step B)(octave 4)(part_index 1))
	(Pitch (index 118)(step A)(octave 4)(part_index 1))
	(Pitch (index 119)(step B)(octave 4)(part_index 1))
	(Pitch (index 120)(step C)(octave 5)(part_index 1))
	(Pitch (index 121)(step B)(octave 4)(part_index 1))
	(Pitch (index 122)(step E)(octave 4)(part_index 1))
	(Pitch (index 123)(step C)(octave 5)(part_index 1))
	(Pitch (index 124)(step C)(octave 5)(part_index 1))
	(Pitch (index 125)(step F)(octave 5)(part_index 1))
	(Pitch (index 126)(step E)(octave 5)(part_index 1))
	(Pitch (index 127)(step C)(octave 5)(part_index 1))
	(Pitch (index 128)(step C)(octave 5)(part_index 1))
	(Pitch (index 129)(step E)(octave 5)(part_index 1))
	(Pitch (index 130)(step C)(octave 5)(part_index 1))
	(Pitch (index 131)(step B)(octave 4)(part_index 1))
	(Pitch (index 132)(step A)(octave 4)(part_index 1))
	(Pitch (index 133)(step F)(octave 4)(part_index 1))
	(Pitch (index 134)(step A)(octave 4)(part_index 1))
	(Pitch (index 135)(step B)(octave 4)(part_index 1))
	(Pitch (index 136)(step C)(octave 5)(part_index 1))
	(Pitch (index 137)(step B)(octave 4)(part_index 1))
	(Pitch (index 138)(step A)(octave 4)(part_index 1))
	(Pitch (index 139)(step F)(octave 4)(part_index 1))
	(Pitch (index 140)(step E)(octave 4)(part_index 1))
	(Pitch (index 141)(step E)(octave 4)(part_index 1))
	(Pitch (index 142)(step F)(octave 4)(part_index 1))
	(Pitch (index 143)(step E)(octave 4)(part_index 1))
	(Pitch (index 144)(step C)(octave 4)(part_index 1))
	(Pitch (index 145)(step B)(octave 3)(part_index 1))
	(Pitch (index 146)(step F)(octave 4)(part_index 1))
	(Pitch (index 147)(step E)(octave 4)(part_index 1))
	(Pitch (index 148)(step D)(octave 4)(part_index 1))
	(Pitch (index 149)(step D)(octave 4)(part_index 1))
	(Pitch (index 150)(step E)(octave 4)(part_index 1))
	(Pitch (index 151)(step F)(octave 4)(part_index 1))
	(Pitch (index 152)(step B)(octave 4)(part_index 1))
	(Pitch (index 153)(step A)(octave 4)(part_index 1))
	(Pitch (index 154)(step F)(octave 4)(part_index 1))
	(Pitch (index 155)(step E)(octave 4)(part_index 1))
	(Pitch (index 156)(step D)(octave 5)(part_index 1))
	(Pitch (index 157)(step E)(octave 5)(part_index 1))
	(Pitch (index 158)(step F)(octave 5)(part_index 1))
	(Pitch (index 159)(step E)(octave 5)(part_index 1))
	(Pitch (index 160)(step C)(octave 5)(part_index 1))
	(Pitch (index 161)(step B)(octave 4)(part_index 1))
	(Pitch (index 162)(step A)(octave 4)(part_index 1))
	(Pitch (index 163)(step B)(octave 4)(part_index 1))
	(Pitch (index 164)(step B)(octave 4)(part_index 1))
	(Pitch (index 165)(step B)(octave 4)(part_index 1))
	(Pitch (index 166)(step C)(octave 4)(part_index 1))
	(Pitch (index 167)(step B)(octave 3)(part_index 1))
	(Pitch (index 168)(step A)(octave 4)(part_index 1))
	(Pitch (index 169)(step B)(octave 4)(part_index 1))
	(Pitch (index 170)(step B)(octave 3)(part_index 1))
	(Pitch (index 171)(step A)(octave 5)(part_index 1))
	(Pitch (index 172)(step B)(octave 5)(part_index 1))
	(Pitch (index 173)(step A)(octave 5)(part_index 1))
	(Pitch (index 174)(step F)(octave 5)(part_index 1))
	(Pitch (index 175)(step E)(octave 5)(part_index 1))
	(Pitch (index 176)(step D)(octave 5)(part_index 1))
	(Pitch (index 177)(step E)(octave 5)(part_index 1))
	(Pitch (index 178)(step F)(octave 5)(part_index 1))
	(Pitch (index 179)(step E)(octave 5)(part_index 1))
	(Pitch (index 180)(step F)(octave 5)(part_index 1))
	(Pitch (index 181)(step D)(octave 5)(part_index 1))
	(Pitch (index 182)(step E)(octave 5)(part_index 1))
	(Pitch (index 183)(step F)(octave 5)(part_index 1))
	(Pitch (index 184)(step F)(octave 5)(part_index 1))
	(Pitch (index 185)(step F)(octave 5)(part_index 1))
	(Pitch (index 186)(step B)(octave 5)(part_index 1))
	(Pitch (index 187)(step A)(octave 5)(part_index 1))
	(Pitch (index 188)(step F)(octave 5)(part_index 1))
	(Pitch (index 189)(step F)(octave 5)(part_index 1))
	(Pitch (index 190)(step E)(octave 5)(part_index 1))
	(Pitch (index 191)(step B)(octave 4)(part_index 1))
	(Pitch (index 192)(step D)(octave 5)(part_index 1))
	(Pitch (index 193)(step E)(octave 5)(part_index 1))
	(Pitch (index 194)(step F)(octave 5)(part_index 1))
	(Pitch (index 195)(step E)(octave 5)(part_index 1))
	(Pitch (index 196)(step C)(octave 5)(part_index 1))
	(Pitch (index 197)(step B)(octave 4)(part_index 1))
	(Pitch (index 198)(step A)(octave 4)(part_index 1))
	(Pitch (index 199)(step F)(octave 4)(part_index 1))
	(Pitch (index 200)(step E)(octave 4)(part_index 1))
	(Pitch (index 201)(step F)(octave 3)(part_index 1))
	(Pitch (index 202)(step E)(octave 4)(part_index 1))
	(Pitch (index 203)(step C)(octave 5)(part_index 1))
	(Pitch (index 204)(step B)(octave 4)(part_index 1))
	(Pitch (index 205)(step A)(octave 4)(part_index 1))
	(Pitch (index 206)(step A)(octave 5)(part_index 1))
	(Pitch (index 207)(step A)(octave 5)(part_index 1))
	(Pitch (index 208)(step B)(octave 4)(part_index 1))
	(Pitch (index 209)(step B)(octave 5)(part_index 1))
	(Pitch (index 210)(step A)(octave 4)(part_index 1))
	(Pitch (index 211)(step B)(octave 4)(part_index 1))
	(Pitch (index 212)(step B)(octave 4)(part_index 1))
	(Pitch (index 213)(step E)(octave 4)(part_index 1))
	(Pitch (index 214)(step D)(octave 5)(part_index 1))
	(Pitch (index 215)(step E)(octave 5)(part_index 1))
	(Pitch (index 216)(step F)(octave 5)(part_index 1))
	(Pitch (index 217)(step E)(octave 5)(part_index 1))
	(Pitch (index 218)(step F)(octave 4)(part_index 1))
	(Pitch (index 219)(step A)(octave 4)(part_index 1))
	(Pitch (index 220)(step B)(octave 4)(part_index 1))
	(Pitch (index 221)(step E)(octave 5)(part_index 1))
	(Pitch (index 222)(step C)(octave 5)(part_index 1))
	(Pitch (index 223)(step B)(octave 4)(part_index 1))
	(Pitch (index 224)(step A)(octave 4)(part_index 1))
	(Pitch (index 225)(step F)(octave 4)(part_index 1))
	(Pitch (index 226)(step E)(octave 4)(part_index 1))
	(Pitch (index 227)(step F)(octave 4)(part_index 1))
	(Pitch (index 228)(step A)(octave 4)(part_index 1))
	(Pitch (index 229)(step B)(octave 4)(part_index 1))
	(Pitch (index 230)(step A)(octave 4)(part_index 1))
	(Pitch (index 231)(step F)(octave 4)(part_index 1))
	(Pitch (index 232)(step B)(octave 4)(part_index 1))
	(Pitch (index 233)(step F)(octave 4)(part_index 1))
	(Pitch (index 234)(step E)(octave 4)(part_index 1))
	(Pitch (index 235)(step D)(octave 4)(part_index 1))
	(Pitch (index 236)(step E)(octave 4)(part_index 1))
	(Pitch (index 237)(step B)(octave 3)(part_index 1))
	(Pitch (index 238)(step B)(octave 4)(part_index 1))
	(Pitch (index 239)(step E)(octave 4)(part_index 1))
	(Pitch (index 240)(step B)(octave 3)(part_index 1))
	(Pitch (index 241)(step B)(octave 4)(part_index 1))
	(Pitch (index 242)(step B)(octave 4)(part_index 1))
	(Pitch (index 243)(step E)(octave 5)(part_index 1))
	(Pitch (index 244)(step C)(octave 5)(part_index 1))
	(Pitch (index 245)(step B)(octave 4)(part_index 1))
	(Pitch (index 246)(step A)(octave 4)(part_index 1))
	(Pitch (index 247)(step B)(octave 4)(part_index 1))
	(Pitch (index 248)(step E)(octave 4)(part_index 1))
	(Pitch (index 249)(step F)(octave 4)(part_index 1))
	(Pitch (index 250)(step D)(octave 4)(part_index 1))
	(Pitch (index 251)(step E)(octave 4)(part_index 1))
	(Pitch (index 252)(step E)(octave 4)(part_index 1))
)

(deffacts beams
	(Beam (index 0)(data begin)(number 1)(part_index 1))
	(Beam (index 1)(data end)(number 1)(part_index 1))
	(Beam (index 2)(data begin)(number 1)(part_index 1))
	(Beam (index 3)(data end)(number 1)(part_index 1))
	(Beam (index 4)(data begin)(number 1)(part_index 1))
	(Beam (index 5)(data end)(number 1)(part_index 1))
	(Beam (index 6)(data begin)(number 1)(part_index 1))
	(Beam (index 7)(data end)(number 1)(part_index 1))
	(Beam (index 8)(data backward-hook)(number 2)(part_index 1))
	(Beam (index 9)(data begin)(number 1)(part_index 1))
	(Beam (index 10)(data end)(number 1)(part_index 1))
	(Beam (index 11)(data begin)(number 1)(part_index 1))
	(Beam (index 12)(data end)(number 1)(part_index 1))
	(Beam (index 13)(data begin)(number 1)(part_index 1))
	(Beam (index 14)(data continue)(number 1)(part_index 1))
	(Beam (index 15)(data continue)(number 1)(part_index 1))
	(Beam (index 16)(data end)(number 1)(part_index 1))
	(Beam (index 17)(data begin)(number 1)(part_index 1))
	(Beam (index 18)(data begin)(number 2)(part_index 1))
	(Beam (index 19)(data begin)(number 3)(part_index 1))
	(Beam (index 20)(data begin)(number 4)(part_index 1))
	(Beam (index 21)(data end)(number 1)(part_index 1))
	(Beam (index 22)(data end)(number 2)(part_index 1))
	(Beam (index 23)(data end)(number 3)(part_index 1))
	(Beam (index 24)(data end)(number 4)(part_index 1))
	(Beam (index 25)(data begin)(number 1)(part_index 1))
	(Beam (index 26)(data end)(number 1)(part_index 1))
	(Beam (index 27)(data begin)(number 1)(part_index 1))
	(Beam (index 28)(data end)(number 1)(part_index 1))
	(Beam (index 29)(data begin)(number 1)(part_index 1))
	(Beam (index 30)(data end)(number 1)(part_index 1))
	(Beam (index 31)(data begin)(number 1)(part_index 1))
	(Beam (index 32)(data end)(number 1)(part_index 1))
	(Beam (index 33)(data begin)(number 1)(part_index 1))
	(Beam (index 34)(data end)(number 1)(part_index 1))
	(Beam (index 35)(data begin)(number 1)(part_index 1))
	(Beam (index 36)(data end)(number 1)(part_index 1))
	(Beam (index 37)(data backward-hook)(number 2)(part_index 1))
	(Beam (index 38)(data begin)(number 1)(part_index 1))
	(Beam (index 39)(data end)(number 1)(part_index 1))
	(Beam (index 40)(data begin)(number 1)(part_index 1))
	(Beam (index 41)(data end)(number 1)(part_index 1))
	(Beam (index 42)(data begin)(number 1)(part_index 1))
	(Beam (index 43)(data end)(number 1)(part_index 1))
	(Beam (index 44)(data backward-hook)(number 2)(part_index 1))
	(Beam (index 45)(data begin)(number 1)(part_index 1))
	(Beam (index 46)(data continue)(number 1)(part_index 1))
	(Beam (index 47)(data continue)(number 1)(part_index 1))
	(Beam (index 48)(data end)(number 1)(part_index 1))
	(Beam (index 49)(data begin)(number 1)(part_index 1))
	(Beam (index 50)(data end)(number 1)(part_index 1))
	(Beam (index 51)(data begin)(number 1)(part_index 1))
	(Beam (index 52)(data end)(number 1)(part_index 1))
	(Beam (index 53)(data begin)(number 1)(part_index 1))
	(Beam (index 54)(data end)(number 1)(part_index 1))
	(Beam (index 55)(data begin)(number 1)(part_index 1))
	(Beam (index 56)(data end)(number 1)(part_index 1))
	(Beam (index 57)(data backward-hook)(number 2)(part_index 1))
)

(deffacts keys
	(Key (index 0)(fifths 0)(part_index 1))
)

(deffacts times
	(Time (index 0)(beats 4)(beat_type 4)(part_index 1))
)

(deffacts transposes
)

(deffacts directions
	(Direction (index 0)(placement above)(direction_type_index 0)(sound_index 0)(part_index 1))
)

(deffacts direction_types
	(Direction_Type (index 0)(metronome_index 0)(part_index 1))
)

(deffacts metronomes
	(Metronome (index 0)(parentheses no)(default_x -39.76)(relative_y 20.00)(beat_unit quarter)(per_minute 110)(part_index 1))
)

(deffacts sounds
	(Sound (index 0)(tempo 110)(part_index 1))
)

(deffacts clefs
	(Clef (index 0)(sign G)(line 2)(part_index 1))
)

(deffacts barlines
	(Barline (index 0)(location right)(bar_style light-heavy)(part_index 1))
)

(deffacts ties
	(Tie (index 0)(type start)(part_index 1))
	(Tie (index 1)(type stop)(part_index 1))
	(Tie (index 2)(type start)(part_index 1))
	(Tie (index 3)(type stop)(part_index 1))
)

(deffacts instruments
)

(deffacts prints
)

(deffacts notationss
	(Notations (index 0)(tied_index 0)(part_index 1))
	(Notations (index 1)(tied_index 1)(part_index 1))
	(Notations (index 2)(tied_index 2)(part_index 1))
	(Notations (index 3)(tied_index 3)(part_index 1))
)

(deffacts backups
)

(deffacts unpitcheds
	(Unpitched (index 0)(part_index -1)(display_step A))
)

(deffacts articulationss
)

(deffacts repeats
)

(deffacts staff_layouts
)

(deffacts tieds
	(Tied (index 0)(type start)(part_index 1))
	(Tied (index 1)(type stop)(part_index 1))
	(Tied (index 2)(type start)(part_index 1))
	(Tied (index 3)(type stop)(part_index 1))
)

(deffacts system_layouts
)

(deffacts system_marginss
)

