(deftemplate Part
	(slot id)
	(slot index)
	(slot part_index)
	(multislot measure)
)

(deftemplate Attributes
	(slot divisions)
	(slot clef_index)
	(slot index)
	(slot part_index)
	(slot time_index)
	(slot key_index)
)

(deftemplate Measure
	(slot barline_index)
	(slot width)
	(slot direction_index)
	(slot index)
	(slot number)
	(slot part_index)
	(slot attributes_index)
	(multislot note)
)

(deftemplate Note
	(slot tie_index)
	(slot dynamics)
	(slot index)
	(slot default_y)
	(slot duration)
	(slot lyric_index)
	(slot stem)
	(slot voice)
	(slot type)
	(slot notations_index)
	(slot beam_index)
	(slot pitch_index)
	(slot default_x)
	(slot part_index)
	(multislot beam)
)

(deftemplate Pitch
	(slot step)
	(slot octave)
	(slot index)
	(slot part_index)
)

(deftemplate Beam
	(slot number)
	(slot index)
	(slot data)
	(slot part_index)
)

(deftemplate Key
	(slot fifths)
	(slot index)
	(slot part_index)
)

(deftemplate Time
	(slot beat_type)
	(slot index)
	(slot beats)
	(slot part_index)
)

(deftemplate Transpose
)

(deftemplate Direction
	(slot index)
	(slot placement)
	(slot part_index)
	(slot direction_type_index)
	(slot sound_index)
)

(deftemplate Direction_Type
	(slot metronome_index)
	(slot index)
	(slot part_index)
)

(deftemplate Metronome
	(slot per_minute)
	(slot index)
	(slot default_x)
	(slot part_index)
	(slot parentheses)
	(slot relative_y)
	(slot beat_unit)
)

(deftemplate Sound
	(slot tempo)
	(slot index)
	(slot part_index)
)

(deftemplate Clef
	(slot sign)
	(slot line)
	(slot index)
	(slot part_index)
)

(deftemplate Barline
	(slot bar_style)
	(slot location)
	(slot index)
	(slot part_index)
)

(deftemplate Tie
	(slot type)
	(slot index)
	(slot part_index)
)

(deftemplate Instrument
)

(deftemplate Print
)

(deftemplate Notations
	(slot tied_index)
	(slot articulations_index)
	(slot index)
	(slot part_index)
)

(deftemplate Backup
)

(deftemplate Unpitched
	(slot display_step)
	(slot index)
	(slot part_index)
)

(deftemplate Articulations
	(slot index)
	(slot part_index)
)

(deftemplate Repeat
)

(deftemplate Staff_layout
)

(deftemplate Tied
	(slot type)
	(slot index)
	(slot part_index)
)

(deftemplate System_layout
)

(deftemplate System_margins
)

(deffacts parts
	(Part (index 0)(id P1)(measure 0 1 2 3 4 5 6 7 8 9 10 11 12 13 14 15 16 17 18 19 20 21 22 23 24 25 26 27 28 29 30)(part_index 1))
)

(deffacts attributess
	(Attributes (index 0)(divisions 4)(key_index 0)(time_index 0)(clef_index 0)(part_index 1))
)

(deffacts measures
	(Measure (index 0)(number 1)(width 164.08)(attributes_index 0)(direction_index 0)(note 0 1 2)(part_index 1))
	(Measure (index 1)(number 2)(width 100.27)(note 3 4 5 6)(part_index 1))
	(Measure (index 2)(number 3)(width 94.81)(note 7 8 9)(part_index 1))
	(Measure (index 3)(number 4)(width 100.27)(note 10 11 12 13)(part_index 1))
	(Measure (index 4)(number 5)(width 82.51)(note 14 15 16)(part_index 1))
	(Measure (index 5)(number 6)(width 75.85)(note 17 18)(part_index 1))
	(Measure (index 6)(number 7)(width 90.91)(note 19 20 21 22)(part_index 1))
	(Measure (index 7)(number 8)(width 65.28)(note 23 24)(part_index 1))
	(Measure (index 8)(number 9)(width 65.28)(note 25 26)(part_index 1))
	(Measure (index 9)(number 10)(width 73.67)(note 27 28 29)(part_index 1))
	(Measure (index 10)(number 11)(width 73.67)(note 30 31 32)(part_index 1))
	(Measure (index 11)(number 12)(width 90.91)(note 33 34 35 36)(part_index 1))
	(Measure (index 12)(number 13)(width 139.30)(note 37 38 39 40)(part_index 1))
	(Measure (index 13)(number 14)(width 76.07)(note 41 42)(part_index 1))
	(Measure (index 14)(number 15)(width 95.04)(note 43 44 45)(part_index 1))
	(Measure (index 15)(number 16)(width 104.29)(note 46 47 48 49)(part_index 1))
	(Measure (index 16)(number 17)(width 95.04)(note 50 51 52)(part_index 1))
	(Measure (index 17)(number 18)(width 100.49)(note 53 54 55 56)(part_index 1))
	(Measure (index 18)(number 19)(width 101.70)(note 57 58 59 60)(part_index 1))
	(Measure (index 19)(number 20)(width 95.04)(note 61 62 63)(part_index 1))
	(Measure (index 20)(number 21)(width 91.13)(note 64 65 66 67)(part_index 1))
	(Measure (index 21)(number 22)(width 94.93)(note 68 69 70 71)(part_index 1))
	(Measure (index 22)(number 23)(width 84.47)(note 72 73 74)(part_index 1))
	(Measure (index 23)(number 24)(width 187.06)(note 75 76 77 78)(part_index 1))
	(Measure (index 24)(number 25)(width 121.65)(note 79 80 81)(part_index 1))
	(Measure (index 25)(number 26)(width 128.31)(note 82 83 84 85)(part_index 1))
	(Measure (index 26)(number 27)(width 128.31)(note 86 87 88 89)(part_index 1))
	(Measure (index 27)(number 28)(width 132.22)(note 90 91 92)(part_index 1))
	(Measure (index 28)(number 29)(width 121.65)(note 93 94 95)(part_index 1))
	(Measure (index 29)(number 30)(width 132.22)(note 96 97 98)(part_index 1))
	(Measure (index 30)(number 31)(width 126.05)(note 99 100 101)(barline_index 0)(part_index 1))
)

(deffacts notes
	(Note (index 0)(default_x 79.27)(default_y -35.00)(dynamics 100.00)(pitch_index 0)(duration 2)(voice 1)(type eighth)(stem up)(lyric_index 861)(part_index 1))
	(Note (index 1)(default_x 104.54)(default_y -30.00)(dynamics 100.00)(pitch_index 1)(duration 4)(voice 1)(type quarter)(stem up)(part_index 1))
	(Note (index 2)(default_x 129.71)(default_y -30.00)(dynamics 100.00)(pitch_index 2)(duration 2)(tie_index 0)(voice 1)(type eighth)(stem up)(notations_index 0)(part_index 1))
	(Note (index 3)(default_x 10.00)(default_y -30.00)(dynamics 100.00)(pitch_index 3)(duration 2)(tie_index 1)(voice 1)(type eighth)(stem up)(notations_index 1)(part_index 1))
	(Note (index 4)(duration 2)(voice 1)(type eighth)(part_index 1))
	(Note (index 5)(default_x 54.84)(default_y -30.00)(dynamics 100.00)(pitch_index 4)(duration 2)(voice 1)(type eighth)(stem up)(beam_index 0)(part_index 1))
	(Note (index 6)(default_x 75.50)(default_y -25.00)(dynamics 100.00)(pitch_index 5)(duration 2)(voice 1)(type eighth)(stem up)(beam_index 1)(part_index 1))
	(Note (index 7)(default_x 10.00)(default_y -30.00)(dynamics 100.00)(pitch_index 6)(duration 2)(voice 1)(type eighth)(stem up)(part_index 1))
	(Note (index 8)(default_x 35.28)(default_y -35.00)(dynamics 100.00)(pitch_index 7)(duration 4)(voice 1)(type quarter)(stem up)(part_index 1))
	(Note (index 9)(default_x 60.44)(default_y -30.00)(dynamics 100.00)(pitch_index 8)(duration 2)(tie_index 2)(voice 1)(type eighth)(stem up)(notations_index 2)(part_index 1))
	(Note (index 10)(default_x 10.00)(default_y -30.00)(dynamics 100.00)(pitch_index 9)(duration 2)(tie_index 3)(voice 1)(type eighth)(stem up)(notations_index 3)(part_index 1))
	(Note (index 11)(duration 2)(voice 1)(type eighth)(part_index 1))
	(Note (index 12)(default_x 54.84)(default_y -25.00)(dynamics 100.00)(pitch_index 10)(duration 2)(voice 1)(type eighth)(stem down)(beam_index 2)(part_index 1))
	(Note (index 13)(default_x 75.50)(default_y -15.00)(dynamics 100.00)(pitch_index 11)(duration 2)(tie_index 4)(voice 1)(type eighth)(stem down)(beam_index 3)(notations_index 4)(part_index 1))
	(Note (index 14)(default_x 10.00)(default_y -15.00)(dynamics 100.00)(pitch_index 12)(duration 1)(tie_index 5)(voice 1)(type 16th)(stem down)(beam 4 5)(notations_index 5)(part_index 1))
	(Note (index 15)(default_x 25.67)(default_y -25.00)(dynamics 100.00)(pitch_index 13)(duration 1)(voice 1)(type 16th)(stem down)(beam 6 7)(part_index 1))
	(Note (index 16)(default_x 41.33)(default_y -30.00)(dynamics 100.00)(pitch_index 14)(duration 6)(voice 1)(type quarter)(stem up)(part_index 1))
	(Note (index 17)(default_x 10.00)(default_y -25.00)(dynamics 100.00)(pitch_index 15)(duration 2)(voice 1)(type eighth)(stem up)(part_index 1))
	(Note (index 18)(default_x 35.27)(default_y -15.00)(dynamics 100.00)(pitch_index 16)(duration 6)(voice 1)(type quarter)(stem down)(part_index 1))
	(Note (index 19)(default_x 10.00)(default_y -15.00)(dynamics 100.00)(pitch_index 17)(duration 2)(voice 1)(type eighth)(stem down)(beam_index 8)(part_index 1))
	(Note (index 20)(default_x 28.71)(default_y -10.00)(dynamics 100.00)(pitch_index 18)(duration 2)(voice 1)(type eighth)(stem down)(beam_index 9)(part_index 1))
	(Note (index 21)(default_x 47.43)(default_y -10.00)(dynamics 100.00)(pitch_index 19)(duration 2)(voice 1)(type eighth)(stem up)(beam_index 10)(part_index 1))
	(Note (index 22)(default_x 66.14)(default_y -45.00)(dynamics 100.00)(pitch_index 20)(duration 2)(voice 1)(type eighth)(stem up)(beam_index 11)(part_index 1))
	(Note (index 23)(default_x 10.00)(default_y -15.00)(dynamics 100.00)(pitch_index 21)(duration 2)(voice 1)(type eighth)(stem down)(part_index 1))
	(Note (index 24)(default_x 28.19)(default_y -10.00)(dynamics 100.00)(pitch_index 22)(duration 6)(voice 1)(type quarter)(stem down)(notations_index 6)(part_index 1))
	(Note (index 25)(default_x 10.00)(default_y -15.00)(dynamics 100.00)(pitch_index 23)(duration 2)(voice 1)(type eighth)(stem down)(part_index 1))
	(Note (index 26)(default_x 28.19)(default_y -10.00)(dynamics 100.00)(pitch_index 24)(duration 6)(voice 1)(type quarter)(stem down)(part_index 1))
	(Note (index 27)(default_x 10.00)(default_y -10.00)(dynamics 100.00)(pitch_index 25)(duration 2)(voice 1)(type eighth)(stem down)(part_index 1))
	(Note (index 28)(default_x 25.67)(default_y 0.00)(dynamics 100.00)(pitch_index 26)(duration 4)(voice 1)(type quarter)(stem down)(part_index 1))
	(Note (index 29)(default_x 48.91)(default_y 5.00)(dynamics 100.00)(pitch_index 27)(duration 2)(tie_index 6)(voice 1)(type eighth)(stem down)(notations_index 7)(part_index 1))
	(Note (index 30)(default_x 10.00)(default_y 5.00)(dynamics 100.00)(pitch_index 28)(duration 2)(tie_index 7)(voice 1)(type eighth)(stem down)(notations_index 8)(part_index 1))
	(Note (index 31)(default_x 25.67)(default_y -10.00)(dynamics 100.00)(pitch_index 29)(duration 4)(voice 1)(type quarter)(stem down)(part_index 1))
	(Note (index 32)(default_x 48.91)(default_y -10.00)(dynamics 100.00)(pitch_index 30)(duration 2)(voice 1)(type eighth)(stem down)(part_index 1))
	(Note (index 33)(default_x 10.00)(default_y -25.00)(dynamics 100.00)(pitch_index 31)(duration 2)(voice 1)(type eighth)(stem down)(beam_index 12)(part_index 1))
	(Note (index 34)(default_x 28.71)(default_y -15.00)(dynamics 100.00)(pitch_index 32)(duration 2)(voice 1)(type eighth)(stem down)(beam_index 13)(part_index 1))
	(Note (index 35)(default_x 47.43)(default_y -15.00)(dynamics 100.00)(pitch_index 33)(duration 2)(voice 1)(type eighth)(stem down)(beam_index 14)(part_index 1))
	(Note (index 36)(default_x 66.14)(default_y -10.00)(dynamics 100.00)(pitch_index 34)(duration 2)(voice 1)(type eighth)(stem down)(beam_index 15)(part_index 1))
	(Note (index 37)(default_x 58.17)(default_y -10.00)(dynamics 100.00)(pitch_index 35)(duration 2)(voice 1)(type eighth)(stem down)(beam_index 16)(part_index 1))
	(Note (index 38)(default_x 76.96)(default_y -15.00)(dynamics 100.00)(pitch_index 36)(duration 2)(voice 1)(type eighth)(stem down)(beam_index 17)(part_index 1))
	(Note (index 39)(default_x 95.75)(default_y -15.00)(dynamics 100.00)(pitch_index 37)(duration 2)(voice 1)(type eighth)(stem down)(beam_index 18)(part_index 1))
	(Note (index 40)(default_x 114.54)(default_y -25.00)(dynamics 100.00)(pitch_index 38)(duration 2)(voice 1)(type eighth)(stem down)(beam_index 19)(part_index 1))
	(Note (index 41)(default_x 10.00)(default_y -30.00)(dynamics 100.00)(pitch_index 39)(duration 2)(voice 1)(type eighth)(stem up)(part_index 1))
	(Note (index 42)(default_x 35.27)(default_y -35.00)(dynamics 100.00)(pitch_index 40)(duration 6)(voice 1)(type quarter)(stem up)(notations_index 9)(part_index 1))
	(Note (index 43)(default_x 10.00)(default_y -45.00)(dynamics 100.00)(pitch_index 41)(duration 2)(voice 1)(type eighth)(stem up)(part_index 1))
	(Note (index 44)(default_x 35.28)(default_y -35.00)(dynamics 100.00)(pitch_index 42)(duration 4)(voice 1)(type quarter)(stem up)(part_index 1))
	(Note (index 45)(default_x 60.66)(default_y -50.00)(dynamics 100.00)(pitch_index 43)(duration 2)(tie_index 8)(voice 1)(type eighth)(stem up)(notations_index 10)(part_index 1))
	(Note (index 46)(default_x 13.80)(default_y -50.00)(dynamics 100.00)(pitch_index 44)(duration 2)(tie_index 9)(voice 1)(type eighth)(stem up)(notations_index 11)(part_index 1))
	(Note (index 47)(duration 2)(voice 1)(type eighth)(part_index 1))
	(Note (index 48)(default_x 58.75)(default_y -45.00)(dynamics 100.00)(pitch_index 45)(duration 2)(voice 1)(type eighth)(stem up)(beam_index 20)(part_index 1))
	(Note (index 49)(default_x 79.52)(default_y -35.00)(dynamics 100.00)(pitch_index 46)(duration 2)(voice 1)(type eighth)(stem up)(beam_index 21)(part_index 1))
	(Note (index 50)(default_x 10.00)(default_y -45.00)(dynamics 100.00)(pitch_index 47)(duration 2)(voice 1)(type eighth)(stem up)(part_index 1))
	(Note (index 51)(default_x 35.27)(default_y -35.00)(dynamics 100.00)(pitch_index 48)(duration 4)(voice 1)(type quarter)(stem up)(part_index 1))
	(Note (index 52)(default_x 60.66)(default_y -30.00)(dynamics 100.00)(pitch_index 49)(duration 2)(tie_index 10)(voice 1)(type eighth)(stem up)(notations_index 12)(part_index 1))
	(Note (index 53)(default_x 10.00)(default_y -30.00)(dynamics 100.00)(pitch_index 50)(duration 2)(tie_index 11)(voice 1)(type eighth)(stem up)(notations_index 13)(part_index 1))
	(Note (index 54)(duration 2)(voice 1)(type eighth)(part_index 1))
	(Note (index 55)(default_x 54.95)(default_y -25.00)(dynamics 100.00)(pitch_index 51)(duration 2)(voice 1)(type eighth)(stem down)(beam_index 22)(part_index 1))
	(Note (index 56)(default_x 75.72)(default_y -15.00)(dynamics 100.00)(pitch_index 52)(duration 2)(tie_index 12)(voice 1)(type eighth)(stem down)(beam_index 23)(notations_index 14)(part_index 1))
	(Note (index 57)(default_x 10.00)(default_y -15.00)(dynamics 100.00)(pitch_index 53)(duration 1)(tie_index 13)(voice 1)(type 16th)(stem down)(beam 24 25)(notations_index 15)(part_index 1))
	(Note (index 58)(default_x 25.67)(default_y -25.00)(dynamics 100.00)(pitch_index 54)(duration 1)(voice 1)(type 16th)(stem down)(beam 26 27)(part_index 1))
	(Note (index 59)(default_x 41.33)(default_y -30.00)(dynamics 100.00)(pitch_index 55)(duration 4)(voice 1)(type quarter)(stem up)(part_index 1))
	(Note (index 60)(default_x 67.32)(default_y -25.00)(dynamics 100.00)(pitch_index 56)(duration 2)(voice 1)(type eighth)(stem up)(part_index 1))
	(Note (index 61)(default_x 10.00)(default_y -35.00)(dynamics 100.00)(pitch_index 57)(duration 2)(voice 1)(type eighth)(stem up)(part_index 1))
	(Note (index 62)(default_x 35.28)(default_y -30.00)(dynamics 100.00)(pitch_index 58)(duration 4)(voice 1)(type quarter)(stem up)(part_index 1))
	(Note (index 63)(default_x 60.66)(default_y -25.00)(dynamics 100.00)(pitch_index 59)(duration 2)(voice 1)(type eighth)(stem up)(part_index 1))
	(Note (index 64)(default_x 10.00)(default_y -35.00)(dynamics 100.00)(pitch_index 60)(duration 2)(voice 1)(type eighth)(stem up)(beam_index 28)(part_index 1))
	(Note (index 65)(default_x 28.79)(default_y -35.00)(dynamics 100.00)(pitch_index 61)(duration 2)(voice 1)(type eighth)(stem up)(beam_index 29)(part_index 1))
	(Note (index 66)(default_x 47.58)(default_y -35.00)(dynamics 100.00)(pitch_index 62)(duration 2)(voice 1)(type eighth)(stem up)(beam_index 30)(part_index 1))
	(Note (index 67)(default_x 66.36)(default_y -45.00)(dynamics 100.00)(pitch_index 63)(duration 2)(voice 1)(type eighth)(stem up)(beam_index 31)(part_index 1))
	(Note (index 68)(default_x 13.80)(default_y -50.00)(dynamics 100.00)(pitch_index 64)(duration 2)(voice 1)(type eighth)(stem up)(beam_index 32)(part_index 1))
	(Note (index 69)(default_x 32.59)(default_y -35.00)(dynamics 100.00)(pitch_index 65)(duration 2)(voice 1)(type eighth)(stem up)(beam_index 33)(part_index 1))
	(Note (index 70)(default_x 51.38)(default_y -35.00)(dynamics 100.00)(pitch_index 66)(duration 2)(voice 1)(type eighth)(stem up)(beam_index 34)(part_index 1))
	(Note (index 71)(default_x 70.16)(default_y -30.00)(dynamics 100.00)(pitch_index 67)(duration 2)(voice 1)(type eighth)(stem up)(beam_index 35)(part_index 1))
	(Note (index 72)(default_x 10.00)(default_y -35.00)(dynamics 100.00)(pitch_index 68)(duration 2)(voice 1)(type eighth)(stem up)(part_index 1))
	(Note (index 73)(default_x 35.27)(default_y -30.00)(dynamics 100.00)(pitch_index 69)(duration 4)(voice 1)(type quarter)(stem up)(part_index 1))
	(Note (index 74)(default_x 59.70)(default_y -15.00)(dynamics 100.00)(pitch_index 70)(duration 2)(tie_index 14)(voice 1)(type eighth)(stem down)(notations_index 16)(part_index 1))
	(Note (index 75)(default_x 58.17)(default_y -15.00)(dynamics 100.00)(pitch_index 71)(duration 1)(tie_index 15)(voice 1)(type 16th)(stem down)(beam 36 37)(notations_index 17)(part_index 1))
	(Note (index 76)(default_x 80.12)(default_y -25.00)(dynamics 100.00)(pitch_index 72)(duration 1)(voice 1)(type 16th)(stem down)(beam 38 39)(part_index 1))
	(Note (index 77)(default_x 102.07)(default_y -30.00)(dynamics 100.00)(pitch_index 73)(duration 4)(voice 1)(type quarter)(stem up)(part_index 1))
	(Note (index 78)(default_x 150.35)(default_y -25.00)(dynamics 100.00)(pitch_index 74)(duration 2)(voice 1)(type eighth)(stem up)(part_index 1))
	(Note (index 79)(default_x 10.00)(default_y -35.00)(dynamics 100.00)(pitch_index 75)(duration 2)(voice 1)(type eighth)(stem up)(part_index 1))
	(Note (index 80)(default_x 40.57)(default_y -30.00)(dynamics 100.00)(pitch_index 76)(duration 4)(voice 1)(type quarter)(stem up)(part_index 1))
	(Note (index 81)(default_x 89.48)(default_y -10.00)(dynamics 100.00)(pitch_index 77)(duration 2)(voice 1)(type eighth)(stem down)(part_index 1))
	(Note (index 82)(default_x 10.00)(default_y -10.00)(dynamics 100.00)(pitch_index 78)(duration 2)(voice 1)(type eighth)(stem down)(beam_index 40)(part_index 1))
	(Note (index 83)(default_x 39.18)(default_y -10.00)(dynamics 100.00)(pitch_index 79)(duration 2)(voice 1)(type eighth)(stem down)(beam_index 41)(part_index 1))
	(Note (index 84)(default_x 68.36)(default_y -10.00)(dynamics 100.00)(pitch_index 80)(duration 2)(voice 1)(type eighth)(stem down)(beam_index 42)(part_index 1))
	(Note (index 85)(default_x 97.54)(default_y -10.00)(dynamics 100.00)(pitch_index 81)(duration 2)(voice 1)(type eighth)(stem down)(beam_index 43)(part_index 1))
	(Note (index 86)(default_x 10.00)(default_y -35.00)(dynamics 100.00)(pitch_index 82)(duration 2)(voice 1)(type eighth)(stem up)(beam_index 44)(part_index 1))
	(Note (index 87)(default_x 39.18)(default_y -30.00)(dynamics 100.00)(pitch_index 83)(duration 2)(voice 1)(type eighth)(stem up)(beam_index 45)(part_index 1))
	(Note (index 88)(default_x 68.36)(default_y -30.00)(dynamics 100.00)(pitch_index 84)(duration 2)(voice 1)(type eighth)(stem up)(beam_index 46)(part_index 1))
	(Note (index 89)(default_x 97.54)(default_y -25.00)(dynamics 100.00)(pitch_index 85)(duration 2)(voice 1)(type eighth)(stem up)(beam_index 47)(part_index 1))
	(Note (index 90)(default_x 10.00)(default_y -30.00)(dynamics 100.00)(pitch_index 86)(duration 2)(voice 1)(type eighth)(stem up)(part_index 1))
	(Note (index 91)(default_x 43.51)(default_y -65.00)(dynamics 100.00)(pitch_index 87)(duration 4)(voice 1)(type quarter)(stem up)(part_index 1))
	(Note (index 92)(default_x 97.12)(default_y -35.00)(dynamics 100.00)(pitch_index 88)(duration 2)(tie_index 16)(voice 1)(type eighth)(stem up)(notations_index 18)(part_index 1))
	(Note (index 93)(default_x 10.00)(default_y -35.00)(dynamics 100.00)(pitch_index 89)(duration 2)(tie_index 17)(voice 1)(type eighth)(stem up)(notations_index 19)(part_index 1))
	(Note (index 94)(default_x 40.57)(default_y -30.00)(dynamics 100.00)(pitch_index 90)(duration 4)(voice 1)(type quarter)(stem up)(part_index 1))
	(Note (index 95)(default_x 89.48)(default_y -15.00)(dynamics 100.00)(pitch_index 91)(duration 2)(voice 1)(type eighth)(stem down)(part_index 1))
	(Note (index 96)(default_x 10.00)(default_y -25.00)(dynamics 100.00)(pitch_index 92)(duration 2)(voice 1)(type eighth)(stem up)(part_index 1))
	(Note (index 97)(default_x 43.51)(default_y -30.00)(dynamics 100.00)(pitch_index 93)(duration 4)(voice 1)(type quarter)(stem up)(part_index 1))
	(Note (index 98)(default_x 97.12)(default_y -50.00)(dynamics 100.00)(pitch_index 94)(duration 2)(tie_index 18)(voice 1)(type eighth)(stem up)(notations_index 20)(part_index 1))
	(Note (index 99)(default_x 13.80)(default_y -50.00)(dynamics 100.00)(pitch_index 95)(duration 2)(tie_index 19)(voice 1)(type eighth)(stem up)(notations_index 21)(part_index 1))
	(Note (index 100)(default_x 48.25)(default_y -65.00)(dynamics 100.00)(pitch_index 96)(duration 6)(voice 1)(type quarter)(stem up)(notations_index 22)(part_index 1))
	(Note (index 101)(default_x 48.25)(default_y -30.00)(dynamics 100.00)(pitch_index 97)(duration 6)(voice 1)(type quarter)(stem up)(part_index 1))
)

(deffacts pitchs
	(Pitch (index 0)(step F)(octave 4)(part_index 1))
	(Pitch (index 1)(step G)(octave 4)(part_index 1))
	(Pitch (index 2)(step G)(octave 4)(part_index 1))
	(Pitch (index 3)(step G)(octave 4)(part_index 1))
	(Pitch (index 4)(step G)(octave 4)(part_index 1))
	(Pitch (index 5)(step A)(octave 4)(part_index 1))
	(Pitch (index 6)(step G)(octave 4)(part_index 1))
	(Pitch (index 7)(step F)(octave 4)(part_index 1))
	(Pitch (index 8)(step G)(octave 4)(part_index 1))
	(Pitch (index 9)(step G)(octave 4)(part_index 1))
	(Pitch (index 10)(step A)(octave 4)(part_index 1))
	(Pitch (index 11)(step C)(octave 5)(part_index 1))
	(Pitch (index 12)(step C)(octave 5)(part_index 1))
	(Pitch (index 13)(step A)(octave 4)(part_index 1))
	(Pitch (index 14)(step G)(octave 4)(part_index 1))
	(Pitch (index 15)(step A)(octave 4)(part_index 1))
	(Pitch (index 16)(step C)(octave 5)(part_index 1))
	(Pitch (index 17)(step C)(octave 5)(part_index 1))
	(Pitch (index 18)(step D)(octave 5)(part_index 1))
	(Pitch (index 19)(step D)(octave 5)(part_index 1))
	(Pitch (index 20)(step D)(octave 4)(part_index 1))
	(Pitch (index 21)(step C)(octave 5)(part_index 1))
	(Pitch (index 22)(step D)(octave 5)(part_index 1))
	(Pitch (index 23)(step C)(octave 5)(part_index 1))
	(Pitch (index 24)(step D)(octave 5)(part_index 1))
	(Pitch (index 25)(step D)(octave 5)(part_index 1))
	(Pitch (index 26)(step F)(octave 5)(part_index 1))
	(Pitch (index 27)(step G)(octave 5)(part_index 1))
	(Pitch (index 28)(step G)(octave 5)(part_index 1))
	(Pitch (index 29)(step D)(octave 5)(part_index 1))
	(Pitch (index 30)(step D)(octave 5)(part_index 1))
	(Pitch (index 31)(step A)(octave 4)(part_index 1))
	(Pitch (index 32)(step C)(octave 5)(part_index 1))
	(Pitch (index 33)(step C)(octave 5)(part_index 1))
	(Pitch (index 34)(step D)(octave 5)(part_index 1))
	(Pitch (index 35)(step D)(octave 5)(part_index 1))
	(Pitch (index 36)(step C)(octave 5)(part_index 1))
	(Pitch (index 37)(step C)(octave 5)(part_index 1))
	(Pitch (index 38)(step A)(octave 4)(part_index 1))
	(Pitch (index 39)(step G)(octave 4)(part_index 1))
	(Pitch (index 40)(step F)(octave 4)(part_index 1))
	(Pitch (index 41)(step D)(octave 4)(part_index 1))
	(Pitch (index 42)(step F)(octave 4)(part_index 1))
	(Pitch (index 43)(step C)(octave 4)(part_index 1))
	(Pitch (index 44)(step C)(octave 4)(part_index 1))
	(Pitch (index 45)(step D)(octave 4)(part_index 1))
	(Pitch (index 46)(step F)(octave 4)(part_index 1))
	(Pitch (index 47)(step D)(octave 4)(part_index 1))
	(Pitch (index 48)(step F)(octave 4)(part_index 1))
	(Pitch (index 49)(step G)(octave 4)(part_index 1))
	(Pitch (index 50)(step G)(octave 4)(part_index 1))
	(Pitch (index 51)(step A)(octave 4)(part_index 1))
	(Pitch (index 52)(step C)(octave 5)(part_index 1))
	(Pitch (index 53)(step C)(octave 5)(part_index 1))
	(Pitch (index 54)(step A)(octave 4)(part_index 1))
	(Pitch (index 55)(step G)(octave 4)(part_index 1))
	(Pitch (index 56)(step A)(octave 4)(part_index 1))
	(Pitch (index 57)(step F)(octave 4)(part_index 1))
	(Pitch (index 58)(step G)(octave 4)(part_index 1))
	(Pitch (index 59)(step A)(octave 4)(part_index 1))
	(Pitch (index 60)(step F)(octave 4)(part_index 1))
	(Pitch (index 61)(step F)(octave 4)(part_index 1))
	(Pitch (index 62)(step F)(octave 4)(part_index 1))
	(Pitch (index 63)(step D)(octave 4)(part_index 1))
	(Pitch (index 64)(step C)(octave 4)(part_index 1))
	(Pitch (index 65)(step F)(octave 4)(part_index 1))
	(Pitch (index 66)(step F)(octave 4)(part_index 1))
	(Pitch (index 67)(step G)(octave 4)(part_index 1))
	(Pitch (index 68)(step F)(octave 4)(part_index 1))
	(Pitch (index 69)(step G)(octave 4)(part_index 1))
	(Pitch (index 70)(step C)(octave 5)(part_index 1))
	(Pitch (index 71)(step C)(octave 5)(part_index 1))
	(Pitch (index 72)(step A)(octave 4)(part_index 1))
	(Pitch (index 73)(step G)(octave 4)(part_index 1))
	(Pitch (index 74)(step A)(octave 4)(part_index 1))
	(Pitch (index 75)(step F)(octave 4)(part_index 1))
	(Pitch (index 76)(step G)(octave 4)(part_index 1))
	(Pitch (index 77)(step D)(octave 5)(part_index 1))
	(Pitch (index 78)(step D)(octave 5)(part_index 1))
	(Pitch (index 79)(step D)(octave 5)(part_index 1))
	(Pitch (index 80)(step D)(octave 5)(part_index 1))
	(Pitch (index 81)(step D)(octave 5)(part_index 1))
	(Pitch (index 82)(step F)(octave 4)(part_index 1))
	(Pitch (index 83)(step G)(octave 4)(part_index 1))
	(Pitch (index 84)(step G)(octave 4)(part_index 1))
	(Pitch (index 85)(step A)(octave 4)(part_index 1))
	(Pitch (index 86)(step G)(octave 4)(part_index 1))
	(Pitch (index 87)(step G)(octave 3)(part_index 1))
	(Pitch (index 88)(step F)(octave 4)(part_index 1))
	(Pitch (index 89)(step F)(octave 4)(part_index 1))
	(Pitch (index 90)(step G)(octave 4)(part_index 1))
	(Pitch (index 91)(step C)(octave 5)(part_index 1))
	(Pitch (index 92)(step A)(octave 4)(part_index 1))
	(Pitch (index 93)(step G)(octave 4)(part_index 1))
	(Pitch (index 94)(step C)(octave 4)(part_index 1))
	(Pitch (index 95)(step C)(octave 4)(part_index 1))
	(Pitch (index 96)(step G)(octave 3)(part_index 1))
	(Pitch (index 97)(step G)(octave 4)(part_index 1))
)

(deffacts beams
	(Beam (index 0)(data begin)(number 1)(part_index 1))
	(Beam (index 1)(data end)(number 1)(part_index 1))
	(Beam (index 2)(data begin)(number 1)(part_index 1))
	(Beam (index 3)(data end)(number 1)(part_index 1))
	(Beam (index 4)(data begin)(number 1)(part_index 1))
	(Beam (index 5)(data begin)(number 2)(part_index 1))
	(Beam (index 6)(data end)(number 1)(part_index 1))
	(Beam (index 7)(data end)(number 2)(part_index 1))
	(Beam (index 8)(data begin)(number 1)(part_index 1))
	(Beam (index 9)(data end)(number 1)(part_index 1))
	(Beam (index 10)(data begin)(number 1)(part_index 1))
	(Beam (index 11)(data end)(number 1)(part_index 1))
	(Beam (index 12)(data begin)(number 1)(part_index 1))
	(Beam (index 13)(data end)(number 1)(part_index 1))
	(Beam (index 14)(data begin)(number 1)(part_index 1))
	(Beam (index 15)(data end)(number 1)(part_index 1))
	(Beam (index 16)(data begin)(number 1)(part_index 1))
	(Beam (index 17)(data end)(number 1)(part_index 1))
	(Beam (index 18)(data begin)(number 1)(part_index 1))
	(Beam (index 19)(data end)(number 1)(part_index 1))
	(Beam (index 20)(data begin)(number 1)(part_index 1))
	(Beam (index 21)(data end)(number 1)(part_index 1))
	(Beam (index 22)(data begin)(number 1)(part_index 1))
	(Beam (index 23)(data end)(number 1)(part_index 1))
	(Beam (index 24)(data begin)(number 1)(part_index 1))
	(Beam (index 25)(data begin)(number 2)(part_index 1))
	(Beam (index 26)(data end)(number 1)(part_index 1))
	(Beam (index 27)(data end)(number 2)(part_index 1))
	(Beam (index 28)(data begin)(number 1)(part_index 1))
	(Beam (index 29)(data end)(number 1)(part_index 1))
	(Beam (index 30)(data begin)(number 1)(part_index 1))
	(Beam (index 31)(data end)(number 1)(part_index 1))
	(Beam (index 32)(data begin)(number 1)(part_index 1))
	(Beam (index 33)(data end)(number 1)(part_index 1))
	(Beam (index 34)(data begin)(number 1)(part_index 1))
	(Beam (index 35)(data end)(number 1)(part_index 1))
	(Beam (index 36)(data begin)(number 1)(part_index 1))
	(Beam (index 37)(data begin)(number 2)(part_index 1))
	(Beam (index 38)(data end)(number 1)(part_index 1))
	(Beam (index 39)(data end)(number 2)(part_index 1))
	(Beam (index 40)(data begin)(number 1)(part_index 1))
	(Beam (index 41)(data end)(number 1)(part_index 1))
	(Beam (index 42)(data begin)(number 1)(part_index 1))
	(Beam (index 43)(data end)(number 1)(part_index 1))
	(Beam (index 44)(data begin)(number 1)(part_index 1))
	(Beam (index 45)(data end)(number 1)(part_index 1))
	(Beam (index 46)(data begin)(number 1)(part_index 1))
	(Beam (index 47)(data end)(number 1)(part_index 1))
)

(deffacts keys
	(Key (index 0)(fifths 0)(part_index 1))
)

(deffacts times
	(Time (index 0)(beats 2)(beat_type 4)(part_index 1))
)

(deffacts transposes
)

(deffacts directions
	(Direction (index 0)(placement above)(direction_type_index 0)(sound_index 0)(part_index 1))
)

(deffacts direction_types
	(Direction_Type (index 0)(metronome_index 0)(part_index 1))
)

(deffacts metronomes
	(Metronome (index 0)(parentheses no)(default_x -35.96)(relative_y 20.00)(beat_unit quarter)(per_minute 70)(part_index 1))
)

(deffacts sounds
	(Sound (index 0)(tempo 70)(part_index 1))
)

(deffacts clefs
	(Clef (index 0)(sign G)(line 2)(part_index 1))
)

(deffacts barlines
	(Barline (index 0)(location right)(bar_style light-heavy)(part_index 1))
)

(deffacts ties
	(Tie (index 0)(type start)(part_index 1))
	(Tie (index 1)(type stop)(part_index 1))
	(Tie (index 2)(type start)(part_index 1))
	(Tie (index 3)(type stop)(part_index 1))
	(Tie (index 4)(type start)(part_index 1))
	(Tie (index 5)(type stop)(part_index 1))
	(Tie (index 6)(type start)(part_index 1))
	(Tie (index 7)(type stop)(part_index 1))
	(Tie (index 8)(type start)(part_index 1))
	(Tie (index 9)(type stop)(part_index 1))
	(Tie (index 10)(type start)(part_index 1))
	(Tie (index 11)(type stop)(part_index 1))
	(Tie (index 12)(type start)(part_index 1))
	(Tie (index 13)(type stop)(part_index 1))
	(Tie (index 14)(type start)(part_index 1))
	(Tie (index 15)(type stop)(part_index 1))
	(Tie (index 16)(type start)(part_index 1))
	(Tie (index 17)(type stop)(part_index 1))
	(Tie (index 18)(type start)(part_index 1))
	(Tie (index 19)(type stop)(part_index 1))
)

(deffacts instruments
)

(deffacts prints
)

(deffacts notationss
	(Notations (index 0)(tied_index 0)(part_index 1))
	(Notations (index 1)(tied_index 1)(part_index 1))
	(Notations (index 2)(tied_index 2)(part_index 1))
	(Notations (index 3)(tied_index 3)(part_index 1))
	(Notations (index 4)(tied_index 4)(part_index 1))
	(Notations (index 5)(tied_index 5)(part_index 1))
	(Notations (index 6)(articulations_index 0)(part_index 1))
	(Notations (index 7)(tied_index 6)(part_index 1))
	(Notations (index 8)(tied_index 7)(part_index 1))
	(Notations (index 9)(articulations_index 1)(part_index 1))
	(Notations (index 10)(tied_index 8)(part_index 1))
	(Notations (index 11)(tied_index 9)(part_index 1))
	(Notations (index 12)(tied_index 10)(part_index 1))
	(Notations (index 13)(tied_index 11)(part_index 1))
	(Notations (index 14)(tied_index 12)(part_index 1))
	(Notations (index 15)(tied_index 13)(part_index 1))
	(Notations (index 16)(tied_index 14)(part_index 1))
	(Notations (index 17)(tied_index 15)(part_index 1))
	(Notations (index 18)(tied_index 16)(part_index 1))
	(Notations (index 19)(tied_index 17)(part_index 1))
	(Notations (index 20)(tied_index 18)(part_index 1))
	(Notations (index 21)(tied_index 19)(part_index 1))
	(Notations (index 22)(articulations_index 2)(part_index 1))
)

(deffacts backups
)

(deffacts unpitcheds
	(Unpitched (index 0)(part_index -1)(display_step A))
)

(deffacts articulationss
	(Articulations (index 0)(part_index 1))
	(Articulations (index 1)(part_index 1))
	(Articulations (index 2)(part_index 1))
)

(deffacts repeats
)

(deffacts staff_layouts
)

(deffacts tieds
	(Tied (index 0)(type start)(part_index 1))
	(Tied (index 1)(type stop)(part_index 1))
	(Tied (index 2)(type start)(part_index 1))
	(Tied (index 3)(type stop)(part_index 1))
	(Tied (index 4)(type start)(part_index 1))
	(Tied (index 5)(type stop)(part_index 1))
	(Tied (index 6)(type start)(part_index 1))
	(Tied (index 7)(type stop)(part_index 1))
	(Tied (index 8)(type start)(part_index 1))
	(Tied (index 9)(type stop)(part_index 1))
	(Tied (index 10)(type start)(part_index 1))
	(Tied (index 11)(type stop)(part_index 1))
	(Tied (index 12)(type start)(part_index 1))
	(Tied (index 13)(type stop)(part_index 1))
	(Tied (index 14)(type start)(part_index 1))
	(Tied (index 15)(type stop)(part_index 1))
	(Tied (index 16)(type start)(part_index 1))
	(Tied (index 17)(type stop)(part_index 1))
	(Tied (index 18)(type start)(part_index 1))
	(Tied (index 19)(type stop)(part_index 1))
)

(deffacts system_layouts
)

(deffacts system_marginss
)

